%YAML 1.1
%TAG !u! tag:unity3d.com,2011:
--- !u!21 &2100000
Material:
  serializedVersion: 6
  m_ObjectHideFlags: 0
  m_CorrespondingSourceObject: {fileID: 0}
  m_PrefabInternal: {fileID: 0}
  m_Name: FAE_WaterShallow
  m_Shader: {fileID: 4800000, guid: f8df9d72baf4e0c4bac2d4036f6c5d7b, type: 3}
  m_ShaderKeywords: _WORLDSPACETILIBG_ON _WORLDSPACETILING_ON
  m_LightmapFlags: 0
  m_EnableInstancingVariants: 0
  m_DoubleSidedGI: 0
  m_CustomRenderQueue: -1
  stringTagMap: {}
  disabledShaderPasses: []
  m_SavedProperties:
    serializedVersion: 3
    m_TexEnvs:
    - _Normals:
        m_Texture: {fileID: -1294246965, guid: 557c5daa3682e654fb1b3bcb0f2981ce, type: 3}
        m_Scale: {x: 1, y: 1}
        m_Offset: {x: 0, y: 0}
    - _Reflection:
        m_Texture: {fileID: 8900000, guid: b1afef72902d16343a2bad62afdb5533, type: 3}
        m_Scale: {x: 1, y: 1}
        m_Offset: {x: 0, y: 0}
    - _RefractionmapEdgeB:
        m_Texture: {fileID: -1511549886, guid: e3d849a71cf1896458f0932f079b66a3, type: 3}
        m_Scale: {x: 1, y: 1}
        m_Offset: {x: 0, y: 0}
    - _Shadermap:
        m_Texture: {fileID: 223006684, guid: 557c5daa3682e654fb1b3bcb0f2981ce, type: 3}
        m_Scale: {x: 1, y: 1}
        m_Offset: {x: 0, y: 0}
    m_Floats:
    - _Cutoff: 0.5
    - _Depth: 8.8
    - _Depthdarkness: 0.541
    - _FlowSpeed: 0.23
    - _Fresnelexponent: 4
    - _Glossiness: 1
    - _RefractionAmount: 0.049
    - _RimDistance: 0
    - _RimSize: 1.47
    - _Rimfalloff: 0.07
    - _Rimtiling: 2
    - _SurfaceHighlight: 0.05
    - _SurfaceHightlighttiling: 0.25
    - _Surfacehightlightsize: 0
    - _Tiling: 0.25
    - _Transparency: 0.348
    - _Wavesspeed: 0.75
    - _Wavesstrength: 0.207
    - _Worldspacetiling: 1
    m_Colors:
    - _FresnelColor: {r: 1, g: 1, b: 1, a: 0.5019608}
    - _RimColor: {r: 1, g: 1, b: 1, a: 1}
    - _WaterColor: {r: 0, g: 0.503546, b: 1, a: 1}
