%YAML 1.1
%TAG !u! tag:unity3d.com,2011:
--- !u!1001 &100100000
Prefab:
  m_ObjectHideFlags: 1
  serializedVersion: 2
  m_Modification:
    m_TransformParent: {fileID: 0}
    m_Modifications: []
    m_RemovedComponents: []
  m_ParentPrefab: {fileID: 0}
  m_RootGameObject: {fileID: 1000012963497968}
  m_IsPrefabParent: 1
--- !u!1 &1000010002051110
GameObject:
  m_ObjectHideFlags: 1
  m_PrefabParentObject: {fileID: 0}
  m_PrefabInternal: {fileID: 100100000}
  serializedVersion: 5
  m_Component:
  - component: {fileID: 4000010090821260}
  m_Layer: 20
  m_Name: R Forearm
  m_TagString: Untagged
  m_Icon: {fileID: 0}
  m_NavMeshLayer: 0
  m_StaticEditorFlags: 0
  m_IsActive: 1
--- !u!1 &1000010125612732
GameObject:
  m_ObjectHideFlags: 1
  m_PrefabParentObject: {fileID: 0}
  m_PrefabInternal: {fileID: 100100000}
  serializedVersion: 5
  m_Component:
  - component: {fileID: 4000013587577602}
  m_Layer: 20
  m_Name: L Cheek
  m_TagString: Untagged
  m_Icon: {fileID: 0}
  m_NavMeshLayer: 0
  m_StaticEditorFlags: 0
  m_IsActive: 1
--- !u!1 &1000010165805356
GameObject:
  m_ObjectHideFlags: 1
  m_PrefabParentObject: {fileID: 0}
  m_PrefabInternal: {fileID: 100100000}
  serializedVersion: 5
  m_Component:
  - component: {fileID: 4000010321170936}
  m_Layer: 20
  m_Name: L HorseLink
  m_TagString: Untagged
  m_Icon: {fileID: 0}
  m_NavMeshLayer: 0
  m_StaticEditorFlags: 0
  m_IsActive: 1
--- !u!1 &1000010321571904
GameObject:
  m_ObjectHideFlags: 1
  m_PrefabParentObject: {fileID: 0}
  m_PrefabInternal: {fileID: 100100000}
  serializedVersion: 5
  m_Component:
  - component: {fileID: 4000012636225736}
  m_Layer: 20
  m_Name: Tail2
  m_TagString: Untagged
  m_Icon: {fileID: 0}
  m_NavMeshLayer: 0
  m_StaticEditorFlags: 0
  m_IsActive: 1
--- !u!1 &1000010328285680
GameObject:
  m_ObjectHideFlags: 1
  m_PrefabParentObject: {fileID: 0}
  m_PrefabInternal: {fileID: 100100000}
  serializedVersion: 5
  m_Component:
  - component: {fileID: 4000010351357064}
  - component: {fileID: 136768594449809364}
  m_Layer: 20
  m_Name: Spine2
  m_TagString: Untagged
  m_Icon: {fileID: 0}
  m_NavMeshLayer: 0
  m_StaticEditorFlags: 0
  m_IsActive: 1
--- !u!1 &1000010447178022
GameObject:
  m_ObjectHideFlags: 1
  m_PrefabParentObject: {fileID: 0}
  m_PrefabInternal: {fileID: 100100000}
  serializedVersion: 5
  m_Component:
  - component: {fileID: 4000014197762106}
  m_Layer: 20
  m_Name: R Thigh
  m_TagString: Untagged
  m_Icon: {fileID: 0}
  m_NavMeshLayer: 0
  m_StaticEditorFlags: 0
  m_IsActive: 1
--- !u!1 &1000010489169838
GameObject:
  m_ObjectHideFlags: 1
  m_PrefabParentObject: {fileID: 0}
  m_PrefabInternal: {fileID: 100100000}
  serializedVersion: 5
  m_Component:
  - component: {fileID: 4000013464842668}
  m_Layer: 20
  m_Name: L Clavicle
  m_TagString: Untagged
  m_Icon: {fileID: 0}
  m_NavMeshLayer: 0
  m_StaticEditorFlags: 0
  m_IsActive: 1
--- !u!1 &1000010643106944
GameObject:
  m_ObjectHideFlags: 1
  m_PrefabParentObject: {fileID: 0}
  m_PrefabInternal: {fileID: 100100000}
  serializedVersion: 5
  m_Component:
  - component: {fileID: 4000010908560444}
  - component: {fileID: 137000012662373880}
  m_Layer: 20
  m_Name: Magic
  m_TagString: Untagged
  m_Icon: {fileID: 0}
  m_NavMeshLayer: 0
  m_StaticEditorFlags: 0
  m_IsActive: 1
--- !u!1 &1000010651261482
GameObject:
  m_ObjectHideFlags: 1
  m_PrefabParentObject: {fileID: 0}
  m_PrefabInternal: {fileID: 100100000}
  serializedVersion: 5
  m_Component:
  - component: {fileID: 4000012664739476}
  m_Layer: 20
  m_Name: Tail
  m_TagString: Untagged
  m_Icon: {fileID: 0}
  m_NavMeshLayer: 0
  m_StaticEditorFlags: 0
  m_IsActive: 1
--- !u!1 &1000010821097682
GameObject:
  m_ObjectHideFlags: 1
  m_PrefabParentObject: {fileID: 0}
  m_PrefabInternal: {fileID: 100100000}
  serializedVersion: 5
  m_Component:
  - component: {fileID: 4000013199722886}
  m_Layer: 20
  m_Name: R Hand
  m_TagString: Untagged
  m_Icon: {fileID: 0}
  m_NavMeshLayer: 0
  m_StaticEditorFlags: 0
  m_IsActive: 1
--- !u!1 &1000011035256332
GameObject:
  m_ObjectHideFlags: 1
  m_PrefabParentObject: {fileID: 0}
  m_PrefabInternal: {fileID: 100100000}
  serializedVersion: 5
  m_Component:
  - component: {fileID: 4000012698269562}
  - component: {fileID: 136481794880297208}
  - component: {fileID: 135531500989027896}
  m_Layer: 20
  m_Name: Head
  m_TagString: Untagged
  m_Icon: {fileID: 0}
  m_NavMeshLayer: 0
  m_StaticEditorFlags: 0
  m_IsActive: 1
--- !u!1 &1000011346164626
GameObject:
  m_ObjectHideFlags: 1
  m_PrefabParentObject: {fileID: 0}
  m_PrefabInternal: {fileID: 100100000}
  serializedVersion: 5
  m_Component:
  - component: {fileID: 4000013877943956}
  m_Layer: 20
  m_Name: Eye R
  m_TagString: Untagged
  m_Icon: {fileID: 0}
  m_NavMeshLayer: 0
  m_StaticEditorFlags: 0
  m_IsActive: 1
--- !u!1 &1000011425509060
GameObject:
  m_ObjectHideFlags: 1
  m_PrefabParentObject: {fileID: 0}
  m_PrefabInternal: {fileID: 100100000}
  serializedVersion: 5
  m_Component:
  - component: {fileID: 4000010388417454}
  m_Layer: 20
  m_Name: R Clavicle
  m_TagString: Untagged
  m_Icon: {fileID: 0}
  m_NavMeshLayer: 0
  m_StaticEditorFlags: 0
  m_IsActive: 1
--- !u!1 &1000011448758734
GameObject:
  m_ObjectHideFlags: 1
  m_PrefabParentObject: {fileID: 0}
  m_PrefabInternal: {fileID: 100100000}
  serializedVersion: 5
  m_Component:
  - component: {fileID: 4000010528063648}
  m_Layer: 20
  m_Name: L UpperArm
  m_TagString: Untagged
  m_Icon: {fileID: 0}
  m_NavMeshLayer: 0
  m_StaticEditorFlags: 0
  m_IsActive: 1
--- !u!1 &1000011613802466
GameObject:
  m_ObjectHideFlags: 1
  m_PrefabParentObject: {fileID: 0}
  m_PrefabInternal: {fileID: 100100000}
  serializedVersion: 5
  m_Component:
  - component: {fileID: 4000010855399206}
  m_Layer: 20
  m_Name: R Ear
  m_TagString: Untagged
  m_Icon: {fileID: 0}
  m_NavMeshLayer: 0
  m_StaticEditorFlags: 0
  m_IsActive: 1
--- !u!1 &1000011668616486
GameObject:
  m_ObjectHideFlags: 1
  m_PrefabParentObject: {fileID: 0}
  m_PrefabInternal: {fileID: 100100000}
  serializedVersion: 5
  m_Component:
  - component: {fileID: 4000013453507660}
  m_Layer: 20
  m_Name: Tail1
  m_TagString: Untagged
  m_Icon: {fileID: 0}
  m_NavMeshLayer: 0
  m_StaticEditorFlags: 0
  m_IsActive: 1
--- !u!1 &1000011795399450
GameObject:
  m_ObjectHideFlags: 1
  m_PrefabParentObject: {fileID: 0}
  m_PrefabInternal: {fileID: 100100000}
  serializedVersion: 5
  m_Component:
  - component: {fileID: 4000011738755178}
  m_Layer: 20
  m_Name: CG
  m_TagString: Untagged
  m_Icon: {fileID: 0}
  m_NavMeshLayer: 0
  m_StaticEditorFlags: 0
  m_IsActive: 1
--- !u!1 &1000011817457770
GameObject:
  m_ObjectHideFlags: 1
  m_PrefabParentObject: {fileID: 0}
  m_PrefabInternal: {fileID: 100100000}
  serializedVersion: 5
  m_Component:
  - component: {fileID: 4000010065338652}
  m_Layer: 20
  m_Name: Pelvis
  m_TagString: Untagged
  m_Icon: {fileID: 0}
  m_NavMeshLayer: 0
  m_StaticEditorFlags: 0
  m_IsActive: 1
--- !u!1 &1000011979373934
GameObject:
  m_ObjectHideFlags: 1
  m_PrefabParentObject: {fileID: 0}
  m_PrefabInternal: {fileID: 100100000}
  serializedVersion: 5
  m_Component:
  - component: {fileID: 4000013663454266}
  m_Layer: 20
  m_Name: R HorseLink
  m_TagString: Untagged
  m_Icon: {fileID: 0}
  m_NavMeshLayer: 0
  m_StaticEditorFlags: 0
  m_IsActive: 1
--- !u!1 &1000012204161756
GameObject:
  m_ObjectHideFlags: 1
  m_PrefabParentObject: {fileID: 0}
  m_PrefabInternal: {fileID: 100100000}
  serializedVersion: 5
  m_Component:
  - component: {fileID: 4000014080482318}
  - component: {fileID: 137000013595529318}
  m_Layer: 20
  m_Name: Fox
  m_TagString: Untagged
  m_Icon: {fileID: 0}
  m_NavMeshLayer: 0
  m_StaticEditorFlags: 0
  m_IsActive: 1
--- !u!1 &1000012349835476
GameObject:
  m_ObjectHideFlags: 1
  m_PrefabParentObject: {fileID: 0}
  m_PrefabInternal: {fileID: 100100000}
  serializedVersion: 5
  m_Component:
  - component: {fileID: 4000011800426624}
  m_Layer: 20
  m_Name: R Calf
  m_TagString: Untagged
  m_Icon: {fileID: 0}
  m_NavMeshLayer: 0
  m_StaticEditorFlags: 0
  m_IsActive: 1
--- !u!1 &1000012557927172
GameObject:
  m_ObjectHideFlags: 1
  m_PrefabParentObject: {fileID: 0}
  m_PrefabInternal: {fileID: 100100000}
  serializedVersion: 5
  m_Component:
  - component: {fileID: 4000010157893666}
  m_Layer: 20
  m_Name: L Ear
  m_TagString: Untagged
  m_Icon: {fileID: 0}
  m_NavMeshLayer: 0
  m_StaticEditorFlags: 0
  m_IsActive: 1
--- !u!1 &1000012659954782
GameObject:
  m_ObjectHideFlags: 1
  m_PrefabParentObject: {fileID: 0}
  m_PrefabInternal: {fileID: 100100000}
  serializedVersion: 5
  m_Component:
  - component: {fileID: 4000013412328528}
  m_Layer: 20
  m_Name: L Forearm
  m_TagString: Untagged
  m_Icon: {fileID: 0}
  m_NavMeshLayer: 0
  m_StaticEditorFlags: 0
  m_IsActive: 1
--- !u!1 &1000012688952098
GameObject:
  m_ObjectHideFlags: 1
  m_PrefabParentObject: {fileID: 0}
  m_PrefabInternal: {fileID: 100100000}
  serializedVersion: 5
  m_Component:
  - component: {fileID: 4000013746936482}
  m_Layer: 20
  m_Name: R UpperArm
  m_TagString: Untagged
  m_Icon: {fileID: 0}
  m_NavMeshLayer: 0
  m_StaticEditorFlags: 0
  m_IsActive: 1
--- !u!1 &1000012797271546
GameObject:
  m_ObjectHideFlags: 0
  m_PrefabParentObject: {fileID: 0}
  m_PrefabInternal: {fileID: 100100000}
  serializedVersion: 5
  m_Component:
  - component: {fileID: 4000012651272448}
  m_Layer: 20
  m_Name: Fix
  m_TagString: Untagged
  m_Icon: {fileID: 0}
  m_NavMeshLayer: 0
  m_StaticEditorFlags: 0
  m_IsActive: 1
--- !u!1 &1000012963497968
GameObject:
  m_ObjectHideFlags: 0
  m_PrefabParentObject: {fileID: 0}
  m_PrefabInternal: {fileID: 100100000}
  serializedVersion: 5
  m_Component:
  - component: {fileID: 4000012336344202}
  - component: {fileID: 95000010081907774}
  - component: {fileID: 54000011836270706}
  - component: {fileID: 114000010991151680}
  - component: {fileID: 114000011036675758}
  - component: {fileID: 114000013035704544}
  - component: {fileID: 114486123530624842}
  - component: {fileID: 114000012617426950}
  - component: {fileID: 114000011508025850}
  - component: {fileID: 114503987504557948}
  - component: {fileID: 114390785317779792}
  - component: {fileID: 82000010638786432}
  m_Layer: 20
  m_Name: Mane Wolf
  m_TagString: Player
  m_Icon: {fileID: 0}
  m_NavMeshLayer: 0
  m_StaticEditorFlags: 0
  m_IsActive: 1
--- !u!1 &1000012966695662
GameObject:
  m_ObjectHideFlags: 1
  m_PrefabParentObject: {fileID: 0}
  m_PrefabInternal: {fileID: 100100000}
  serializedVersion: 5
  m_Component:
  - component: {fileID: 4000010532699102}
  m_Layer: 20
  m_Name: Eye L
  m_TagString: Untagged
  m_Icon: {fileID: 0}
  m_NavMeshLayer: 0
  m_StaticEditorFlags: 0
  m_IsActive: 1
--- !u!1 &1000012996243132
GameObject:
  m_ObjectHideFlags: 1
  m_PrefabParentObject: {fileID: 0}
  m_PrefabInternal: {fileID: 100100000}
  serializedVersion: 5
  m_Component:
  - component: {fileID: 4000010223316638}
  m_Layer: 20
  m_Name: Tongue
  m_TagString: Untagged
  m_Icon: {fileID: 0}
  m_NavMeshLayer: 0
  m_StaticEditorFlags: 0
  m_IsActive: 1
--- !u!1 &1000013031467612
GameObject:
  m_ObjectHideFlags: 0
  m_PrefabParentObject: {fileID: 0}
  m_PrefabInternal: {fileID: 100100000}
  serializedVersion: 5
  m_Component:
  - component: {fileID: 4000014252731060}
  - component: {fileID: 114000010230833156}
  m_Layer: 20
  m_Name: PivotWater
  m_TagString: Untagged
  m_Icon: {fileID: 0}
  m_NavMeshLayer: 0
  m_StaticEditorFlags: 0
  m_IsActive: 1
--- !u!1 &1000013088824638
GameObject:
  m_ObjectHideFlags: 1
  m_PrefabParentObject: {fileID: 0}
  m_PrefabInternal: {fileID: 100100000}
  serializedVersion: 5
  m_Component:
  - component: {fileID: 4000011336287136}
  m_Layer: 20
  m_Name: Jaw
  m_TagString: Untagged
  m_Icon: {fileID: 0}
  m_NavMeshLayer: 0
  m_StaticEditorFlags: 0
  m_IsActive: 1
--- !u!1 &1000013122369790
GameObject:
  m_ObjectHideFlags: 0
  m_PrefabParentObject: {fileID: 0}
  m_PrefabInternal: {fileID: 100100000}
  serializedVersion: 5
  m_Component:
  - component: {fileID: 4000013577194852}
  - component: {fileID: 114000012060826086}
  m_Layer: 20
  m_Name: PivotHip
  m_TagString: Untagged
  m_Icon: {fileID: 0}
  m_NavMeshLayer: 0
  m_StaticEditorFlags: 0
  m_IsActive: 1
--- !u!1 &1000013268733728
GameObject:
  m_ObjectHideFlags: 1
  m_PrefabParentObject: {fileID: 0}
  m_PrefabInternal: {fileID: 100100000}
  serializedVersion: 5
  m_Component:
  - component: {fileID: 4000011263152590}
  - component: {fileID: 136035608161024148}
  m_Layer: 20
  m_Name: Neck
  m_TagString: Untagged
  m_Icon: {fileID: 0}
  m_NavMeshLayer: 0
  m_StaticEditorFlags: 0
  m_IsActive: 1
--- !u!1 &1000013366595152
GameObject:
  m_ObjectHideFlags: 1
  m_PrefabParentObject: {fileID: 0}
  m_PrefabInternal: {fileID: 100100000}
  serializedVersion: 5
  m_Component:
  - component: {fileID: 4000011460367178}
  m_Layer: 20
  m_Name: R Foot
  m_TagString: Untagged
  m_Icon: {fileID: 0}
  m_NavMeshLayer: 0
  m_StaticEditorFlags: 0
  m_IsActive: 1
--- !u!1 &1000013563251238
GameObject:
  m_ObjectHideFlags: 1
  m_PrefabParentObject: {fileID: 0}
  m_PrefabInternal: {fileID: 100100000}
  serializedVersion: 5
  m_Component:
  - component: {fileID: 4000011139159490}
  m_Layer: 20
  m_Name: L Thigh
  m_TagString: Untagged
  m_Icon: {fileID: 0}
  m_NavMeshLayer: 0
  m_StaticEditorFlags: 0
  m_IsActive: 1
--- !u!1 &1000013779314024
GameObject:
  m_ObjectHideFlags: 1
  m_PrefabParentObject: {fileID: 0}
  m_PrefabInternal: {fileID: 100100000}
  serializedVersion: 5
  m_Component:
  - component: {fileID: 4000012581548332}
  m_Layer: 20
  m_Name: L Foot
  m_TagString: Untagged
  m_Icon: {fileID: 0}
  m_NavMeshLayer: 0
  m_StaticEditorFlags: 0
  m_IsActive: 1
--- !u!1 &1000013856064520
GameObject:
  m_ObjectHideFlags: 1
  m_PrefabParentObject: {fileID: 0}
  m_PrefabInternal: {fileID: 100100000}
  serializedVersion: 5
  m_Component:
  - component: {fileID: 4000010234467734}
  m_Layer: 20
  m_Name: R Cheek
  m_TagString: Untagged
  m_Icon: {fileID: 0}
  m_NavMeshLayer: 0
  m_StaticEditorFlags: 0
  m_IsActive: 1
--- !u!1 &1000013905795724
GameObject:
  m_ObjectHideFlags: 1
  m_PrefabParentObject: {fileID: 0}
  m_PrefabInternal: {fileID: 100100000}
  serializedVersion: 5
  m_Component:
  - component: {fileID: 4000012280539050}
  m_Layer: 20
  m_Name: Tail3
  m_TagString: Untagged
  m_Icon: {fileID: 0}
  m_NavMeshLayer: 0
  m_StaticEditorFlags: 0
  m_IsActive: 1
--- !u!1 &1000013963817358
GameObject:
  m_ObjectHideFlags: 1
  m_PrefabParentObject: {fileID: 0}
  m_PrefabInternal: {fileID: 100100000}
  serializedVersion: 5
  m_Component:
  - component: {fileID: 4000014004321196}
  - component: {fileID: 136746810407326784}
  m_Layer: 20
  m_Name: Spine
  m_TagString: Untagged
  m_Icon: {fileID: 0}
  m_NavMeshLayer: 0
  m_StaticEditorFlags: 0
  m_IsActive: 1
--- !u!1 &1000013978877392
GameObject:
  m_ObjectHideFlags: 1
  m_PrefabParentObject: {fileID: 0}
  m_PrefabInternal: {fileID: 100100000}
  serializedVersion: 5
  m_Component:
  - component: {fileID: 4000012537305752}
  m_Layer: 20
  m_Name: L Hand
  m_TagString: Untagged
  m_Icon: {fileID: 0}
  m_NavMeshLayer: 0
  m_StaticEditorFlags: 0
  m_IsActive: 1
--- !u!1 &1000013979421962
GameObject:
  m_ObjectHideFlags: 0
  m_PrefabParentObject: {fileID: 0}
  m_PrefabInternal: {fileID: 100100000}
  serializedVersion: 5
  m_Component:
  - component: {fileID: 4000010425681452}
  - component: {fileID: 114000011895367420}
  m_Layer: 20
  m_Name: PivotChest
  m_TagString: Untagged
  m_Icon: {fileID: 0}
  m_NavMeshLayer: 0
  m_StaticEditorFlags: 0
  m_IsActive: 1
--- !u!1 &1000014019566864
GameObject:
  m_ObjectHideFlags: 1
  m_PrefabParentObject: {fileID: 0}
  m_PrefabInternal: {fileID: 100100000}
  serializedVersion: 5
  m_Component:
  - component: {fileID: 4000011996414866}
  m_Layer: 20
  m_Name: L Calf
  m_TagString: Untagged
  m_Icon: {fileID: 0}
  m_NavMeshLayer: 0
  m_StaticEditorFlags: 0
  m_IsActive: 1
--- !u!1 &1000014159080182
GameObject:
  m_ObjectHideFlags: 1
  m_PrefabParentObject: {fileID: 0}
  m_PrefabInternal: {fileID: 100100000}
  serializedVersion: 5
  m_Component:
  - component: {fileID: 4000010404392438}
  - component: {fileID: 136000011744259212}
  m_Layer: 20
  m_Name: Spine1
  m_TagString: Untagged
  m_Icon: {fileID: 0}
  m_NavMeshLayer: 0
  m_StaticEditorFlags: 0
  m_IsActive: 1
--- !u!1 &1086687850739068
GameObject:
  m_ObjectHideFlags: 1
  m_PrefabParentObject: {fileID: 0}
  m_PrefabInternal: {fileID: 100100000}
  serializedVersion: 5
  m_Component:
  - component: {fileID: 4007619609153328}
  - component: {fileID: 135082227641679076}
  - component: {fileID: 114317767413435934}
  - component: {fileID: 114112953591037018}
  m_Layer: 2
  m_Name: Track Right Front
  m_TagString: Untagged
  m_Icon: {fileID: 0}
  m_NavMeshLayer: 0
  m_StaticEditorFlags: 0
  m_IsActive: 1
--- !u!1 &1135421002644978
GameObject:
  m_ObjectHideFlags: 1
  m_PrefabParentObject: {fileID: 0}
  m_PrefabInternal: {fileID: 100100000}
  serializedVersion: 5
  m_Component:
  - component: {fileID: 4226094961411256}
  - component: {fileID: 135367897641612718}
  - component: {fileID: 114542215231680616}
  m_Layer: 2
  m_Name: Attack Trigger Bite
  m_TagString: Untagged
  m_Icon: {fileID: 0}
  m_NavMeshLayer: 0
  m_StaticEditorFlags: 0
  m_IsActive: 1
--- !u!1 &1522390165290974
GameObject:
  m_ObjectHideFlags: 1
  m_PrefabParentObject: {fileID: 0}
  m_PrefabInternal: {fileID: 100100000}
  serializedVersion: 5
  m_Component:
  - component: {fileID: 4613451294520016}
  - component: {fileID: 135552146221590510}
  - component: {fileID: 114151206384128020}
  - component: {fileID: 114761081246730568}
  m_Layer: 2
  m_Name: Track Right Back
  m_TagString: Untagged
  m_Icon: {fileID: 0}
  m_NavMeshLayer: 0
  m_StaticEditorFlags: 0
  m_IsActive: 1
--- !u!1 &1732486518537934
GameObject:
  m_ObjectHideFlags: 0
  m_PrefabParentObject: {fileID: 0}
  m_PrefabInternal: {fileID: 100100000}
  serializedVersion: 5
  m_Component:
  - component: {fileID: 4664067959627452}
  - component: {fileID: 65279904593734698}
  - component: {fileID: 114220066439790268}
  m_Layer: 2
  m_Name: Attack Trigger Front
  m_TagString: Untagged
  m_Icon: {fileID: 0}
  m_NavMeshLayer: 0
  m_StaticEditorFlags: 0
  m_IsActive: 1
--- !u!1 &1824350283678190
GameObject:
  m_ObjectHideFlags: 0
  m_PrefabParentObject: {fileID: 0}
  m_PrefabInternal: {fileID: 100100000}
  serializedVersion: 5
  m_Component:
  - component: {fileID: 4170166966605038}
  m_Layer: 20
  m_Name: Meshes
  m_TagString: Untagged
  m_Icon: {fileID: 0}
  m_NavMeshLayer: 0
  m_StaticEditorFlags: 0
  m_IsActive: 1
--- !u!1 &1891843019341154
GameObject:
  m_ObjectHideFlags: 1
  m_PrefabParentObject: {fileID: 0}
  m_PrefabInternal: {fileID: 100100000}
  serializedVersion: 5
  m_Component:
  - component: {fileID: 4161115271899814}
  - component: {fileID: 135341194608085410}
  - component: {fileID: 114672942683826442}
  - component: {fileID: 114547570938365896}
  m_Layer: 2
  m_Name: Track Left Front
  m_TagString: Untagged
  m_Icon: {fileID: 0}
  m_NavMeshLayer: 0
  m_StaticEditorFlags: 0
  m_IsActive: 1
--- !u!1 &1919404825596456
GameObject:
  m_ObjectHideFlags: 1
  m_PrefabParentObject: {fileID: 0}
  m_PrefabInternal: {fileID: 100100000}
  serializedVersion: 5
  m_Component:
  - component: {fileID: 4074288407751702}
  - component: {fileID: 135567512124895024}
  - component: {fileID: 114977814247776602}
  - component: {fileID: 114709291097406226}
  m_Layer: 2
  m_Name: Track Left Back
  m_TagString: Untagged
  m_Icon: {fileID: 0}
  m_NavMeshLayer: 0
  m_StaticEditorFlags: 0
  m_IsActive: 1
--- !u!4 &4000010065338652
Transform:
  m_ObjectHideFlags: 1
  m_PrefabParentObject: {fileID: 0}
  m_PrefabInternal: {fileID: 100100000}
  m_GameObject: {fileID: 1000011817457770}
  m_LocalRotation: {x: -0.49999967, y: 0.50000036, z: 0.49999967, w: 0.50000036}
  m_LocalPosition: {x: -0, y: 0, z: 0}
  m_LocalScale: {x: 1, y: 1, z: 1}
  m_Children:
  - {fileID: 4000014004321196}
  m_Father: {fileID: 4000011738755178}
  m_RootOrder: 0
  m_LocalEulerAnglesHint: {x: 0, y: 0, z: 0}
--- !u!4 &4000010090821260
Transform:
  m_ObjectHideFlags: 1
  m_PrefabParentObject: {fileID: 0}
  m_PrefabInternal: {fileID: 100100000}
  m_GameObject: {fileID: 1000010002051110}
  m_LocalRotation: {x: -1.9611661e-10, y: 2.6712297e-11, z: 0.16240333, w: 0.9867245}
  m_LocalPosition: {x: -0.24908145, y: -0.000000076293944, z: 0.000000038146972}
  m_LocalScale: {x: 0.99999994, y: 1.0000001, z: 1}
  m_Children:
  - {fileID: 4000013199722886}
  m_Father: {fileID: 4000013746936482}
  m_RootOrder: 0
  m_LocalEulerAnglesHint: {x: 0, y: 0, z: 0}
--- !u!4 &4000010157893666
Transform:
  m_ObjectHideFlags: 1
  m_PrefabParentObject: {fileID: 0}
  m_PrefabInternal: {fileID: 100100000}
  m_GameObject: {fileID: 1000012557927172}
  m_LocalRotation: {x: -0.58708906, y: 0.25988606, z: 0.106759034, w: 0.75920236}
  m_LocalPosition: {x: -0.08037048, y: 0.0309663, z: 0.065457724}
  m_LocalScale: {x: 1.3295782, y: 1.3417865, z: 1.341787}
  m_Children: []
  m_Father: {fileID: 4000012698269562}
  m_RootOrder: 4
  m_LocalEulerAnglesHint: {x: 0, y: 0, z: 0}
--- !u!4 &4000010223316638
Transform:
  m_ObjectHideFlags: 1
  m_PrefabParentObject: {fileID: 0}
  m_PrefabInternal: {fileID: 100100000}
  m_GameObject: {fileID: 1000012996243132}
  m_LocalRotation: {x: 0.00000029046635, y: -0.0000014896508, z: 0.0065051825, w: 0.99997884}
  m_LocalPosition: {x: -0.035617944, y: -0.011794128, z: -0.00000083213905}
  m_LocalScale: {x: 1, y: 1, z: 1}
  m_Children: []
  m_Father: {fileID: 4000011336287136}
  m_RootOrder: 0
  m_LocalEulerAnglesHint: {x: 0, y: 0, z: 0}
--- !u!4 &4000010234467734
Transform:
  m_ObjectHideFlags: 1
  m_PrefabParentObject: {fileID: 0}
  m_PrefabInternal: {fileID: 100100000}
  m_GameObject: {fileID: 1000013856064520}
  m_LocalRotation: {x: -0.049700312, y: -0.55391777, z: -0.07494227, w: 0.82770085}
  m_LocalPosition: {x: 0.05402771, y: 0.20616187, z: -0.0000112802745}
  m_LocalScale: {x: 1, y: 0.9999996, z: 0.9999997}
  m_Children: []
  m_Father: {fileID: 4000012698269562}
  m_RootOrder: 5
  m_LocalEulerAnglesHint: {x: 0, y: 0, z: 0}
--- !u!4 &4000010321170936
Transform:
  m_ObjectHideFlags: 1
  m_PrefabParentObject: {fileID: 0}
  m_PrefabInternal: {fileID: 100100000}
  m_GameObject: {fileID: 1000010165805356}
  m_LocalRotation: {x: -0.000000003671856, y: 0.0000000013140747, z: -0.33694983,
    w: 0.94152266}
  m_LocalPosition: {x: -0.14511485, y: 0.000000076293944, z: 0}
  m_LocalScale: {x: 1.0000001, y: 1.0000004, z: 1}
  m_Children:
  - {fileID: 4000012581548332}
  m_Father: {fileID: 4000011996414866}
  m_RootOrder: 0
  m_LocalEulerAnglesHint: {x: 0, y: 0, z: 0}
--- !u!4 &4000010351357064
Transform:
  m_ObjectHideFlags: 1
  m_PrefabParentObject: {fileID: 0}
  m_PrefabInternal: {fileID: 100100000}
  m_GameObject: {fileID: 1000010328285680}
  m_LocalRotation: {x: -0.000000054858194, y: -0.00000020626217, z: 0.037515257, w: 0.99929607}
  m_LocalPosition: {x: -0.15107436, y: -0.00011993408, z: -3.1868694e-10}
  m_LocalScale: {x: 1, y: 1, z: 1}
  m_Children:
  - {fileID: 4000011263152590}
  m_Father: {fileID: 4000010404392438}
  m_RootOrder: 0
  m_LocalEulerAnglesHint: {x: 0, y: 0, z: 0}
--- !u!4 &4000010388417454
Transform:
  m_ObjectHideFlags: 1
  m_PrefabParentObject: {fileID: 0}
  m_PrefabInternal: {fileID: 100100000}
  m_GameObject: {fileID: 1000011425509060}
  m_LocalRotation: {x: 0.6966537, y: 0.03897942, z: 0.7163395, w: 0.0034460258}
  m_LocalPosition: {x: 0.06169098, y: 0.037654687, z: 0.0000006472648}
  m_LocalScale: {x: 1, y: 1.0000005, z: 1.0000005}
  m_Children:
  - {fileID: 4000013746936482}
  m_Father: {fileID: 4000011263152590}
  m_RootOrder: 2
  m_LocalEulerAnglesHint: {x: 0, y: 0, z: 0}
--- !u!4 &4000010404392438
Transform:
  m_ObjectHideFlags: 1
  m_PrefabParentObject: {fileID: 0}
  m_PrefabInternal: {fileID: 100100000}
  m_GameObject: {fileID: 1000014159080182}
  m_LocalRotation: {x: -0.000000062664014, y: -0.00000020598156, z: 0.037515257, w: 0.99929607}
  m_LocalPosition: {x: -0.15107429, y: -0.000119972225, z: -3.1664968e-10}
  m_LocalScale: {x: 1.0000005, y: 1.0000005, z: 1}
  m_Children:
  - {fileID: 4000010351357064}
  m_Father: {fileID: 4000014004321196}
  m_RootOrder: 2
  m_LocalEulerAnglesHint: {x: 0, y: 0, z: 0}
--- !u!4 &4000010425681452
Transform:
  m_ObjectHideFlags: 1
  m_PrefabParentObject: {fileID: 0}
  m_PrefabInternal: {fileID: 100100000}
  m_GameObject: {fileID: 1000013979421962}
  m_LocalRotation: {x: 0, y: 0, z: 0, w: 1}
  m_LocalPosition: {x: 0.013, y: 0.659, z: 0.49}
  m_LocalScale: {x: 1, y: 1, z: 1}
  m_Children: []
  m_Father: {fileID: 4000012336344202}
  m_RootOrder: 1
  m_LocalEulerAnglesHint: {x: 0, y: 0, z: 0}
--- !u!4 &4000010528063648
Transform:
  m_ObjectHideFlags: 1
  m_PrefabParentObject: {fileID: 0}
  m_PrefabInternal: {fileID: 100100000}
  m_GameObject: {fileID: 1000011448758734}
  m_LocalRotation: {x: -0.39847684, y: -0.56765044, z: 0.44899315, w: 0.5633776}
  m_LocalPosition: {x: -0.0813898, y: -0.000000038146972, z: 0}
  m_LocalScale: {x: 1.388179, y: 1.3881786, z: 1.388179}
  m_Children:
  - {fileID: 4000013412328528}
  m_Father: {fileID: 4000013464842668}
  m_RootOrder: 0
  m_LocalEulerAnglesHint: {x: 0, y: 0, z: 0}
--- !u!4 &4000010532699102
Transform:
  m_ObjectHideFlags: 1
  m_PrefabParentObject: {fileID: 0}
  m_PrefabInternal: {fileID: 100100000}
  m_GameObject: {fileID: 1000012966695662}
  m_LocalRotation: {x: 0.18330361, y: 0.08241892, z: -0.60435784, w: 0.7709465}
  m_LocalPosition: {x: -0.009831467, y: 0.12981696, z: 0.039705668}
  m_LocalScale: {x: 0.9999988, y: 0.9999999, z: 1.0000002}
  m_Children: []
  m_Father: {fileID: 4000012698269562}
  m_RootOrder: 0
  m_LocalEulerAnglesHint: {x: 0, y: 0, z: 0}
--- !u!4 &4000010855399206
Transform:
  m_ObjectHideFlags: 1
  m_PrefabParentObject: {fileID: 0}
  m_PrefabInternal: {fileID: 100100000}
  m_GameObject: {fileID: 1000011613802466}
  m_LocalRotation: {x: 0.5870888, y: -0.25988647, z: 0.106757544, w: 0.7592026}
  m_LocalPosition: {x: -0.08037056, y: 0.030966682, z: -0.06545755}
  m_LocalScale: {x: 1.3295789, y: 1.3417872, z: 1.3417871}
  m_Children: []
  m_Father: {fileID: 4000012698269562}
  m_RootOrder: 6
  m_LocalEulerAnglesHint: {x: 0, y: 0, z: 0}
--- !u!4 &4000010908560444
Transform:
  m_ObjectHideFlags: 1
  m_PrefabParentObject: {fileID: 0}
  m_PrefabInternal: {fileID: 100100000}
  m_GameObject: {fileID: 1000010643106944}
  m_LocalRotation: {x: -0.7071068, y: -0, z: -0, w: 0.7071068}
  m_LocalPosition: {x: 0, y: 0, z: 0}
  m_LocalScale: {x: 1, y: 1, z: 1}
  m_Children: []
  m_Father: {fileID: 4170166966605038}
  m_RootOrder: 1
  m_LocalEulerAnglesHint: {x: 0, y: 0, z: 0}
--- !u!4 &4000011139159490
Transform:
  m_ObjectHideFlags: 1
  m_PrefabParentObject: {fileID: 0}
  m_PrefabInternal: {fileID: 100100000}
  m_GameObject: {fileID: 1000013563251238}
  m_LocalRotation: {x: -0.6241188, y: 0.7767225, z: -0.056314614, w: 0.06329752}
  m_LocalPosition: {x: 0.07538156, y: 0.028153304, z: 0.06541377}
  m_LocalScale: {x: 1.3881794, y: 1.3881793, z: 1.3881787}
  m_Children:
  - {fileID: 4000011996414866}
  m_Father: {fileID: 4000014004321196}
  m_RootOrder: 0
  m_LocalEulerAnglesHint: {x: 0, y: 0, z: 0}
--- !u!4 &4000011263152590
Transform:
  m_ObjectHideFlags: 1
  m_PrefabParentObject: {fileID: 0}
  m_PrefabInternal: {fileID: 100100000}
  m_GameObject: {fileID: 1000013268733728}
  m_LocalRotation: {x: -0.000000316865, y: -0.0000005102307, z: -0.024341527, w: 0.9997037}
  m_LocalPosition: {x: -0.13371891, y: 0.016578559, z: -0.000000007323833}
  m_LocalScale: {x: 0.9999998, y: 0.9999998, z: 1}
  m_Children:
  - {fileID: 4000012698269562}
  - {fileID: 4000013464842668}
  - {fileID: 4000010388417454}
  m_Father: {fileID: 4000010351357064}
  m_RootOrder: 0
  m_LocalEulerAnglesHint: {x: 0, y: 0, z: 0}
--- !u!4 &4000011336287136
Transform:
  m_ObjectHideFlags: 1
  m_PrefabParentObject: {fileID: 0}
  m_PrefabInternal: {fileID: 100100000}
  m_GameObject: {fileID: 1000013088824638}
  m_LocalRotation: {x: 0.0000011500878, y: 0.000003395814, z: -0.7746044, w: 0.6324461}
  m_LocalPosition: {x: 0.08749115, y: 0.13088845, z: 0.0000005117364}
  m_LocalScale: {x: 0.9999999, y: 0.9999999, z: 1}
  m_Children:
  - {fileID: 4000010223316638}
  m_Father: {fileID: 4000012698269562}
  m_RootOrder: 2
  m_LocalEulerAnglesHint: {x: 0, y: 0, z: 0}
--- !u!4 &4000011460367178
Transform:
  m_ObjectHideFlags: 1
  m_PrefabParentObject: {fileID: 0}
  m_PrefabInternal: {fileID: 100100000}
  m_GameObject: {fileID: 1000013366595152}
  m_LocalRotation: {x: 0.090019286, y: 0.011128639, z: 0.024544932, w: 0.99557537}
  m_LocalPosition: {x: -0.13617477, y: -0.000000038146972, z: 0.000000026226044}
  m_LocalScale: {x: 0.72828394, y: 0.7282843, z: 0.7282845}
  m_Children:
  - {fileID: 4613451294520016}
  m_Father: {fileID: 4000013663454266}
  m_RootOrder: 0
  m_LocalEulerAnglesHint: {x: 0, y: 0, z: 0}
--- !u!4 &4000011738755178
Transform:
  m_ObjectHideFlags: 1
  m_PrefabParentObject: {fileID: 0}
  m_PrefabInternal: {fileID: 100100000}
  m_GameObject: {fileID: 1000011795399450}
  m_LocalRotation: {x: -0.5000003, y: 0.49999973, z: 0.49999973, w: 0.5000003}
  m_LocalPosition: {x: 0, y: 0.6186614, z: 0}
  m_LocalScale: {x: 1, y: 1, z: 1}
  m_Children:
  - {fileID: 4000010065338652}
  m_Father: {fileID: 4000012651272448}
  m_RootOrder: 0
  m_LocalEulerAnglesHint: {x: 0, y: 0, z: 0}
--- !u!4 &4000011800426624
Transform:
  m_ObjectHideFlags: 1
  m_PrefabParentObject: {fileID: 0}
  m_PrefabInternal: {fileID: 100100000}
  m_GameObject: {fileID: 1000012349835476}
  m_LocalRotation: {x: 0.000000010666589, y: -0.0000000013415822, z: 0.18191694, w: 0.9833139}
  m_LocalPosition: {x: -0.22015701, y: -0.000000038146972, z: 0.000000007152557}
  m_LocalScale: {x: 0.9999999, y: 0.99999964, z: 0.9999999}
  m_Children:
  - {fileID: 4000013663454266}
  m_Father: {fileID: 4000014197762106}
  m_RootOrder: 0
  m_LocalEulerAnglesHint: {x: 0, y: 0, z: 0}
--- !u!4 &4000011996414866
Transform:
  m_ObjectHideFlags: 1
  m_PrefabParentObject: {fileID: 0}
  m_PrefabInternal: {fileID: 100100000}
  m_GameObject: {fileID: 1000014019566864}
  m_LocalRotation: {x: -0.00000000848013, y: -0.000000005357363, z: 0.18191694, w: 0.9833139}
  m_LocalPosition: {x: -0.2201573, y: 0, z: -0.0000000023841857}
  m_LocalScale: {x: 1.0000001, y: 1, z: 1}
  m_Children:
  - {fileID: 4000010321170936}
  m_Father: {fileID: 4000011139159490}
  m_RootOrder: 0
  m_LocalEulerAnglesHint: {x: 0, y: 0, z: 0}
--- !u!4 &4000012280539050
Transform:
  m_ObjectHideFlags: 1
  m_PrefabParentObject: {fileID: 0}
  m_PrefabInternal: {fileID: 100100000}
  m_GameObject: {fileID: 1000013905795724}
  m_LocalRotation: {x: -6.419796e-14, y: 0.00000043618041, z: -0.15726145, w: 0.987557}
  m_LocalPosition: {x: -0.15462738, y: -0.000117034906, z: -3.2494427e-10}
  m_LocalScale: {x: 0.6084911, y: 1.6038373, z: 1.6038375}
  m_Children: []
  m_Father: {fileID: 4000012636225736}
  m_RootOrder: 0
  m_LocalEulerAnglesHint: {x: 0, y: 0, z: 0}
--- !u!4 &4000012336344202
Transform:
  m_ObjectHideFlags: 1
  m_PrefabParentObject: {fileID: 0}
  m_PrefabInternal: {fileID: 100100000}
  m_GameObject: {fileID: 1000012963497968}
  m_LocalRotation: {x: -0, y: -0.99910927, z: -0, w: -0.042198468}
  m_LocalPosition: {x: 19.02, y: -0.05, z: 17.3}
  m_LocalScale: {x: 1, y: 1, z: 1}
  m_Children:
  - {fileID: 4000013577194852}
  - {fileID: 4000010425681452}
  - {fileID: 4000014252731060}
  - {fileID: 4170166966605038}
  - {fileID: 4000012651272448}
  - {fileID: 4664067959627452}
  m_Father: {fileID: 0}
  m_RootOrder: 0
  m_LocalEulerAnglesHint: {x: 0, y: -184.69899, z: 0}
--- !u!4 &4000012537305752
Transform:
  m_ObjectHideFlags: 1
  m_PrefabParentObject: {fileID: 0}
  m_PrefabInternal: {fileID: 100100000}
  m_GameObject: {fileID: 1000013978877392}
  m_LocalRotation: {x: -0.03476243, y: 0.0019085695, z: -0.06883495, w: 0.9970204}
  m_LocalPosition: {x: -0.20886013, y: 0, z: -0.000000038146972}
  m_LocalScale: {x: 0.7282842, y: 0.7282843, z: 0.7282843}
  m_Children:
  - {fileID: 4161115271899814}
  m_Father: {fileID: 4000013412328528}
  m_RootOrder: 0
  m_LocalEulerAnglesHint: {x: 0, y: 0, z: 0}
--- !u!4 &4000012581548332
Transform:
  m_ObjectHideFlags: 1
  m_PrefabParentObject: {fileID: 0}
  m_PrefabInternal: {fileID: 100100000}
  m_GameObject: {fileID: 1000013779314024}
  m_LocalRotation: {x: -0.09001928, y: -0.011128725, z: 0.02454494, w: 0.99557537}
  m_LocalPosition: {x: -0.1361749, y: 0.000000076293944, z: -0.000000009536743}
  m_LocalScale: {x: 0.72828424, y: 0.72828436, z: 0.72828436}
  m_Children:
  - {fileID: 4074288407751702}
  m_Father: {fileID: 4000010321170936}
  m_RootOrder: 0
  m_LocalEulerAnglesHint: {x: 0, y: 0, z: 0}
--- !u!4 &4000012636225736
Transform:
  m_ObjectHideFlags: 1
  m_PrefabParentObject: {fileID: 0}
  m_PrefabInternal: {fileID: 100100000}
  m_GameObject: {fileID: 1000010321571904}
  m_LocalRotation: {x: -7.635607e-14, y: 0.00000026396182, z: -0.09516938, w: 0.9954611}
  m_LocalPosition: {x: -0.15461256, y: -0.000120773315, z: -3.3571268e-10}
  m_LocalScale: {x: 1, y: 1, z: 1}
  m_Children:
  - {fileID: 4000012280539050}
  m_Father: {fileID: 4000013453507660}
  m_RootOrder: 0
  m_LocalEulerAnglesHint: {x: 0, y: 0, z: 0}
--- !u!4 &4000012651272448
Transform:
  m_ObjectHideFlags: 1
  m_PrefabParentObject: {fileID: 0}
  m_PrefabInternal: {fileID: 100100000}
  m_GameObject: {fileID: 1000012797271546}
  m_LocalRotation: {x: 0, y: 0, z: 0, w: 1}
  m_LocalPosition: {x: -0, y: 0.176, z: 0}
  m_LocalScale: {x: 1, y: 1, z: 1}
  m_Children:
  - {fileID: 4000011738755178}
  m_Father: {fileID: 4000012336344202}
  m_RootOrder: 4
  m_LocalEulerAnglesHint: {x: 0, y: 0, z: 0}
--- !u!4 &4000012664739476
Transform:
  m_ObjectHideFlags: 1
  m_PrefabParentObject: {fileID: 0}
  m_PrefabInternal: {fileID: 100100000}
  m_GameObject: {fileID: 1000010651261482}
  m_LocalRotation: {x: -0.00000012662011, y: -0.0000023488271, z: 0.9330867, w: -0.35965168}
  m_LocalPosition: {x: 0.22046302, y: -0.035575677, z: -0.00000010068426}
  m_LocalScale: {x: 0.83869165, y: 0.83869153, z: 0.83869153}
  m_Children:
  - {fileID: 4000013453507660}
  m_Father: {fileID: 4000014004321196}
  m_RootOrder: 3
  m_LocalEulerAnglesHint: {x: 0, y: 0, z: 0}
--- !u!4 &4000012698269562
Transform:
  m_ObjectHideFlags: 1
  m_PrefabParentObject: {fileID: 0}
  m_PrefabInternal: {fileID: 100100000}
  m_GameObject: {fileID: 1000011035256332}
  m_LocalRotation: {x: 0.0000005694352, y: -0.0000013323858, z: 0.56470895, w: 0.82529014}
  m_LocalPosition: {x: -0.17108668, y: -0.029334793, z: -0.00000008136237}
  m_LocalScale: {x: 1, y: 1, z: 1}
  m_Children:
  - {fileID: 4000010532699102}
  - {fileID: 4000013877943956}
  - {fileID: 4000011336287136}
  - {fileID: 4000013587577602}
  - {fileID: 4000010157893666}
  - {fileID: 4000010234467734}
  - {fileID: 4000010855399206}
  - {fileID: 4226094961411256}
  m_Father: {fileID: 4000011263152590}
  m_RootOrder: 0
  m_LocalEulerAnglesHint: {x: 0, y: 0, z: 0}
--- !u!4 &4000013199722886
Transform:
  m_ObjectHideFlags: 1
  m_PrefabParentObject: {fileID: 0}
  m_PrefabInternal: {fileID: 100100000}
  m_GameObject: {fileID: 1000010821097682}
  m_LocalRotation: {x: 0.034762435, y: -0.0019085698, z: -0.06883495, w: 0.9970204}
  m_LocalPosition: {x: -0.2088601, y: 0, z: -0.000000009536743}
  m_LocalScale: {x: 0.7282841, y: 0.72828436, z: 0.72828466}
  m_Children:
  - {fileID: 4007619609153328}
  m_Father: {fileID: 4000010090821260}
  m_RootOrder: 0
  m_LocalEulerAnglesHint: {x: 0, y: 0, z: 0}
--- !u!4 &4000013412328528
Transform:
  m_ObjectHideFlags: 1
  m_PrefabParentObject: {fileID: 0}
  m_PrefabInternal: {fileID: 100100000}
  m_GameObject: {fileID: 1000012659954782}
  m_LocalRotation: {x: -3.400621e-10, y: -1.7395188e-10, z: 0.16240333, w: 0.9867245}
  m_LocalPosition: {x: -0.2490814, y: -0.000000038146972, z: 0.000000028610229}
  m_LocalScale: {x: 0.99999976, y: 0.9999999, z: 0.9999998}
  m_Children:
  - {fileID: 4000012537305752}
  m_Father: {fileID: 4000010528063648}
  m_RootOrder: 0
  m_LocalEulerAnglesHint: {x: 0, y: 0, z: 0}
--- !u!4 &4000013453507660
Transform:
  m_ObjectHideFlags: 1
  m_PrefabParentObject: {fileID: 0}
  m_PrefabInternal: {fileID: 100100000}
  m_GameObject: {fileID: 1000011668616486}
  m_LocalRotation: {x: -0.00000032596046, y: 0.0000008217422, z: -0.008845657, w: 0.9999609}
  m_LocalPosition: {x: -0.15459153, y: -0.00012313842, z: -2.600427e-10}
  m_LocalScale: {x: 1.2841429, y: 1.2841431, z: 1.2841424}
  m_Children:
  - {fileID: 4000012636225736}
  m_Father: {fileID: 4000012664739476}
  m_RootOrder: 0
  m_LocalEulerAnglesHint: {x: 0, y: 0, z: 0}
--- !u!4 &4000013464842668
Transform:
  m_ObjectHideFlags: 1
  m_PrefabParentObject: {fileID: 0}
  m_PrefabInternal: {fileID: 100100000}
  m_GameObject: {fileID: 1000010489169838}
  m_LocalRotation: {x: -0.6966529, y: -0.03898177, z: 0.7163402, w: 0.0034484703}
  m_LocalPosition: {x: 0.06169098, y: 0.037654687, z: -0.00000043060862}
  m_LocalScale: {x: 1, y: 1.0000005, z: 1.0000005}
  m_Children:
  - {fileID: 4000010528063648}
  m_Father: {fileID: 4000011263152590}
  m_RootOrder: 1
  m_LocalEulerAnglesHint: {x: 0, y: 0, z: 0}
--- !u!4 &4000013577194852
Transform:
  m_ObjectHideFlags: 1
  m_PrefabParentObject: {fileID: 0}
  m_PrefabInternal: {fileID: 100100000}
  m_GameObject: {fileID: 1000013122369790}
  m_LocalRotation: {x: 0, y: 0, z: 0, w: 1}
  m_LocalPosition: {x: -0.002, y: 0.659, z: -0.077}
  m_LocalScale: {x: 1, y: 1, z: 1}
  m_Children: []
  m_Father: {fileID: 4000012336344202}
  m_RootOrder: 0
  m_LocalEulerAnglesHint: {x: 0, y: 0, z: 0}
--- !u!4 &4000013587577602
Transform:
  m_ObjectHideFlags: 1
  m_PrefabParentObject: {fileID: 0}
  m_PrefabInternal: {fileID: 100100000}
  m_GameObject: {fileID: 1000010125612732}
  m_LocalRotation: {x: 0.049700364, y: 0.55391806, z: -0.074939154, w: 0.8277009}
  m_LocalPosition: {x: 0.054028016, y: 0.20616192, z: 0.00001244714}
  m_LocalScale: {x: 1.0000001, y: 0.99999946, z: 1}
  m_Children: []
  m_Father: {fileID: 4000012698269562}
  m_RootOrder: 3
  m_LocalEulerAnglesHint: {x: 0, y: 0, z: 0}
--- !u!4 &4000013663454266
Transform:
  m_ObjectHideFlags: 1
  m_PrefabParentObject: {fileID: 0}
  m_PrefabInternal: {fileID: 100100000}
  m_GameObject: {fileID: 1000011979373934}
  m_LocalRotation: {x: 0.0000000010660486, y: 0.0000000015968181, z: -0.33694983,
    w: 0.94152266}
  m_LocalPosition: {x: -0.14511481, y: -0.000000114440915, z: -0.000000011920928}
  m_LocalScale: {x: 0.99999994, y: 1.0000002, z: 1}
  m_Children:
  - {fileID: 4000011460367178}
  m_Father: {fileID: 4000011800426624}
  m_RootOrder: 0
  m_LocalEulerAnglesHint: {x: 0, y: 0, z: 0}
--- !u!4 &4000013746936482
Transform:
  m_ObjectHideFlags: 1
  m_PrefabParentObject: {fileID: 0}
  m_PrefabInternal: {fileID: 100100000}
  m_GameObject: {fileID: 1000012688952098}
  m_LocalRotation: {x: 0.39847687, y: 0.56765056, z: 0.4489931, w: 0.56337756}
  m_LocalPosition: {x: -0.08138974, y: -0.00000015258789, z: -0.000000038146972}
  m_LocalScale: {x: 1.3881788, y: 1.3881793, z: 1.3881785}
  m_Children:
  - {fileID: 4000010090821260}
  m_Father: {fileID: 4000010388417454}
  m_RootOrder: 0
  m_LocalEulerAnglesHint: {x: 0, y: 0, z: 0}
--- !u!4 &4000013877943956
Transform:
  m_ObjectHideFlags: 1
  m_PrefabParentObject: {fileID: 0}
  m_PrefabInternal: {fileID: 100100000}
  m_GameObject: {fileID: 1000011346164626}
  m_LocalRotation: {x: 0.7709472, y: -0.6043575, z: 0.08241815, w: 0.1833023}
  m_LocalPosition: {x: -0.009831314, y: 0.1298172, z: -0.039710406}
  m_LocalScale: {x: 0.9999986, y: 0.99999976, z: 1.0000001}
  m_Children: []
  m_Father: {fileID: 4000012698269562}
  m_RootOrder: 1
  m_LocalEulerAnglesHint: {x: 0, y: 0, z: 0}
--- !u!4 &4000014004321196
Transform:
  m_ObjectHideFlags: 1
  m_PrefabParentObject: {fileID: 0}
  m_PrefabInternal: {fileID: 100100000}
  m_GameObject: {fileID: 1000013963817358}
  m_LocalRotation: {x: -0.0000016900473, y: 0.0000011284686, z: -0.72630143, w: 0.6873764}
  m_LocalPosition: {x: -0.023962783, y: 0.0768166, z: -0.00000020484877}
  m_LocalScale: {x: 1, y: 1, z: 1}
  m_Children:
  - {fileID: 4000011139159490}
  - {fileID: 4000014197762106}
  - {fileID: 4000010404392438}
  - {fileID: 4000012664739476}
  m_Father: {fileID: 4000010065338652}
  m_RootOrder: 0
  m_LocalEulerAnglesHint: {x: 0, y: 0, z: 0}
--- !u!4 &4000014080482318
Transform:
  m_ObjectHideFlags: 1
  m_PrefabParentObject: {fileID: 0}
  m_PrefabInternal: {fileID: 100100000}
  m_GameObject: {fileID: 1000012204161756}
  m_LocalRotation: {x: -0.7071068, y: -0, z: -0, w: 0.7071068}
  m_LocalPosition: {x: 0, y: 0, z: 0}
  m_LocalScale: {x: 1, y: 1, z: 1}
  m_Children: []
  m_Father: {fileID: 4170166966605038}
  m_RootOrder: 0
  m_LocalEulerAnglesHint: {x: 0, y: 0, z: 0}
--- !u!4 &4000014197762106
Transform:
  m_ObjectHideFlags: 1
  m_PrefabParentObject: {fileID: 0}
  m_PrefabInternal: {fileID: 100100000}
  m_GameObject: {fileID: 1000010447178022}
  m_LocalRotation: {x: -0.624119, y: 0.7767224, z: 0.05631626, w: -0.06329548}
  m_LocalPosition: {x: 0.0753816, y: 0.028153649, z: -0.06541323}
  m_LocalScale: {x: 1.3881788, y: 1.3881786, z: 1.3881793}
  m_Children:
  - {fileID: 4000011800426624}
  m_Father: {fileID: 4000014004321196}
  m_RootOrder: 1
  m_LocalEulerAnglesHint: {x: 0, y: 0, z: 0}
--- !u!4 &4000014252731060
Transform:
  m_ObjectHideFlags: 1
  m_PrefabParentObject: {fileID: 0}
  m_PrefabInternal: {fileID: 100100000}
  m_GameObject: {fileID: 1000013031467612}
  m_LocalRotation: {x: 0, y: 0, z: 0, w: 1}
  m_LocalPosition: {x: 0.006, y: 0.904, z: 0.22}
  m_LocalScale: {x: 1, y: 1, z: 1}
  m_Children: []
  m_Father: {fileID: 4000012336344202}
  m_RootOrder: 2
  m_LocalEulerAnglesHint: {x: 0, y: 0, z: 0}
--- !u!4 &4007619609153328
Transform:
  m_ObjectHideFlags: 1
  m_PrefabParentObject: {fileID: 0}
  m_PrefabInternal: {fileID: 100100000}
  m_GameObject: {fileID: 1086687850739068}
  m_LocalRotation: {x: -0.48528436, y: -0.48529753, z: 0.514296, w: -0.51428103}
  m_LocalPosition: {x: -0.026, y: -0.05, z: 0.006}
  m_LocalScale: {x: 1, y: 1, z: 1}
  m_Children: []
  m_Father: {fileID: 4000013199722886}
  m_RootOrder: 0
  m_LocalEulerAnglesHint: {x: 0, y: 0, z: 0}
--- !u!4 &4074288407751702
Transform:
  m_ObjectHideFlags: 1
  m_PrefabParentObject: {fileID: 0}
  m_PrefabInternal: {fileID: 100100000}
  m_GameObject: {fileID: 1919404825596456}
  m_LocalRotation: {x: 0.49697202, y: 0.4969726, z: 0.5030099, w: -0.503009}
  m_LocalPosition: {x: -0.022, y: 0.072, z: 0.011}
  m_LocalScale: {x: 1, y: 1, z: 1}
  m_Children: []
  m_Father: {fileID: 4000012581548332}
  m_RootOrder: 0
  m_LocalEulerAnglesHint: {x: 0, y: 0, z: 0}
--- !u!4 &4161115271899814
Transform:
  m_ObjectHideFlags: 1
  m_PrefabParentObject: {fileID: 0}
  m_PrefabInternal: {fileID: 100100000}
  m_GameObject: {fileID: 1891843019341154}
  m_LocalRotation: {x: -0.51429605, y: -0.51428235, z: 0.4852843, w: -0.48529625}
  m_LocalPosition: {x: -0.026, y: -0.05, z: -0.006}
  m_LocalScale: {x: 1, y: 1, z: 1}
  m_Children: []
  m_Father: {fileID: 4000012537305752}
  m_RootOrder: 0
  m_LocalEulerAnglesHint: {x: 0, y: 0, z: 0}
--- !u!4 &4170166966605038
Transform:
  m_ObjectHideFlags: 1
  m_PrefabParentObject: {fileID: 0}
  m_PrefabInternal: {fileID: 100100000}
  m_GameObject: {fileID: 1824350283678190}
  m_LocalRotation: {x: 0, y: 0, z: 0, w: 1}
  m_LocalPosition: {x: 0, y: 0, z: 0}
  m_LocalScale: {x: 1, y: 1, z: 1}
  m_Children:
  - {fileID: 4000014080482318}
  - {fileID: 4000010908560444}
  m_Father: {fileID: 4000012336344202}
  m_RootOrder: 3
  m_LocalEulerAnglesHint: {x: 0, y: 0, z: 0}
--- !u!4 &4226094961411256
Transform:
  m_ObjectHideFlags: 1
  m_PrefabParentObject: {fileID: 0}
  m_PrefabInternal: {fileID: 100100000}
  m_GameObject: {fileID: 1135421002644978}
  m_LocalRotation: {x: 0, y: 0, z: 0, w: 1}
  m_LocalPosition: {x: 0.138, y: 0.384, z: -0.026}
  m_LocalScale: {x: 1, y: 1, z: 1}
  m_Children: []
  m_Father: {fileID: 4000012698269562}
  m_RootOrder: 7
  m_LocalEulerAnglesHint: {x: 0, y: 0, z: 0}
--- !u!4 &4613451294520016
Transform:
  m_ObjectHideFlags: 1
  m_PrefabParentObject: {fileID: 0}
  m_PrefabInternal: {fileID: 100100000}
  m_GameObject: {fileID: 1522390165290974}
  m_LocalRotation: {x: 0.50300854, y: 0.50300914, z: 0.49697334, w: -0.49697256}
  m_LocalPosition: {x: -0.022, y: 0.073, z: -0.011}
  m_LocalScale: {x: 1, y: 1, z: 1}
  m_Children: []
  m_Father: {fileID: 4000011460367178}
  m_RootOrder: 0
  m_LocalEulerAnglesHint: {x: 0, y: 0, z: 0}
--- !u!4 &4664067959627452
Transform:
  m_ObjectHideFlags: 1
  m_PrefabParentObject: {fileID: 0}
  m_PrefabInternal: {fileID: 100100000}
  m_GameObject: {fileID: 1732486518537934}
  m_LocalRotation: {x: 0, y: 0, z: 0, w: 1}
  m_LocalPosition: {x: -0.004, y: 0, z: 0.943}
  m_LocalScale: {x: 1, y: 1, z: 1}
  m_Children: []
  m_Father: {fileID: 4000012336344202}
  m_RootOrder: 5
  m_LocalEulerAnglesHint: {x: 0, y: 0, z: 0}
--- !u!54 &54000011836270706
Rigidbody:
  m_ObjectHideFlags: 1
  m_PrefabParentObject: {fileID: 0}
  m_PrefabInternal: {fileID: 100100000}
  m_GameObject: {fileID: 1000012963497968}
  serializedVersion: 2
  m_Mass: 40
  m_Drag: 0
  m_AngularDrag: 0.05
  m_UseGravity: 1
  m_IsKinematic: 0
  m_Interpolate: 0
  m_Constraints: 116
  m_CollisionDetection: 0
--- !u!65 &65279904593734698
BoxCollider:
  m_ObjectHideFlags: 1
  m_PrefabParentObject: {fileID: 0}
  m_PrefabInternal: {fileID: 100100000}
  m_GameObject: {fileID: 1732486518537934}
  m_Material: {fileID: 0}
  m_IsTrigger: 1
  m_Enabled: 0
  serializedVersion: 2
  m_Size: {x: 0.29, y: 0.8366139, z: 0.44}
  m_Center: {x: -0.0000008009374, y: 0.41830695, z: 0.00000035762787}
--- !u!82 &82000010638786432
AudioSource:
  m_ObjectHideFlags: 1
  m_PrefabParentObject: {fileID: 0}
  m_PrefabInternal: {fileID: 100100000}
  m_GameObject: {fileID: 1000012963497968}
  m_Enabled: 1
  serializedVersion: 4
  OutputAudioMixerGroup: {fileID: 0}
  m_audioClip: {fileID: 0}
  m_PlayOnAwake: 1
  m_Volume: 1
  m_Pitch: 1
  Loop: 0
  Mute: 0
  Spatialize: 0
  SpatializePostEffects: 0
  Priority: 128
  DopplerLevel: 1
  MinDistance: 10
  MaxDistance: 10.1
  Pan2D: 0
  rolloffMode: 0
  BypassEffects: 0
  BypassListenerEffects: 0
  BypassReverbZones: 0
  rolloffCustomCurve:
    serializedVersion: 2
    m_Curve:
    - serializedVersion: 2
      time: 0
      value: 1
      inSlope: 0
      outSlope: 0
      tangentMode: 0
    - serializedVersion: 2
      time: 1
      value: 0
      inSlope: 0
      outSlope: 0
      tangentMode: 0
    m_PreInfinity: 2
    m_PostInfinity: 2
    m_RotationOrder: 4
  panLevelCustomCurve:
    serializedVersion: 2
    m_Curve:
    - serializedVersion: 2
      time: 0
      value: 0
      inSlope: 0
      outSlope: 0
      tangentMode: 0
    m_PreInfinity: 2
    m_PostInfinity: 2
    m_RotationOrder: 0
  spreadCustomCurve:
    serializedVersion: 2
    m_Curve:
    - serializedVersion: 2
      time: 0
      value: 0
      inSlope: 0
      outSlope: 0
      tangentMode: 0
    m_PreInfinity: 2
    m_PostInfinity: 2
    m_RotationOrder: 0
  reverbZoneMixCustomCurve:
    serializedVersion: 2
    m_Curve:
    - serializedVersion: 2
      time: 0
      value: 1
      inSlope: 0
      outSlope: 0
      tangentMode: 0
    m_PreInfinity: 2
    m_PostInfinity: 2
    m_RotationOrder: 0
--- !u!95 &95000010081907774
Animator:
  serializedVersion: 3
  m_ObjectHideFlags: 1
  m_PrefabParentObject: {fileID: 0}
  m_PrefabInternal: {fileID: 100100000}
  m_GameObject: {fileID: 1000012963497968}
  m_Enabled: 1
  m_Avatar: {fileID: 9000000, guid: b4dc3c74541def84191303ea727d9a51, type: 3}
  m_Controller: {fileID: 9100000, guid: 9a9ca9be051874949827310e9443be52, type: 2}
  m_CullingMode: 1
  m_UpdateMode: 1
  m_ApplyRootMotion: 1
  m_LinearVelocityBlending: 0
  m_WarningMessage: 
  m_HasTransformHierarchy: 1
  m_AllowConstantClipSamplingOptimization: 1
--- !u!114 &114000010230833156
MonoBehaviour:
  m_ObjectHideFlags: 1
  m_PrefabParentObject: {fileID: 0}
  m_PrefabInternal: {fileID: 100100000}
  m_GameObject: {fileID: 1000013031467612}
  m_Enabled: 1
  m_EditorHideFlags: 0
  m_Script: {fileID: 11500000, guid: a9deb6e7717bd59489eda60ab51b81bb, type: 3}
  m_Name: 
  m_EditorClassIdentifier: 
  multiplier: 0.59
  debug: 1
  debugSize: 0.03
  DebugColor: {r: 0, g: 0.66896534, b: 1, a: 1}
  drawRay: 1
--- !u!114 &114000010991151680
MonoBehaviour:
  m_ObjectHideFlags: 1
  m_PrefabParentObject: {fileID: 0}
  m_PrefabInternal: {fileID: 100100000}
  m_GameObject: {fileID: 1000012963497968}
  m_Enabled: 1
  m_EditorHideFlags: 0
  m_Script: {fileID: 11500000, guid: 12fd74a46159fd04b9a3d3d643cdb50f, type: 3}
  m_Name: 
  m_EditorClassIdentifier: 
  inputs:
  - active: 1
    name: Jump
    type: 0
    input: Jump
    key: 0
    GetPressed: 0
    InputValue: 0
    OnInputDown:
      m_PersistentCalls:
        m_Calls: []
      m_TypeName: UnityEngine.Events.UnityEvent, UnityEngine, Version=0.0.0.0, Culture=neutral,
        PublicKeyToken=null
    OnInputUp:
      m_PersistentCalls:
        m_Calls: []
      m_TypeName: UnityEngine.Events.UnityEvent, UnityEngine, Version=0.0.0.0, Culture=neutral,
        PublicKeyToken=null
    OnInputPressed:
      m_PersistentCalls:
        m_Calls: []
      m_TypeName: UnityEngine.Events.UnityEvent, UnityEngine, Version=0.0.0.0, Culture=neutral,
        PublicKeyToken=null
    OnInputChanged:
      m_PersistentCalls:
        m_Calls: []
      m_TypeName: MalbersAnimations.Events.BoolEvent, Assembly-CSharp, Version=0.0.0.0,
        Culture=neutral, PublicKeyToken=null
  - active: 1
    name: Shift
    type: 0
    input: Fire3
    key: 0
    GetPressed: 0
    InputValue: 0
    OnInputDown:
      m_PersistentCalls:
        m_Calls: []
      m_TypeName: UnityEngine.Events.UnityEvent, UnityEngine, Version=0.0.0.0, Culture=neutral,
        PublicKeyToken=null
    OnInputUp:
      m_PersistentCalls:
        m_Calls: []
      m_TypeName: UnityEngine.Events.UnityEvent, UnityEngine, Version=0.0.0.0, Culture=neutral,
        PublicKeyToken=null
    OnInputPressed:
      m_PersistentCalls:
        m_Calls: []
      m_TypeName: UnityEngine.Events.UnityEvent, UnityEngine, Version=0.0.0.0, Culture=neutral,
        PublicKeyToken=null
    OnInputChanged:
      m_PersistentCalls:
        m_Calls: []
      m_TypeName: MalbersAnimations.Events.BoolEvent, Assembly-CSharp, Version=0.0.0.0,
        Culture=neutral, PublicKeyToken=null
  - active: 1
    name: Attack1
    type: 0
    input: Fire1
    key: 0
    GetPressed: 1
    InputValue: 0
    OnInputDown:
      m_PersistentCalls:
        m_Calls: []
      m_TypeName: UnityEngine.Events.UnityEvent, UnityEngine, Version=0.0.0.0, Culture=neutral,
        PublicKeyToken=null
    OnInputUp:
      m_PersistentCalls:
        m_Calls: []
      m_TypeName: UnityEngine.Events.UnityEvent, UnityEngine, Version=0.0.0.0, Culture=neutral,
        PublicKeyToken=null
    OnInputPressed:
      m_PersistentCalls:
        m_Calls: []
      m_TypeName: UnityEngine.Events.UnityEvent, UnityEngine, Version=0.0.0.0, Culture=neutral,
        PublicKeyToken=null
    OnInputChanged:
      m_PersistentCalls:
        m_Calls: []
      m_TypeName: MalbersAnimations.Events.BoolEvent, Assembly-CSharp, Version=0.0.0.0,
        Culture=neutral, PublicKeyToken=null
  - active: 1
    name: Speed1
    type: 1
    input: Value
    key: 49
    GetPressed: 0
    InputValue: 0
    OnInputDown:
      m_PersistentCalls:
        m_Calls: []
      m_TypeName: UnityEngine.Events.UnityEvent, UnityEngine, Version=0.0.0.0, Culture=neutral,
        PublicKeyToken=null
    OnInputUp:
      m_PersistentCalls:
        m_Calls: []
      m_TypeName: UnityEngine.Events.UnityEvent, UnityEngine, Version=0.0.0.0, Culture=neutral,
        PublicKeyToken=null
    OnInputPressed:
      m_PersistentCalls:
        m_Calls: []
      m_TypeName: UnityEngine.Events.UnityEvent, UnityEngine, Version=0.0.0.0, Culture=neutral,
        PublicKeyToken=null
    OnInputChanged:
      m_PersistentCalls:
        m_Calls: []
      m_TypeName: MalbersAnimations.Events.BoolEvent, Assembly-CSharp, Version=0.0.0.0,
        Culture=neutral, PublicKeyToken=null
  - active: 1
    name: Speed2
    type: 1
    input: Value
    key: 50
    GetPressed: 0
    InputValue: 0
    OnInputDown:
      m_PersistentCalls:
        m_Calls: []
      m_TypeName: UnityEngine.Events.UnityEvent, UnityEngine, Version=0.0.0.0, Culture=neutral,
        PublicKeyToken=null
    OnInputUp:
      m_PersistentCalls:
        m_Calls: []
      m_TypeName: UnityEngine.Events.UnityEvent, UnityEngine, Version=0.0.0.0, Culture=neutral,
        PublicKeyToken=null
    OnInputPressed:
      m_PersistentCalls:
        m_Calls: []
      m_TypeName: UnityEngine.Events.UnityEvent, UnityEngine, Version=0.0.0.0, Culture=neutral,
        PublicKeyToken=null
    OnInputChanged:
      m_PersistentCalls:
        m_Calls: []
      m_TypeName: MalbersAnimations.Events.BoolEvent, Assembly-CSharp, Version=0.0.0.0,
        Culture=neutral, PublicKeyToken=null
  - active: 1
    name: Speed3
    type: 1
    input: Value
    key: 51
    GetPressed: 0
    InputValue: 0
    OnInputDown:
      m_PersistentCalls:
        m_Calls: []
      m_TypeName: UnityEngine.Events.UnityEvent, UnityEngine, Version=0.0.0.0, Culture=neutral,
        PublicKeyToken=null
    OnInputUp:
      m_PersistentCalls:
        m_Calls: []
      m_TypeName: UnityEngine.Events.UnityEvent, UnityEngine, Version=0.0.0.0, Culture=neutral,
        PublicKeyToken=null
    OnInputPressed:
      m_PersistentCalls:
        m_Calls: []
      m_TypeName: UnityEngine.Events.UnityEvent, UnityEngine, Version=0.0.0.0, Culture=neutral,
        PublicKeyToken=null
    OnInputChanged:
      m_PersistentCalls:
        m_Calls: []
      m_TypeName: MalbersAnimations.Events.BoolEvent, Assembly-CSharp, Version=0.0.0.0,
        Culture=neutral, PublicKeyToken=null
  - active: 1
    name: Action
    type: 1
    input: Value
    key: 101
    GetPressed: 1
    InputValue: 0
    OnInputDown:
      m_PersistentCalls:
        m_Calls: []
      m_TypeName: UnityEngine.Events.UnityEvent, UnityEngine, Version=0.0.0.0, Culture=neutral,
        PublicKeyToken=null
    OnInputUp:
      m_PersistentCalls:
        m_Calls: []
      m_TypeName: UnityEngine.Events.UnityEvent, UnityEngine, Version=0.0.0.0, Culture=neutral,
        PublicKeyToken=null
    OnInputPressed:
      m_PersistentCalls:
        m_Calls: []
      m_TypeName: UnityEngine.Events.UnityEvent, UnityEngine, Version=0.0.0.0, Culture=neutral,
        PublicKeyToken=null
    OnInputChanged:
      m_PersistentCalls:
        m_Calls: []
      m_TypeName: MalbersAnimations.Events.BoolEvent, Assembly-CSharp, Version=0.0.0.0,
        Culture=neutral, PublicKeyToken=null
  - active: 1
    name: Stun
    type: 1
    input: Value
    key: 104
    GetPressed: 0
    InputValue: 0
    OnInputDown:
      m_PersistentCalls:
        m_Calls: []
      m_TypeName: UnityEngine.Events.UnityEvent, UnityEngine, Version=0.0.0.0, Culture=neutral,
        PublicKeyToken=null
    OnInputUp:
      m_PersistentCalls:
        m_Calls: []
      m_TypeName: UnityEngine.Events.UnityEvent, UnityEngine, Version=0.0.0.0, Culture=neutral,
        PublicKeyToken=null
    OnInputPressed:
      m_PersistentCalls:
        m_Calls: []
      m_TypeName: UnityEngine.Events.UnityEvent, UnityEngine, Version=0.0.0.0, Culture=neutral,
        PublicKeyToken=null
    OnInputChanged:
      m_PersistentCalls:
        m_Calls: []
      m_TypeName: MalbersAnimations.Events.BoolEvent, Assembly-CSharp, Version=0.0.0.0,
        Culture=neutral, PublicKeyToken=null
  - active: 0
    name: Death
    type: 1
    input: Value
    key: 107
    GetPressed: 1
    InputValue: 0
    OnInputDown:
      m_PersistentCalls:
        m_Calls: []
      m_TypeName: UnityEngine.Events.UnityEvent, UnityEngine, Version=0.0.0.0, Culture=neutral,
        PublicKeyToken=null
    OnInputUp:
      m_PersistentCalls:
        m_Calls: []
      m_TypeName: UnityEngine.Events.UnityEvent, UnityEngine, Version=0.0.0.0, Culture=neutral,
        PublicKeyToken=null
    OnInputPressed:
      m_PersistentCalls:
        m_Calls: []
      m_TypeName: UnityEngine.Events.UnityEvent, UnityEngine, Version=0.0.0.0, Culture=neutral,
        PublicKeyToken=null
    OnInputChanged:
      m_PersistentCalls:
        m_Calls: []
      m_TypeName: MalbersAnimations.Events.BoolEvent, Assembly-CSharp, Version=0.0.0.0,
        Culture=neutral, PublicKeyToken=null
  Horizontal:
    active: 1
    name: Horizontal
    raw: 1
    input: Horizontal
    OnAxisValueChanged:
      m_PersistentCalls:
        m_Calls: []
      m_TypeName: MalbersAnimations.Events.FloatEvent, Assembly-CSharp, Version=0.0.0.0,
        Culture=neutral, PublicKeyToken=null
  Vertical:
    active: 1
    name: Vertical
    raw: 1
    input: Vertical
    OnAxisValueChanged:
      m_PersistentCalls:
        m_Calls: []
      m_TypeName: MalbersAnimations.Events.FloatEvent, Assembly-CSharp, Version=0.0.0.0,
        Culture=neutral, PublicKeyToken=null
  cameraBaseInput: 0
  alwaysForward: 0
  PlayerID: Player0
--- !u!114 &114000011036675758
MonoBehaviour:
  m_ObjectHideFlags: 1
  m_PrefabParentObject: {fileID: 0}
  m_PrefabInternal: {fileID: 100100000}
  m_GameObject: {fileID: 1000012963497968}
  m_Enabled: 1
  m_EditorHideFlags: 0
  m_Script: {fileID: 11500000, guid: 2c3a10fa46510904caf0d339cac28562, type: 3}
  m_Name: 
  m_EditorClassIdentifier: 
  animalProxy: {fileID: 0}
  animalTypeID: 0
  JumpPress: 0
  JumpHeightMultiplier: 0
  AirForwardMultiplier: 0
  GroundLayer:
    serializedVersion: 2
    m_Bits: 1
  StartSpeed: 1
  height: 0.65
  walkSpeed:
    name: 
    position: 0
    animator: 1
    lerpPosition: 8
    lerpAnimator: 4
    rotation: 0
    lerpRotation: 6
  trotSpeed:
    name: 
    position: 0
    animator: 1
    lerpPosition: 4
    lerpAnimator: 4
    rotation: 0
    lerpRotation: 6
  runSpeed:
    name: 
    position: 0
    animator: 1
    lerpPosition: 2
    lerpAnimator: 4
    rotation: 0
    lerpRotation: 6
  airRotation: 100
  AirControl: 0
  airMaxSpeed: 1
  airSmoothness: 2
  movementS1: 1
  movementS2: 2
  movementS3: 3
  maxAngleSlope: 45
  SlowSlopes: 1
  GotoSleep: 20
  SnapToGround: 20
  AlingToGround: 30
  FallRayDistance: 0.1
  BackFallRayDistance: 0.5
  FallRayMultiplier: 1
  SmoothVertical: 1
  IgnoreYDir: 0
  TurnMultiplier: 40
  waterLine: 0
  swimSpeed:
    name: 
    position: 0
    animator: 1
    lerpPosition: 4
    lerpAnimator: 4
    rotation: 0
    lerpRotation: 6
  canSwim: 1
  CanGoUnderWater: 0
  bank: 0
  underWaterSpeed:
    name: 
    position: 0
    animator: 1
    lerpPosition: 4
    lerpAnimator: 4
    rotation: 0
    lerpRotation: 4
  flySpeed:
    name: 
    position: 0
    animator: 1
    lerpPosition: 4
    lerpAnimator: 4
    rotation: 0
    lerpRotation: 4
  StartFlying: 0
  canFly: 0
  land: 1
  LockUp: 0
  life: 100
  defense: 0
  damageDelay: 0.2
  damageInterrupt: 0.2
  TotalAttacks: 4
  activeAttack: -1
  attackStrength: 0
  attackDelay: 0.5
  inmune: 0
  animatorSpeed: 1
  upDownSmoothness: 2
  debug: 1
  PivotsRayInterval: 1
  FallRayInterval: 3
  WaterRayInterval: 5
  OnJump:
    m_PersistentCalls:
      m_Calls: []
    m_TypeName: UnityEngine.Events.UnityEvent, UnityEngine, Version=0.0.0.0, Culture=neutral,
      PublicKeyToken=null
  OnAttack:
    m_PersistentCalls:
      m_Calls: []
    m_TypeName: UnityEngine.Events.UnityEvent, UnityEngine, Version=0.0.0.0, Culture=neutral,
      PublicKeyToken=null
  OnGetDamaged:
    m_PersistentCalls:
      m_Calls: []
    m_TypeName: MalbersAnimations.Events.FloatEvent, Assembly-CSharp, Version=0.0.0.0,
      Culture=neutral, PublicKeyToken=null
  OnDeathE:
    m_PersistentCalls:
      m_Calls: []
    m_TypeName: UnityEngine.Events.UnityEvent, UnityEngine, Version=0.0.0.0, Culture=neutral,
      PublicKeyToken=null
  OnAction:
    m_PersistentCalls:
      m_Calls: []
    m_TypeName: UnityEngine.Events.UnityEvent, UnityEngine, Version=0.0.0.0, Culture=neutral,
      PublicKeyToken=null
  OnSwim:
    m_PersistentCalls:
      m_Calls: []
    m_TypeName: UnityEngine.Events.UnityEvent, UnityEngine, Version=0.0.0.0, Culture=neutral,
      PublicKeyToken=null
  OnFly:
    m_PersistentCalls:
      m_Calls: []
    m_TypeName: MalbersAnimations.Events.BoolEvent, Assembly-CSharp, Version=0.0.0.0,
      Culture=neutral, PublicKeyToken=null
  OnUnderWater:
    m_PersistentCalls:
      m_Calls: []
    m_TypeName: UnityEngine.Events.UnityEvent, UnityEngine, Version=0.0.0.0, Culture=neutral,
      PublicKeyToken=null
  OnAnimationChange:
    m_PersistentCalls:
      m_Calls: []
    m_TypeName: MalbersAnimations.Events.IntEvent, Assembly-CSharp, Version=0.0.0.0,
      Culture=neutral, PublicKeyToken=null
  OnSyncAnimator:
    m_PersistentCalls:
      m_Calls: []
    m_TypeName: UnityEngine.Events.UnityEvent, UnityEngine, Version=0.0.0.0, Culture=neutral,
      PublicKeyToken=null
  FrameCounter: 0
  OnMovementReleased:
    m_PersistentCalls:
      m_Calls: []
    m_TypeName: MalbersAnimations.Events.BoolEvent, Assembly-CSharp, Version=0.0.0.0,
      Culture=neutral, PublicKeyToken=null
  useShift: 1
  CurrentAnimState: 0
  NextAnimState: 0
  EditorGeneral: 1
  EditorGround: 1
  EditorWater: 1
  EditorAir: 1
  EditorAdvanced: 1
  EditorAirControl: 1
  EditorAttributes: 1
  EditorEvents: 1
--- !u!114 &114000011508025850
MonoBehaviour:
  m_ObjectHideFlags: 1
  m_PrefabParentObject: {fileID: 0}
  m_PrefabInternal: {fileID: 100100000}
  m_GameObject: {fileID: 1000012963497968}
  m_Enabled: 1
  m_EditorHideFlags: 0
  m_Script: {fileID: 11500000, guid: 7f0b0ca15fed4cc47a9208f78224c0f3, type: 3}
  m_Name: 
  m_EditorClassIdentifier: 
  fixGameObject: {fileID: 4000012651272448}
  Offset: {x: 0, y: -0.13, z: 0}
  duration: 0.5
--- !u!114 &114000011895367420
MonoBehaviour:
  m_ObjectHideFlags: 1
  m_PrefabParentObject: {fileID: 0}
  m_PrefabInternal: {fileID: 100100000}
  m_GameObject: {fileID: 1000013979421962}
  m_Enabled: 1
  m_EditorHideFlags: 0
  m_Script: {fileID: 11500000, guid: a9deb6e7717bd59489eda60ab51b81bb, type: 3}
  m_Name: 
  m_EditorClassIdentifier: 
  multiplier: 0.96
  debug: 1
  debugSize: 0.03
  DebugColor: {r: 1, g: 1, b: 0, a: 1}
  drawRay: 1
--- !u!114 &114000012060826086
MonoBehaviour:
  m_ObjectHideFlags: 1
  m_PrefabParentObject: {fileID: 0}
  m_PrefabInternal: {fileID: 100100000}
  m_GameObject: {fileID: 1000013122369790}
  m_Enabled: 1
  m_EditorHideFlags: 0
  m_Script: {fileID: 11500000, guid: a9deb6e7717bd59489eda60ab51b81bb, type: 3}
  m_Name: 
  m_EditorClassIdentifier: 
  multiplier: 0.91
  debug: 1
  debugSize: 0.03
  DebugColor: {r: 1, g: 1, b: 0, a: 1}
  drawRay: 1
--- !u!114 &114000012617426950
MonoBehaviour:
  m_ObjectHideFlags: 1
  m_PrefabParentObject: {fileID: 0}
  m_PrefabInternal: {fileID: 100100000}
  m_GameObject: {fileID: 1000012963497968}
  m_Enabled: 1
  m_EditorHideFlags: 0
  m_Script: {fileID: 11500000, guid: c51aadafe0cedb841ac535263babb1a9, type: 3}
  m_Name: 
  m_EditorClassIdentifier: 
  Meshes:
  - Name: Magic
    meshes:
    - {fileID: 4000010908560444}
    - {fileID: 0}
    Current: 0
    OnActiveMesh:
      m_PersistentCalls:
        m_Calls: []
      m_TypeName: MalbersAnimations.Events.TransformEvent, Assembly-CSharp, Version=0.0.0.0,
        Culture=neutral, PublicKeyToken=null
  showMeshesList: 0
  random: 0
--- !u!114 &114000013035704544
MonoBehaviour:
  m_ObjectHideFlags: 1
  m_PrefabParentObject: {fileID: 0}
  m_PrefabInternal: {fileID: 100100000}
  m_GameObject: {fileID: 1000012963497968}
  m_Enabled: 1
  m_EditorHideFlags: 0
  m_Script: {fileID: 11500000, guid: 0cfe5b9b31f86d7409eacee80dce9b30, type: 3}
  m_Name: 
  m_EditorClassIdentifier: 
  Shapes:
  - NameID: Fox
    mesh: {fileID: 137000013595529318}
    blendShapes:
    - 0
    - 0
    - 58.8
    - 43
    - 0
    - 0
    - 0
    - 0
    - 0
    - 100
    - 0
    ActiveShape: 
  random: 0
--- !u!114 &114112953591037018
MonoBehaviour:
  m_ObjectHideFlags: 1
  m_PrefabParentObject: {fileID: 0}
  m_PrefabInternal: {fileID: 100100000}
  m_GameObject: {fileID: 1086687850739068}
  m_Enabled: 1
  m_EditorHideFlags: 0
  m_Script: {fileID: 11500000, guid: 9b4de088e089c164bb239be84964ea4c, type: 3}
  m_Name: 
  m_EditorClassIdentifier: 
  UseColliders: 1
  gizmoType: 0
  alpha: 0.22
  debugSize: 0.03
  DebugColor: {r: 0, g: 0.91724133, b: 1, a: 1}
  DrawAxis: 0
  AxisSize: 0.3
--- !u!114 &114151206384128020
MonoBehaviour:
  m_ObjectHideFlags: 1
  m_PrefabParentObject: {fileID: 0}
  m_PrefabInternal: {fileID: 100100000}
  m_GameObject: {fileID: 1522390165290974}
  m_Enabled: 1
  m_EditorHideFlags: 0
  m_Script: {fileID: 11500000, guid: 0d28118109a4a004ea7f53889baf6f50, type: 3}
  m_Name: 
  m_EditorClassIdentifier: 
  WaitNextStep: 0.5
  StepAudio: {fileID: 0}
--- !u!114 &114220066439790268
MonoBehaviour:
  m_ObjectHideFlags: 1
  m_PrefabParentObject: {fileID: 0}
  m_PrefabInternal: {fileID: 100100000}
  m_GameObject: {fileID: 1732486518537934}
  m_Enabled: 1
  m_EditorHideFlags: 0
  m_Script: {fileID: 11500000, guid: 3ba6a0c4ae41dba499b324d6ba760f90, type: 3}
  m_Name: 
  m_EditorClassIdentifier: 
  index: 2
  damageMultiplier: 1
  PushForce: 0
  debug: 1
  DebugColor: {r: 1, g: 0.25, b: 0, a: 0.15}
--- !u!114 &114317767413435934
MonoBehaviour:
  m_ObjectHideFlags: 1
  m_PrefabParentObject: {fileID: 0}
  m_PrefabInternal: {fileID: 100100000}
  m_GameObject: {fileID: 1086687850739068}
  m_Enabled: 1
  m_EditorHideFlags: 0
  m_Script: {fileID: 11500000, guid: 0d28118109a4a004ea7f53889baf6f50, type: 3}
  m_Name: 
  m_EditorClassIdentifier: 
  WaitNextStep: 0.5
  StepAudio: {fileID: 0}
--- !u!114 &114390785317779792
MonoBehaviour:
  m_ObjectHideFlags: 1
  m_PrefabParentObject: {fileID: 0}
  m_PrefabInternal: {fileID: 100100000}
  m_GameObject: {fileID: 1000012963497968}
  m_Enabled: 1
  m_EditorHideFlags: 0
  m_Script: {fileID: 11500000, guid: 181eb898d7c8aa441b8df05cec988f7d, type: 3}
  m_Name: 
  m_EditorClassIdentifier: 
  Active: 1
  GroundLayer:
    serializedVersion: 2
    m_Bits: 1
  Tracks: {fileID: 198000013136168986, guid: b89bf404b651df940b0f4eb9de79a61d, type: 2}
  Dust: {fileID: 198000010737321038, guid: f0e05868b149bf947969b4825ba90440, type: 2}
  StepsVolume: 0.2
  DustParticles: 15
  Scale: {x: 1, y: 1, z: 1}
  clips:
  - {fileID: 8300000, guid: 73addaaa36bc5b4478d7cbee61bd3ad0, type: 3}
  - {fileID: 8300000, guid: 7f5d9f9991c533547a0f2e8dca867933, type: 3}
  - {fileID: 8300000, guid: 50ef9e51d993734499f3ba55391226ec, type: 3}
  - {fileID: 8300000, guid: 272c1b463f5155543881cb12a3fad53b, type: 3}
  - {fileID: 8300000, guid: bbd4941d8f179af4eaa8b0e6f06352a8, type: 3}
  trackOffset: 0.0085
--- !u!114 &114486123530624842
MonoBehaviour:
  m_ObjectHideFlags: 1
  m_PrefabParentObject: {fileID: 0}
  m_PrefabInternal: {fileID: 100100000}
  m_GameObject: {fileID: 1000012963497968}
  m_Enabled: 1
  m_EditorHideFlags: 0
  m_Script: {fileID: 11500000, guid: 1f7b187428519474db57076680c22084, type: 3}
  m_Name: 
  m_EditorClassIdentifier: 
  materialList:
  - Name: Skin
    mesh: {fileID: 137000013595529318}
    materials:
    - {fileID: 2100000, guid: f7d139f5e6a3c9c44a5835eca8271951, type: 2}
    - {fileID: 2100000, guid: 1e28f2ea86686bf46bd1a28256f0888b, type: 2}
    - {fileID: 2100000, guid: fcc8068c8b002c442a7b5f8ffe02d0a1, type: 2}
    - {fileID: 2100000, guid: af3a7daa4e44b814d8193ab256a1f9d7, type: 2}
    - {fileID: 2100000, guid: 8d90183e2b86ad442a615272550d044a, type: 2}
    Linked: 0
    Master: 0
    current: 1
    HasLODs: 0
    LODs: []
    indexM: 0
    OnMaterialChanged:
      m_PersistentCalls:
        m_Calls: []
      m_TypeName: MalbersAnimations.Events.IntEvent, Assembly-CSharp, Version=0.0.0.0,
        Culture=neutral, PublicKeyToken=null
  - Name: Magic
    mesh: {fileID: 137000012662373880}
    materials:
    - {fileID: 2100000, guid: c4976ecf03899a04a8d5faa68fcc1a02, type: 2}
    - {fileID: 2100000, guid: ebf64ba4602dfa0439b76dac306e1522, type: 2}
    - {fileID: 2100000, guid: 5578bdf27ee7bf743bd72e8e4172913c, type: 2}
    - {fileID: 2100000, guid: 9e69f0b8560e90741aff6f38811f51d1, type: 2}
    - {fileID: 2100000, guid: e06654e42f6991548a76f7ed883c3515, type: 2}
    - {fileID: 2100000, guid: 5e2948538d3401c4e9b045835fad426a, type: 2}
    Linked: 0
    Master: 0
    current: 3
    HasLODs: 0
    LODs: []
    indexM: 0
    OnMaterialChanged:
      m_PersistentCalls:
        m_Calls: []
      m_TypeName: MalbersAnimations.Events.IntEvent, Assembly-CSharp, Version=0.0.0.0,
        Culture=neutral, PublicKeyToken=null
  showMeshesList: 1
  random: 0
--- !u!114 &114503987504557948
MonoBehaviour:
  m_ObjectHideFlags: 1
  m_PrefabParentObject: {fileID: 0}
  m_PrefabInternal: {fileID: 100100000}
  m_GameObject: {fileID: 1000012963497968}
  m_Enabled: 1
  m_EditorHideFlags: 0
  m_Script: {fileID: 11500000, guid: 334fda2dd5b998e4abb8119d1343346f, type: 3}
  m_Name: 
  m_EditorClassIdentifier: 
  active: 1
  UseCamera: 0
  Target: {fileID: 0}
  LimitAngle: 60
  Smoothness: 5
  UpVector: {x: 0, y: 1, z: 0}
  Bones:
  - bone: {fileID: 4000012698269562}
    offset: {x: 0, y: -90, z: -90}
    weight: 1
  debug: 1
--- !u!114 &114542215231680616
MonoBehaviour:
  m_ObjectHideFlags: 1
  m_PrefabParentObject: {fileID: 0}
  m_PrefabInternal: {fileID: 100100000}
  m_GameObject: {fileID: 1135421002644978}
  m_Enabled: 1
  m_EditorHideFlags: 0
  m_Script: {fileID: 11500000, guid: 3ba6a0c4ae41dba499b324d6ba760f90, type: 3}
  m_Name: 
  m_EditorClassIdentifier: 
  index: 1
  damageMultiplier: 1
  PushForce: 0
  debug: 1
  DebugColor: {r: 1, g: 0.25, b: 0, a: 0.15}
--- !u!114 &114547570938365896
MonoBehaviour:
  m_ObjectHideFlags: 1
  m_PrefabParentObject: {fileID: 0}
  m_PrefabInternal: {fileID: 100100000}
  m_GameObject: {fileID: 1891843019341154}
  m_Enabled: 1
  m_EditorHideFlags: 0
  m_Script: {fileID: 11500000, guid: 9b4de088e089c164bb239be84964ea4c, type: 3}
  m_Name: 
  m_EditorClassIdentifier: 
  UseColliders: 1
  gizmoType: 0
  alpha: 0.22
  debugSize: 0.03
  DebugColor: {r: 0, g: 0.91724133, b: 1, a: 1}
  DrawAxis: 0
  AxisSize: 0.3
--- !u!114 &114672942683826442
MonoBehaviour:
  m_ObjectHideFlags: 1
  m_PrefabParentObject: {fileID: 0}
  m_PrefabInternal: {fileID: 100100000}
  m_GameObject: {fileID: 1891843019341154}
  m_Enabled: 1
  m_EditorHideFlags: 0
  m_Script: {fileID: 11500000, guid: 0d28118109a4a004ea7f53889baf6f50, type: 3}
  m_Name: 
  m_EditorClassIdentifier: 
  WaitNextStep: 0.5
  StepAudio: {fileID: 0}
--- !u!114 &114709291097406226
MonoBehaviour:
  m_ObjectHideFlags: 1
  m_PrefabParentObject: {fileID: 0}
  m_PrefabInternal: {fileID: 100100000}
  m_GameObject: {fileID: 1919404825596456}
  m_Enabled: 1
  m_EditorHideFlags: 0
  m_Script: {fileID: 11500000, guid: 9b4de088e089c164bb239be84964ea4c, type: 3}
  m_Name: 
  m_EditorClassIdentifier: 
  UseColliders: 1
  gizmoType: 0
  alpha: 0.22
  debugSize: 0.03
  DebugColor: {r: 0, g: 0.91724133, b: 1, a: 1}
  DrawAxis: 0
  AxisSize: 0.3
--- !u!114 &114761081246730568
MonoBehaviour:
  m_ObjectHideFlags: 1
  m_PrefabParentObject: {fileID: 0}
  m_PrefabInternal: {fileID: 100100000}
  m_GameObject: {fileID: 1522390165290974}
  m_Enabled: 1
  m_EditorHideFlags: 0
  m_Script: {fileID: 11500000, guid: 9b4de088e089c164bb239be84964ea4c, type: 3}
  m_Name: 
  m_EditorClassIdentifier: 
  UseColliders: 1
  gizmoType: 0
  alpha: 0.22
  debugSize: 0.03
  DebugColor: {r: 0, g: 0.91724133, b: 1, a: 1}
  DrawAxis: 0
  AxisSize: 0.3
--- !u!114 &114977814247776602
MonoBehaviour:
  m_ObjectHideFlags: 1
  m_PrefabParentObject: {fileID: 0}
  m_PrefabInternal: {fileID: 100100000}
  m_GameObject: {fileID: 1919404825596456}
  m_Enabled: 1
  m_EditorHideFlags: 0
  m_Script: {fileID: 11500000, guid: 0d28118109a4a004ea7f53889baf6f50, type: 3}
  m_Name: 
  m_EditorClassIdentifier: 
  WaitNextStep: 0.5
  StepAudio: {fileID: 0}
--- !u!135 &135082227641679076
SphereCollider:
  m_ObjectHideFlags: 1
  m_PrefabParentObject: {fileID: 0}
  m_PrefabInternal: {fileID: 100100000}
  m_GameObject: {fileID: 1086687850739068}
  m_Material: {fileID: 0}
  m_IsTrigger: 1
  m_Enabled: 1
  serializedVersion: 2
  m_Radius: 0.04
  m_Center: {x: 0, y: 0, z: 0}
--- !u!135 &135341194608085410
SphereCollider:
  m_ObjectHideFlags: 1
  m_PrefabParentObject: {fileID: 0}
  m_PrefabInternal: {fileID: 100100000}
  m_GameObject: {fileID: 1891843019341154}
  m_Material: {fileID: 0}
  m_IsTrigger: 1
  m_Enabled: 1
  serializedVersion: 2
  m_Radius: 0.04
  m_Center: {x: 0, y: 0, z: 0}
--- !u!135 &135367897641612718
SphereCollider:
  m_ObjectHideFlags: 1
  m_PrefabParentObject: {fileID: 0}
  m_PrefabInternal: {fileID: 100100000}
  m_GameObject: {fileID: 1135421002644978}
  m_Material: {fileID: 0}
  m_IsTrigger: 1
  m_Enabled: 0
  serializedVersion: 2
  m_Radius: 0.19
  m_Center: {x: 0, y: 0, z: 0}
--- !u!135 &135531500989027896
SphereCollider:
  m_ObjectHideFlags: 1
  m_PrefabParentObject: {fileID: 0}
  m_PrefabInternal: {fileID: 100100000}
  m_GameObject: {fileID: 1000011035256332}
  m_Material: {fileID: 13400000, guid: 54174b87a6301064ea8788686f85bda8, type: 2}
  m_IsTrigger: 0
  m_Enabled: 1
  serializedVersion: 2
  m_Radius: 0.095
  m_Center: {x: 0, y: 0.06, z: 0}
--- !u!135 &135552146221590510
SphereCollider:
  m_ObjectHideFlags: 1
  m_PrefabParentObject: {fileID: 0}
  m_PrefabInternal: {fileID: 100100000}
  m_GameObject: {fileID: 1522390165290974}
  m_Material: {fileID: 0}
  m_IsTrigger: 1
  m_Enabled: 1
  serializedVersion: 2
  m_Radius: 0.04
  m_Center: {x: 0, y: 0, z: 0}
--- !u!135 &135567512124895024
SphereCollider:
  m_ObjectHideFlags: 1
  m_PrefabParentObject: {fileID: 0}
  m_PrefabInternal: {fileID: 100100000}
  m_GameObject: {fileID: 1919404825596456}
  m_Material: {fileID: 0}
  m_IsTrigger: 1
  m_Enabled: 1
  serializedVersion: 2
  m_Radius: 0.04
  m_Center: {x: 0, y: 0, z: 0}
--- !u!136 &136000011744259212
CapsuleCollider:
  m_ObjectHideFlags: 1
  m_PrefabParentObject: {fileID: 0}
  m_PrefabInternal: {fileID: 100100000}
  m_GameObject: {fileID: 1000014159080182}
  m_Material: {fileID: 13400000, guid: 54174b87a6301064ea8788686f85bda8, type: 2}
  m_IsTrigger: 0
  m_Enabled: 1
  m_Radius: 0.11309509
  m_Height: 0.45255604
  m_Direction: 0
  m_Center: {x: 0, y: 0.04, z: 0}
--- !u!136 &136035608161024148
CapsuleCollider:
  m_ObjectHideFlags: 1
  m_PrefabParentObject: {fileID: 0}
  m_PrefabInternal: {fileID: 100100000}
  m_GameObject: {fileID: 1000013268733728}
  m_Material: {fileID: 13400000, guid: 54174b87a6301064ea8788686f85bda8, type: 2}
  m_IsTrigger: 0
  m_Enabled: 1
  m_Radius: 0.09
  m_Height: 0.31
  m_Direction: 0
  m_Center: {x: -0.08, y: 0, z: 0}
--- !u!136 &136481794880297208
CapsuleCollider:
  m_ObjectHideFlags: 1
  m_PrefabParentObject: {fileID: 0}
  m_PrefabInternal: {fileID: 100100000}
  m_GameObject: {fileID: 1000011035256332}
  m_Material: {fileID: 13400000, guid: 870559f761eb90243ba09333475b5046, type: 2}
  m_IsTrigger: 0
  m_Enabled: 1
  m_Radius: 0.05
  m_Height: 0.2903862
  m_Direction: 1
  m_Center: {x: 0.06, y: 0.12, z: 0}
--- !u!136 &136746810407326784
CapsuleCollider:
  m_ObjectHideFlags: 1
  m_PrefabParentObject: {fileID: 0}
  m_PrefabInternal: {fileID: 100100000}
  m_GameObject: {fileID: 1000013963817358}
  m_Material: {fileID: 13400000, guid: 54174b87a6301064ea8788686f85bda8, type: 2}
  m_IsTrigger: 0
  m_Enabled: 1
  m_Radius: 0.121
  m_Height: 0.45255604
  m_Direction: 0
  m_Center: {x: 0.03, y: 0.02, z: 0}
--- !u!136 &136768594449809364
CapsuleCollider:
  m_ObjectHideFlags: 1
  m_PrefabParentObject: {fileID: 0}
  m_PrefabInternal: {fileID: 100100000}
  m_GameObject: {fileID: 1000010328285680}
  m_Material: {fileID: 13400000, guid: 54174b87a6301064ea8788686f85bda8, type: 2}
  m_IsTrigger: 0
  m_Enabled: 1
  m_Radius: 0.121
  m_Height: 0.45255604
  m_Direction: 0
  m_Center: {x: 0, y: 0.05, z: 0}
--- !u!137 &137000012662373880
SkinnedMeshRenderer:
  m_ObjectHideFlags: 1
  m_PrefabParentObject: {fileID: 0}
  m_PrefabInternal: {fileID: 100100000}
  m_GameObject: {fileID: 1000010643106944}
  m_Enabled: 1
  m_CastShadows: 1
  m_ReceiveShadows: 1
  m_MotionVectors: 1
  m_LightProbeUsage: 1
  m_ReflectionProbeUsage: 1
  m_Materials:
  - {fileID: 2100000, guid: 9e69f0b8560e90741aff6f38811f51d1, type: 2}
  m_StaticBatchInfo:
    firstSubMesh: 0
    subMeshCount: 0
  m_StaticBatchRoot: {fileID: 0}
  m_ProbeAnchor: {fileID: 0}
  m_LightProbeVolumeOverride: {fileID: 0}
  m_ScaleInLightmap: 1
  m_PreserveUVs: 0
  m_IgnoreNormalsForChartDetection: 0
  m_ImportantGI: 0
  m_SelectedEditorRenderState: 3
  m_MinimumChartSize: 4
  m_AutoUVMaxDistance: 0.5
  m_AutoUVMaxAngle: 89
  m_LightmapParameters: {fileID: 0}
  m_SortingLayerID: 0
  m_SortingLayer: 0
  m_SortingOrder: 0
  serializedVersion: 2
  m_Quality: 0
  m_UpdateWhenOffscreen: 0
  m_SkinnedMotionVectors: 1
  m_Mesh: {fileID: 4300002, guid: b4dc3c74541def84191303ea727d9a51, type: 3}
  m_Bones:
  - {fileID: 4000012698269562}
  - {fileID: 4000013587577602}
  - {fileID: 4000010532699102}
  - {fileID: 4000011263152590}
  - {fileID: 4000011336287136}
  - {fileID: 4000010157893666}
  - {fileID: 4000010528063648}
  - {fileID: 4000010351357064}
  - {fileID: 4000013464842668}
  - {fileID: 4000010404392438}
  - {fileID: 4000013412328528}
  - {fileID: 4000011139159490}
  - {fileID: 4000010065338652}
  - {fileID: 4000014004321196}
  - {fileID: 4000011996414866}
  - {fileID: 4000010321170936}
  - {fileID: 4000012537305752}
  - {fileID: 4000012581548332}
  - {fileID: 4000010388417454}
  - {fileID: 4000014197762106}
  - {fileID: 4000012664739476}
  - {fileID: 4000013453507660}
  - {fileID: 4000012636225736}
  - {fileID: 4000012280539050}
  - {fileID: 4000013746936482}
  - {fileID: 4000010090821260}
  - {fileID: 4000011800426624}
  - {fileID: 4000013199722886}
  - {fileID: 4000011460367178}
  - {fileID: 4000013663454266}
  - {fileID: 4000013877943956}
  - {fileID: 4000010855399206}
  - {fileID: 4000010234467734}
  m_BlendShapeWeights:
  - 0
  - 0
  - 58.8
  - 43
  - 0
  - 0
  - 0
  - 0
  - 0
  - 100
  m_RootBone: {fileID: 4000010065338652}
  m_AABB:
    m_Center: {x: 0.11493045, y: 0.18775713, z: 0.00047372282}
    m_Extent: {x: 0.4146288, y: 0.8101045, z: 0.20203863}
  m_DirtyAABB: 0
--- !u!137 &137000013595529318
SkinnedMeshRenderer:
  m_ObjectHideFlags: 1
  m_PrefabParentObject: {fileID: 0}
  m_PrefabInternal: {fileID: 100100000}
  m_GameObject: {fileID: 1000012204161756}
  m_Enabled: 1
  m_CastShadows: 1
  m_ReceiveShadows: 1
  m_MotionVectors: 1
  m_LightProbeUsage: 1
  m_ReflectionProbeUsage: 1
  m_Materials:
  - {fileID: 2100000, guid: fcc8068c8b002c442a7b5f8ffe02d0a1, type: 2}
  m_StaticBatchInfo:
    firstSubMesh: 0
    subMeshCount: 0
  m_StaticBatchRoot: {fileID: 0}
  m_ProbeAnchor: {fileID: 0}
  m_LightProbeVolumeOverride: {fileID: 0}
  m_ScaleInLightmap: 1
  m_PreserveUVs: 0
  m_IgnoreNormalsForChartDetection: 0
  m_ImportantGI: 0
  m_SelectedEditorRenderState: 3
  m_MinimumChartSize: 4
  m_AutoUVMaxDistance: 0.5
  m_AutoUVMaxAngle: 89
  m_LightmapParameters: {fileID: 0}
  m_SortingLayerID: 0
  m_SortingLayer: 0
  m_SortingOrder: 0
  serializedVersion: 2
  m_Quality: 0
  m_UpdateWhenOffscreen: 0
  m_SkinnedMotionVectors: 1
  m_Mesh: {fileID: 4300000, guid: b4dc3c74541def84191303ea727d9a51, type: 3}
  m_Bones:
  - {fileID: 4000012698269562}
  - {fileID: 4000013587577602}
  - {fileID: 4000010532699102}
  - {fileID: 4000010528063648}
  - {fileID: 4000010351357064}
  - {fileID: 4000013464842668}
  - {fileID: 4000010404392438}
  - {fileID: 4000011139159490}
  - {fileID: 4000010065338652}
  - {fileID: 4000014004321196}
  - {fileID: 4000011263152590}
  - {fileID: 4000014197762106}
  - {fileID: 4000011996414866}
  - {fileID: 4000012664739476}
  - {fileID: 4000013453507660}
  - {fileID: 4000012636225736}
  - {fileID: 4000012280539050}
  - {fileID: 4000010157893666}
  - {fileID: 4000010321170936}
  - {fileID: 4000011336287136}
  - {fileID: 4000013412328528}
  - {fileID: 4000012581548332}
  - {fileID: 4000012537305752}
  - {fileID: 4000013746936482}
  - {fileID: 4000010223316638}
  - {fileID: 4000010388417454}
  - {fileID: 4000010234467734}
  - {fileID: 4000013877943956}
  - {fileID: 4000010855399206}
  - {fileID: 4000010090821260}
  - {fileID: 4000011800426624}
  - {fileID: 4000013663454266}
  - {fileID: 4000011460367178}
  - {fileID: 4000013199722886}
  m_BlendShapeWeights:
  - 0
  - 0
  - 58.8
  - 43
  - 0
  - 0
  - 0
  - 0
  - 0
  - 100
  - 0
  m_RootBone: {fileID: 4000010065338652}
  m_AABB:
    m_Center: {x: 0.13028118, y: 0.14924312, z: -0.0066986457}
    m_Extent: {x: 0.39451364, y: 0.8567476, z: 0.18668666}
  m_DirtyAABB: 0
