%YAML 1.1
%TAG !u! tag:unity3d.com,2011:
--- !u!29 &1
OcclusionCullingSettings:
  m_ObjectHideFlags: 0
  serializedVersion: 2
  m_OcclusionBakeSettings:
    smallestOccluder: 5
    smallestHole: 0.25
    backfaceThreshold: 100
  m_SceneGUID: 00000000000000000000000000000000
  m_OcclusionCullingData: {fileID: 0}
--- !u!104 &2
RenderSettings:
  m_ObjectHideFlags: 0
  serializedVersion: 8
  m_Fog: 0
  m_FogColor: {r: 0.5, g: 0.5, b: 0.5, a: 1}
  m_FogMode: 3
  m_FogDensity: 0.01
  m_LinearFogStart: 0
  m_LinearFogEnd: 300
  m_AmbientSkyColor: {r: 0.212, g: 0.227, b: 0.259, a: 1}
  m_AmbientEquatorColor: {r: 0.114, g: 0.125, b: 0.133, a: 1}
  m_AmbientGroundColor: {r: 0.047, g: 0.043, b: 0.035, a: 1}
  m_AmbientIntensity: 1
  m_AmbientMode: 0
  m_SubtractiveShadowColor: {r: 0.42, g: 0.478, b: 0.627, a: 1}
  m_SkyboxMaterial: {fileID: 2100000, guid: 32cbc1b39d41ab941b5f643d8600457a, type: 2}
  m_HaloStrength: 0.5
  m_FlareStrength: 1
  m_FlareFadeSpeed: 3
  m_HaloTexture: {fileID: 0}
  m_SpotCookie: {fileID: 10001, guid: 0000000000000000e000000000000000, type: 0}
  m_DefaultReflectionMode: 0
  m_DefaultReflectionResolution: 128
  m_ReflectionBounces: 1
  m_ReflectionIntensity: 1
  m_CustomReflection: {fileID: 0}
  m_Sun: {fileID: 0}
  m_IndirectSpecularColor: {r: 0.73213524, g: 0.799442, b: 0.83688515, a: 1}
--- !u!157 &3
LightmapSettings:
  m_ObjectHideFlags: 0
  serializedVersion: 11
  m_GIWorkflowMode: 0
  m_GISettings:
    serializedVersion: 2
    m_BounceScale: 1
    m_IndirectOutputScale: 1
    m_AlbedoBoost: 1
    m_TemporalCoherenceThreshold: 1
    m_EnvironmentLightingMode: 0
    m_EnableBakedLightmaps: 1
    m_EnableRealtimeLightmaps: 1
  m_LightmapEditorSettings:
    serializedVersion: 9
    m_Resolution: 2
    m_BakeResolution: 7
    m_TextureWidth: 1024
    m_TextureHeight: 1024
    m_AO: 0
    m_AOMaxDistance: 1
    m_CompAOExponent: 1
    m_CompAOExponentDirect: 0
    m_Padding: 2
    m_LightmapParameters: {fileID: 0}
    m_LightmapsBakeMode: 1
    m_TextureCompression: 1
    m_FinalGather: 0
    m_FinalGatherFiltering: 1
    m_FinalGatherRayCount: 256
    m_ReflectionCompression: 2
    m_MixedBakeMode: 1
    m_BakeBackend: 0
    m_PVRSampling: 1
    m_PVRDirectSampleCount: 32
    m_PVRSampleCount: 500
    m_PVRBounces: 2
    m_PVRFilterTypeDirect: 0
    m_PVRFilterTypeIndirect: 0
    m_PVRFilterTypeAO: 0
    m_PVRFilteringMode: 1
    m_PVRCulling: 1
    m_PVRFilteringGaussRadiusDirect: 1
    m_PVRFilteringGaussRadiusIndirect: 5
    m_PVRFilteringGaussRadiusAO: 2
    m_PVRFilteringAtrousPositionSigmaDirect: 0.5
    m_PVRFilteringAtrousPositionSigmaIndirect: 2
    m_PVRFilteringAtrousPositionSigmaAO: 1
  m_LightingDataAsset: {fileID: 112000004, guid: ddff19b1cd7b04349abe6e80558d7e1e,
    type: 2}
  m_UseShadowmask: 1
--- !u!196 &4
NavMeshSettings:
  serializedVersion: 2
  m_ObjectHideFlags: 0
  m_BuildSettings:
    serializedVersion: 2
    agentTypeID: 0
    agentRadius: 0.54
    agentHeight: 1.2
    agentSlope: 35
    agentClimb: 0.24
    ledgeDropHeight: 3
    maxJumpAcrossDistance: 1
    minRegionArea: 1
    manualCellSize: 0
    cellSize: 0.18
    manualTileSize: 0
    tileSize: 256
    accuratePlacement: 0
  m_NavMeshData: {fileID: 23800000, guid: 2cbbfa16bc855114a9af49d24d64d800, type: 2}
--- !u!1 &8651003 stripped
GameObject:
  m_PrefabParentObject: {fileID: 1210715892785604, guid: fd75e4adbe599bc44a03eaa26aba9b16,
    type: 2}
  m_PrefabInternal: {fileID: 2102181084}
--- !u!1 &19967734
GameObject:
  m_ObjectHideFlags: 0
  m_PrefabParentObject: {fileID: 1382111176574250, guid: 2a65965de9bf08841b8a8978d2939b08,
    type: 2}
  m_PrefabInternal: {fileID: 0}
  serializedVersion: 5
  m_Component:
  - component: {fileID: 19967735}
  - component: {fileID: 19967738}
  - component: {fileID: 19967737}
  - component: {fileID: 19967736}
  m_Layer: 0
  m_Name: Cube (6)
  m_TagString: Untagged
  m_Icon: {fileID: 0}
  m_NavMeshLayer: 0
  m_StaticEditorFlags: 40
  m_IsActive: 1
--- !u!4 &19967735
Transform:
  m_ObjectHideFlags: 0
  m_PrefabParentObject: {fileID: 4807527851518988, guid: 2a65965de9bf08841b8a8978d2939b08,
    type: 2}
  m_PrefabInternal: {fileID: 0}
  m_GameObject: {fileID: 19967734}
  m_LocalRotation: {x: -0, y: -0, z: -0, w: 1}
  m_LocalPosition: {x: 3.9, y: 6.64, z: 30.5}
  m_LocalScale: {x: 12.583785, y: 6.816843, z: 13.238579}
  m_Children: []
  m_Father: {fileID: 1926615373}
  m_RootOrder: 8
  m_LocalEulerAnglesHint: {x: 0, y: 0, z: 0}
--- !u!23 &19967736
MeshRenderer:
  m_ObjectHideFlags: 0
  m_PrefabParentObject: {fileID: 23554575077005748, guid: 2a65965de9bf08841b8a8978d2939b08,
    type: 2}
  m_PrefabInternal: {fileID: 0}
  m_GameObject: {fileID: 19967734}
  m_Enabled: 1
  m_CastShadows: 1
  m_ReceiveShadows: 1
  m_MotionVectors: 1
  m_LightProbeUsage: 1
  m_ReflectionProbeUsage: 1
  m_Materials:
  - {fileID: 2100000, guid: a6630e18591dac942ab3dc5b3e93d936, type: 2}
  m_StaticBatchInfo:
    firstSubMesh: 0
    subMeshCount: 0
  m_StaticBatchRoot: {fileID: 0}
  m_ProbeAnchor: {fileID: 0}
  m_LightProbeVolumeOverride: {fileID: 0}
  m_ScaleInLightmap: 0.2
  m_PreserveUVs: 1
  m_IgnoreNormalsForChartDetection: 0
  m_ImportantGI: 0
  m_SelectedEditorRenderState: 3
  m_MinimumChartSize: 4
  m_AutoUVMaxDistance: 0.5
  m_AutoUVMaxAngle: 89
  m_LightmapParameters: {fileID: 0}
  m_SortingLayerID: 0
  m_SortingLayer: 0
  m_SortingOrder: 0
--- !u!65 &19967737
BoxCollider:
  m_ObjectHideFlags: 0
  m_PrefabParentObject: {fileID: 65780063499764002, guid: 2a65965de9bf08841b8a8978d2939b08,
    type: 2}
  m_PrefabInternal: {fileID: 0}
  m_GameObject: {fileID: 19967734}
  m_Material: {fileID: 0}
  m_IsTrigger: 0
  m_Enabled: 1
  serializedVersion: 2
  m_Size: {x: 1, y: 1, z: 1}
  m_Center: {x: 0, y: 0, z: 0}
--- !u!33 &19967738
MeshFilter:
  m_ObjectHideFlags: 0
  m_PrefabParentObject: {fileID: 33453308409512036, guid: 2a65965de9bf08841b8a8978d2939b08,
    type: 2}
  m_PrefabInternal: {fileID: 0}
  m_GameObject: {fileID: 19967734}
  m_Mesh: {fileID: 10202, guid: 0000000000000000e000000000000000, type: 0}
--- !u!1 &32128557 stripped
GameObject:
  m_PrefabParentObject: {fileID: 1771091129679286, guid: fd75e4adbe599bc44a03eaa26aba9b16,
    type: 2}
  m_PrefabInternal: {fileID: 2102181084}
--- !u!1 &89713846
GameObject:
  m_ObjectHideFlags: 0
  m_PrefabParentObject: {fileID: 1812422985363174, guid: 2a65965de9bf08841b8a8978d2939b08,
    type: 2}
  m_PrefabInternal: {fileID: 0}
  serializedVersion: 5
  m_Component:
  - component: {fileID: 89713847}
  - component: {fileID: 89713848}
  m_Layer: 0
  m_Name: OffMeshLink End
  m_TagString: Untagged
  m_Icon: {fileID: 0}
  m_NavMeshLayer: 0
  m_StaticEditorFlags: 0
  m_IsActive: 1
--- !u!4 &89713847
Transform:
  m_ObjectHideFlags: 0
  m_PrefabParentObject: {fileID: 4968572599781536, guid: 2a65965de9bf08841b8a8978d2939b08,
    type: 2}
  m_PrefabInternal: {fileID: 0}
  m_GameObject: {fileID: 89713846}
  m_LocalRotation: {x: 0, y: 1, z: 0, w: 0}
  m_LocalPosition: {x: 0, y: 0, z: 4.38}
  m_LocalScale: {x: 1, y: 1, z: 1}
  m_Children: []
  m_Father: {fileID: 843922730}
  m_RootOrder: 0
  m_LocalEulerAnglesHint: {x: 0, y: 180, z: 0}
--- !u!114 &89713848
MonoBehaviour:
  m_ObjectHideFlags: 0
  m_PrefabParentObject: {fileID: 114984139492118906, guid: 2a65965de9bf08841b8a8978d2939b08,
    type: 2}
  m_PrefabInternal: {fileID: 0}
  m_GameObject: {fileID: 89713846}
  m_Enabled: 1
  m_EditorHideFlags: 0
  m_Script: {fileID: 11500000, guid: 9b4de088e089c164bb239be84964ea4c, type: 3}
  m_Name: 
  m_EditorClassIdentifier: 
  UseColliders: 0
  gizmoType: 1
  alpha: 0.374
  debugSize: 0.18
  DebugColor: {r: 0.74264705, g: 0.5543491, b: 0.060067054, a: 1}
  DrawAxis: 1
  AxisSize: 0.64
--- !u!1 &125518762
GameObject:
  m_ObjectHideFlags: 0
  m_PrefabParentObject: {fileID: 1108356789933394, guid: 2a65965de9bf08841b8a8978d2939b08,
    type: 2}
  m_PrefabInternal: {fileID: 0}
  serializedVersion: 5
  m_Component:
  - component: {fileID: 125518763}
  - component: {fileID: 125518765}
  - component: {fileID: 125518764}
  m_Layer: 2
  m_Name: Text
  m_TagString: Untagged
  m_Icon: {fileID: 0}
  m_NavMeshLayer: 0
  m_StaticEditorFlags: 0
  m_IsActive: 1
--- !u!224 &125518763
RectTransform:
  m_ObjectHideFlags: 0
  m_PrefabParentObject: {fileID: 224745914572209282, guid: 2a65965de9bf08841b8a8978d2939b08,
    type: 2}
  m_PrefabInternal: {fileID: 0}
  m_GameObject: {fileID: 125518762}
  m_LocalRotation: {x: -0.000000115202326, y: 0.7071067, z: -0.7071068, w: -0.00000011520231}
  m_LocalPosition: {x: 0, y: 0, z: -1.3}
  m_LocalScale: {x: 0.04456928, y: 0.04456928, z: 0.04456928}
  m_Children: []
  m_Father: {fileID: 1198419574}
  m_RootOrder: 0
  m_LocalEulerAnglesHint: {x: 0, y: 0, z: 0}
  m_AnchorMin: {x: 0.5, y: 0.5}
  m_AnchorMax: {x: 0.5, y: 0.5}
  m_AnchoredPosition: {x: -0, y: 0.9}
  m_SizeDelta: {x: 312.2, y: 120.5}
  m_Pivot: {x: 0.5, y: 0.5}
--- !u!114 &125518764
MonoBehaviour:
  m_ObjectHideFlags: 0
  m_PrefabParentObject: {fileID: 114628139580945168, guid: 2a65965de9bf08841b8a8978d2939b08,
    type: 2}
  m_PrefabInternal: {fileID: 0}
  m_GameObject: {fileID: 125518762}
  m_Enabled: 1
  m_EditorHideFlags: 0
  m_Script: {fileID: 708705254, guid: f5f67c52d1564df4a8936ccd202a3bd8, type: 3}
  m_Name: 
  m_EditorClassIdentifier: 
  m_Material: {fileID: 0}
  m_Color: {r: 1, g: 1, b: 1, a: 1}
  m_RaycastTarget: 1
  m_OnCullStateChanged:
    m_PersistentCalls:
      m_Calls: []
    m_TypeName: UnityEngine.UI.MaskableGraphic+CullStateChangedEvent, UnityEngine.UI,
      Version=1.0.0.0, Culture=neutral, PublicKeyToken=null
  m_FontData:
    m_Font: {fileID: 10102, guid: 0000000000000000e000000000000000, type: 0}
    m_FontSize: 65
    m_FontStyle: 0
    m_BestFit: 0
    m_MinSize: 6
    m_MaxSize: 82
    m_Alignment: 4
    m_AlignByGeometry: 0
    m_RichText: 1
    m_HorizontalOverflow: 0
    m_VerticalOverflow: 0
    m_LineSpacing: 1
  m_Text: EAT
--- !u!222 &125518765
CanvasRenderer:
  m_ObjectHideFlags: 0
  m_PrefabParentObject: {fileID: 222152041956522142, guid: 2a65965de9bf08841b8a8978d2939b08,
    type: 2}
  m_PrefabInternal: {fileID: 0}
  m_GameObject: {fileID: 125518762}
--- !u!1 &205045758
GameObject:
  m_ObjectHideFlags: 0
  m_PrefabParentObject: {fileID: 1805847230092048, guid: 2a65965de9bf08841b8a8978d2939b08,
    type: 2}
  m_PrefabInternal: {fileID: 0}
  serializedVersion: 5
  m_Component:
  - component: {fileID: 205045759}
  - component: {fileID: 205045762}
  - component: {fileID: 205045761}
  - component: {fileID: 205045760}
  m_Layer: 0
  m_Name: Cube (1)
  m_TagString: Untagged
  m_Icon: {fileID: 0}
  m_NavMeshLayer: 0
  m_StaticEditorFlags: 40
  m_IsActive: 1
--- !u!4 &205045759
Transform:
  m_ObjectHideFlags: 0
  m_PrefabParentObject: {fileID: 4626507424268954, guid: 2a65965de9bf08841b8a8978d2939b08,
    type: 2}
  m_PrefabInternal: {fileID: 0}
  m_GameObject: {fileID: 205045758}
  m_LocalRotation: {x: 0, y: -0.42261827, z: 0, w: 0.9063079}
  m_LocalPosition: {x: -39.23, y: 1.23, z: 25.86}
  m_LocalScale: {x: 3.0152397, y: 3.6291664, z: 10.279734}
  m_Children: []
  m_Father: {fileID: 1926615373}
  m_RootOrder: 13
  m_LocalEulerAnglesHint: {x: 0, y: -50, z: 0}
--- !u!23 &205045760
MeshRenderer:
  m_ObjectHideFlags: 0
  m_PrefabParentObject: {fileID: 23979732861933954, guid: 2a65965de9bf08841b8a8978d2939b08,
    type: 2}
  m_PrefabInternal: {fileID: 0}
  m_GameObject: {fileID: 205045758}
  m_Enabled: 1
  m_CastShadows: 1
  m_ReceiveShadows: 1
  m_MotionVectors: 1
  m_LightProbeUsage: 1
  m_ReflectionProbeUsage: 1
  m_Materials:
  - {fileID: 2100000, guid: a6630e18591dac942ab3dc5b3e93d936, type: 2}
  m_StaticBatchInfo:
    firstSubMesh: 0
    subMeshCount: 0
  m_StaticBatchRoot: {fileID: 0}
  m_ProbeAnchor: {fileID: 0}
  m_LightProbeVolumeOverride: {fileID: 0}
  m_ScaleInLightmap: 1
  m_PreserveUVs: 1
  m_IgnoreNormalsForChartDetection: 0
  m_ImportantGI: 0
  m_SelectedEditorRenderState: 3
  m_MinimumChartSize: 4
  m_AutoUVMaxDistance: 0.5
  m_AutoUVMaxAngle: 89
  m_LightmapParameters: {fileID: 0}
  m_SortingLayerID: 0
  m_SortingLayer: 0
  m_SortingOrder: 0
--- !u!65 &205045761
BoxCollider:
  m_ObjectHideFlags: 0
  m_PrefabParentObject: {fileID: 65857442942806974, guid: 2a65965de9bf08841b8a8978d2939b08,
    type: 2}
  m_PrefabInternal: {fileID: 0}
  m_GameObject: {fileID: 205045758}
  m_Material: {fileID: 0}
  m_IsTrigger: 0
  m_Enabled: 1
  serializedVersion: 2
  m_Size: {x: 1, y: 1, z: 1}
  m_Center: {x: 0, y: 0, z: 0}
--- !u!33 &205045762
MeshFilter:
  m_ObjectHideFlags: 0
  m_PrefabParentObject: {fileID: 33137094015464724, guid: 2a65965de9bf08841b8a8978d2939b08,
    type: 2}
  m_PrefabInternal: {fileID: 0}
  m_GameObject: {fileID: 205045758}
  m_Mesh: {fileID: 10202, guid: 0000000000000000e000000000000000, type: 0}
--- !u!1 &211361266 stripped
GameObject:
  m_PrefabParentObject: {fileID: 1000013912733128, guid: 5d02e38bbb9c0e047a8e5076bf964489,
    type: 2}
  m_PrefabInternal: {fileID: 1188710749}
--- !u!1 &294414412
GameObject:
  m_ObjectHideFlags: 0
  m_PrefabParentObject: {fileID: 1400165368222838, guid: 2a65965de9bf08841b8a8978d2939b08,
    type: 2}
  m_PrefabInternal: {fileID: 0}
  serializedVersion: 5
  m_Component:
  - component: {fileID: 294414413}
  - component: {fileID: 294414414}
  m_Layer: 0
  m_Name: OffMeshLink Jump One Direction
  m_TagString: Untagged
  m_Icon: {fileID: 0}
  m_NavMeshLayer: 0
  m_StaticEditorFlags: 0
  m_IsActive: 1
--- !u!4 &294414413
Transform:
  m_ObjectHideFlags: 0
  m_PrefabParentObject: {fileID: 4400081746061706, guid: 2a65965de9bf08841b8a8978d2939b08,
    type: 2}
  m_PrefabInternal: {fileID: 0}
  m_GameObject: {fileID: 294414412}
  m_LocalRotation: {x: -0, y: -0.5169744, z: -0, w: 0.8560009}
  m_LocalPosition: {x: -35.92, y: 0.04, z: 30.98}
  m_LocalScale: {x: 1, y: 1, z: 1}
  m_Children:
  - {fileID: 804067319}
  - {fileID: 392054488}
  m_Father: {fileID: 1926615373}
  m_RootOrder: 19
  m_LocalEulerAnglesHint: {x: 0, y: -62.259003, z: 0}
--- !u!191 &294414414
OffMeshLink:
  m_ObjectHideFlags: 0
  m_PrefabParentObject: {fileID: 191808762578601146, guid: 2a65965de9bf08841b8a8978d2939b08,
    type: 2}
  m_PrefabInternal: {fileID: 0}
  m_GameObject: {fileID: 294414412}
  m_Enabled: 1
  serializedVersion: 3
  m_AreaIndex: 2
  m_AgentTypeID: 0
  m_Start: {fileID: 804067319}
  m_End: {fileID: 392054488}
  m_CostOverride: -1
  m_BiDirectional: 0
  m_Activated: 1
  m_AutoUpdatePositions: 0
--- !u!1 &392054487
GameObject:
  m_ObjectHideFlags: 0
  m_PrefabParentObject: {fileID: 1163650014711210, guid: 2a65965de9bf08841b8a8978d2939b08,
    type: 2}
  m_PrefabInternal: {fileID: 0}
  serializedVersion: 5
  m_Component:
  - component: {fileID: 392054488}
  - component: {fileID: 392054489}
  m_Layer: 0
  m_Name: OffMeshLink End
  m_TagString: Untagged
  m_Icon: {fileID: 0}
  m_NavMeshLayer: 0
  m_StaticEditorFlags: 0
  m_IsActive: 1
--- !u!4 &392054488
Transform:
  m_ObjectHideFlags: 0
  m_PrefabParentObject: {fileID: 4118173899936146, guid: 2a65965de9bf08841b8a8978d2939b08,
    type: 2}
  m_PrefabInternal: {fileID: 0}
  m_GameObject: {fileID: 392054487}
  m_LocalRotation: {x: -0, y: 1, z: -0, w: 0}
  m_LocalPosition: {x: -0.020001769, y: 1.68, z: 2.78}
  m_LocalScale: {x: 1, y: 1, z: 1}
  m_Children: []
  m_Father: {fileID: 294414413}
  m_RootOrder: 1
  m_LocalEulerAnglesHint: {x: 0, y: 180, z: 0}
--- !u!114 &392054489
MonoBehaviour:
  m_ObjectHideFlags: 0
  m_PrefabParentObject: {fileID: 114475484769242842, guid: 2a65965de9bf08841b8a8978d2939b08,
    type: 2}
  m_PrefabInternal: {fileID: 0}
  m_GameObject: {fileID: 392054487}
  m_Enabled: 1
  m_EditorHideFlags: 0
  m_Script: {fileID: 11500000, guid: 9b4de088e089c164bb239be84964ea4c, type: 3}
  m_Name: 
  m_EditorClassIdentifier: 
  UseColliders: 0
  gizmoType: 1
  alpha: 0.374
  debugSize: 0.18
  DebugColor: {r: 0.74264705, g: 0.5543491, b: 0.060067054, a: 1}
  DrawAxis: 0
  AxisSize: 0.65
--- !u!1 &480134721
GameObject:
  m_ObjectHideFlags: 19
  m_PrefabParentObject: {fileID: 0}
  m_PrefabInternal: {fileID: 0}
  serializedVersion: 5
  m_Component:
  - component: {fileID: 480134723}
  - component: {fileID: 480134722}
  m_Layer: 0
  m_Name: DescriptionHelperObject
  m_TagString: Untagged
  m_Icon: {fileID: 0}
  m_NavMeshLayer: 0
  m_StaticEditorFlags: 0
  m_IsActive: 1
--- !u!114 &480134722
MonoBehaviour:
  m_ObjectHideFlags: 19
  m_PrefabParentObject: {fileID: 0}
  m_PrefabInternal: {fileID: 0}
  m_GameObject: {fileID: 480134721}
  m_Enabled: 1
  m_EditorHideFlags: 0
  m_Script: {fileID: 11500000, guid: b2456740db25f46459a541a36ec8878a, type: 3}
  m_Name: 
  m_EditorClassIdentifier: 
  Hash1: []
  Hash1_Fix2_0: []
  Hash2: []
  Hash3:
  - FavParams: 0
    FavString: []
    list:
    - {fileID: 2120081649}
    ActiveGameObject: {fileID: 2120081649}
    GUIDsList: []
    GUIDsActiveGameObject: 
    PATHsList: []
    PATHsActiveGameObject: 
    InstanceID: 0
    wasInit: 0
    CashedBool: 0
  - FavParams: 0
    FavString: []
    list:
    - {fileID: 211361266}
    ActiveGameObject: {fileID: 211361266}
    GUIDsList: []
    GUIDsActiveGameObject: 
    PATHsList: []
    PATHsActiveGameObject: 
    InstanceID: 0
    wasInit: 0
    CashedBool: 0
  - FavParams: 0
    FavString: []
    list:
    - {fileID: 532801362}
    ActiveGameObject: {fileID: 532801362}
    GUIDsList: []
    GUIDsActiveGameObject: 
    PATHsList: []
    PATHsActiveGameObject: 
    InstanceID: 0
    wasInit: 0
    CashedBool: 0
  - FavParams: 0
    FavString: []
    list:
    - {fileID: 32128557}
    - {fileID: 908963930}
    ActiveGameObject: {fileID: 908963930}
    GUIDsList: []
    GUIDsActiveGameObject: 
    PATHsList: []
    PATHsActiveGameObject: 
    InstanceID: 0
    wasInit: 0
    CashedBool: 0
  - FavParams: 0
    FavString: []
    list:
    - {fileID: 1409457870}
    - {fileID: 751910522}
    ActiveGameObject: {fileID: 751910522}
    GUIDsList: []
    GUIDsActiveGameObject: 
    PATHsList: []
    PATHsActiveGameObject: 
    InstanceID: 0
    wasInit: 0
    CashedBool: 0
  - FavParams: 0
    FavString: []
    list:
    - {fileID: 1276239717}
    ActiveGameObject: {fileID: 1276239717}
    GUIDsList: []
    GUIDsActiveGameObject: 
    PATHsList: []
    PATHsActiveGameObject: 
    InstanceID: 0
    wasInit: 0
    CashedBool: 0
  - FavParams: 0
    FavString: []
    list:
    - {fileID: 8651003}
    ActiveGameObject: {fileID: 8651003}
    GUIDsList: []
    GUIDsActiveGameObject: 
    PATHsList: []
    PATHsActiveGameObject: 
    InstanceID: 0
    wasInit: 0
    CashedBool: 0
  - FavParams: 0
    FavString: []
    list:
    - {fileID: 731129952}
    ActiveGameObject: {fileID: 731129952}
    GUIDsList: []
    GUIDsActiveGameObject: 
    PATHsList: []
    PATHsActiveGameObject: 
    InstanceID: 0
    wasInit: 0
    CashedBool: 0
  - FavParams: 0
    FavString: []
    list:
    - {fileID: 0}
    - {fileID: 0}
    ActiveGameObject: {fileID: 0}
    GUIDsList: []
    GUIDsActiveGameObject: 
    PATHsList: []
    PATHsActiveGameObject: 
    InstanceID: 0
    wasInit: 0
    CashedBool: 0
  Hash4: []
  Hash5: []
  Hash5_Fix2_0: []
  Hash6: []
  Hash7: []
  Hash7_Fix2_0: []
  Hash8: []
  Hash9: []
  Hash10: []
  _enableRegistrator: 0
  _saveInFolder: SCENE
  Hash_HierarchyCache: []
  Hash_BookMarks:
  - ColorValue_R: 0.18431373
    ColorValue_G: 0.29411766
    ColorValue_B: 0.44705883
    ColorValue_A: 0.18431373
    SKIP_COLOR: 0
    NO_EXPAND_ITEMS: 0
    name: Default
    array: []
    FavParams: 0
    InstanceID: -2034564969
    Hierarchy_ScrollY: 0
    Window_ScrollY: 0
    ColabsedItems: 
    Windows_ColabsedItems: 
  _mFavoritCategorySelected: 0
  m_GetHash_IconImageKey: []
  m_GetHash_IconImageValue: []
--- !u!4 &480134723
Transform:
  m_ObjectHideFlags: 19
  m_PrefabParentObject: {fileID: 0}
  m_PrefabInternal: {fileID: 0}
  m_GameObject: {fileID: 480134721}
  m_LocalRotation: {x: 0, y: 0, z: 0, w: 1}
  m_LocalPosition: {x: 0, y: 0, z: 0}
  m_LocalScale: {x: 1, y: 1, z: 1}
  m_Children: []
  m_Father: {fileID: 0}
  m_RootOrder: 5
  m_LocalEulerAnglesHint: {x: 0, y: 0, z: 0}
--- !u!1 &532801362 stripped
GameObject:
  m_PrefabParentObject: {fileID: 1732208038888300, guid: fd75e4adbe599bc44a03eaa26aba9b16,
    type: 2}
  m_PrefabInternal: {fileID: 2102181084}
--- !u!1 &536098146
GameObject:
  m_ObjectHideFlags: 0
  m_PrefabParentObject: {fileID: 1855189209323708, guid: 2a65965de9bf08841b8a8978d2939b08,
    type: 2}
  m_PrefabInternal: {fileID: 0}
  serializedVersion: 5
  m_Component:
  - component: {fileID: 536098147}
  - component: {fileID: 536098148}
  m_Layer: 0
  m_Name: OffMeshLink Start
  m_TagString: Untagged
  m_Icon: {fileID: 0}
  m_NavMeshLayer: 0
  m_StaticEditorFlags: 0
  m_IsActive: 1
--- !u!4 &536098147
Transform:
  m_ObjectHideFlags: 0
  m_PrefabParentObject: {fileID: 4814628340587228, guid: 2a65965de9bf08841b8a8978d2939b08,
    type: 2}
  m_PrefabInternal: {fileID: 0}
  m_GameObject: {fileID: 536098146}
  m_LocalRotation: {x: 0, y: 0, z: 0, w: 1}
  m_LocalPosition: {x: -0, y: 0, z: 0}
  m_LocalScale: {x: 1, y: 1, z: 1}
  m_Children: []
  m_Father: {fileID: 727579952}
  m_RootOrder: 0
  m_LocalEulerAnglesHint: {x: 0, y: 0, z: 0}
--- !u!114 &536098148
MonoBehaviour:
  m_ObjectHideFlags: 0
  m_PrefabParentObject: {fileID: 114511828589727788, guid: 2a65965de9bf08841b8a8978d2939b08,
    type: 2}
  m_PrefabInternal: {fileID: 0}
  m_GameObject: {fileID: 536098146}
  m_Enabled: 1
  m_EditorHideFlags: 0
  m_Script: {fileID: 11500000, guid: 9b4de088e089c164bb239be84964ea4c, type: 3}
  m_Name: 
  m_EditorClassIdentifier: 
  UseColliders: 0
  gizmoType: 1
  alpha: 0.374
  debugSize: 0.18
  DebugColor: {r: 0.74264705, g: 0.5543491, b: 0.060067054, a: 1}
  DrawAxis: 1
  AxisSize: 0.65
--- !u!1 &540250514
GameObject:
  m_ObjectHideFlags: 0
  m_PrefabParentObject: {fileID: 1301602169361504, guid: 2a65965de9bf08841b8a8978d2939b08,
    type: 2}
  m_PrefabInternal: {fileID: 0}
  serializedVersion: 5
  m_Component:
  - component: {fileID: 540250515}
  - component: {fileID: 540250518}
  - component: {fileID: 540250517}
  - component: {fileID: 540250516}
  m_Layer: 2
  m_Name: Zone Eat
  m_TagString: Untagged
  m_Icon: {fileID: 0}
  m_NavMeshLayer: 0
  m_StaticEditorFlags: 0
  m_IsActive: 1
--- !u!4 &540250515
Transform:
  m_ObjectHideFlags: 0
  m_PrefabParentObject: {fileID: 4492697061812278, guid: 2a65965de9bf08841b8a8978d2939b08,
    type: 2}
  m_PrefabInternal: {fileID: 0}
  m_GameObject: {fileID: 540250514}
  m_LocalRotation: {x: -0, y: 0.59190476, z: -0, w: 0.806008}
  m_LocalPosition: {x: -16.887714, y: 0, z: 8.597695}
  m_LocalScale: {x: 1, y: 1, z: 1}
  m_Children:
  - {fileID: 1198419574}
  - {fileID: 1620108632}
  m_Father: {fileID: 1926615373}
  m_RootOrder: 21
  m_LocalEulerAnglesHint: {x: 0, y: 0, z: 0}
--- !u!114 &540250516
MonoBehaviour:
  m_ObjectHideFlags: 0
  m_PrefabParentObject: {fileID: 114426600669774426, guid: 2a65965de9bf08841b8a8978d2939b08,
    type: 2}
  m_PrefabInternal: {fileID: 0}
  m_GameObject: {fileID: 540250514}
  m_Enabled: 1
  m_EditorHideFlags: 0
  m_Script: {fileID: 11500000, guid: 9b4de088e089c164bb239be84964ea4c, type: 3}
  m_Name: 
  m_EditorClassIdentifier: 
  UseColliders: 1
  gizmoType: 0
  alpha: 0.067
  debugSize: 0.03
  DebugColor: {r: 1, g: 0, b: 0, a: 1}
  DrawAxis: 1
  AxisSize: 0.65
--- !u!114 &540250517
MonoBehaviour:
  m_ObjectHideFlags: 0
  m_PrefabParentObject: {fileID: 114399886330621258, guid: 2a65965de9bf08841b8a8978d2939b08,
    type: 2}
  m_PrefabInternal: {fileID: 0}
  m_GameObject: {fileID: 540250514}
  m_Enabled: 1
  m_EditorHideFlags: 0
  m_Script: {fileID: 11500000, guid: ae9c9f08a3e62d6479c76be499151cb7, type: 3}
  m_Name: 
  m_EditorClassIdentifier: 
  ID: {fileID: 0}
  automatic: 0
  index: 0
  AutomaticDisabled: 1
  HeadOnly: 1
  ActiveOnJump: 0
  MoveToExitAction: 0
  Align: 1
  AlignWithWidth: 0
  AlingPoint: {fileID: 540250515}
  AlingPoint2: {fileID: 0}
  AlignTime: 0.5
  AlignCurve:
    serializedVersion: 2
    m_Curve:
    - serializedVersion: 2
      time: 0
      value: 0
      inSlope: 0
      outSlope: 0
      tangentMode: 0
    - serializedVersion: 2
      time: 1
      value: 1
      inSlope: 0
      outSlope: 0
      tangentMode: 0
    m_PreInfinity: 2
    m_PostInfinity: 2
    m_RotationOrder: 0
  AlignPos: 0
  AlignRot: 0
  AlignLookAt: 1
  ActionDelay: 0
  OnEnter:
    m_PersistentCalls:
      m_Calls: []
    m_TypeName: MalbersAnimations.AnimalEvent, Assembly-CSharp, Version=0.0.0.0, Culture=neutral,
      PublicKeyToken=null
  OnExit:
    m_PersistentCalls:
      m_Calls: []
    m_TypeName: MalbersAnimations.AnimalEvent, Assembly-CSharp, Version=0.0.0.0, Culture=neutral,
      PublicKeyToken=null
  OnAction:
    m_PersistentCalls:
      m_Calls:
      - m_Target: {fileID: 540250517}
        m_MethodName: _DestroyActionZone
        m_Mode: 4
        m_Arguments:
          m_ObjectArgument: {fileID: 0}
          m_ObjectArgumentAssemblyTypeName: UnityEngine.Object, UnityEngine
          m_IntArgument: 0
          m_FloatArgument: 2
          m_StringArgument: 
          m_BoolArgument: 0
        m_CallState: 0
    m_TypeName: MalbersAnimations.AnimalEvent, Assembly-CSharp, Version=0.0.0.0, Culture=neutral,
      PublicKeyToken=null
  waitTime:
    minValue: 0
    maxValue: 5
  pointType: 0
  nextTargets: []
  stoppingDistance: 0.73
  EditorShowEvents: 1
  EditorAI: 1
--- !u!65 &540250518
BoxCollider:
  m_ObjectHideFlags: 0
  m_PrefabParentObject: {fileID: 65011576337646720, guid: 2a65965de9bf08841b8a8978d2939b08,
    type: 2}
  m_PrefabInternal: {fileID: 0}
  m_GameObject: {fileID: 540250514}
  m_Material: {fileID: 0}
  m_IsTrigger: 1
  m_Enabled: 1
  serializedVersion: 2
  m_Size: {x: 1.07, y: 2.1339133, z: 1.26}
  m_Center: {x: 0, y: 1.1506139, z: 0}
--- !u!1 &635893850
GameObject:
  m_ObjectHideFlags: 0
  m_PrefabParentObject: {fileID: 1201874599438690, guid: 2a65965de9bf08841b8a8978d2939b08,
    type: 2}
  m_PrefabInternal: {fileID: 0}
  serializedVersion: 5
  m_Component:
  - component: {fileID: 635893851}
  - component: {fileID: 635893854}
  - component: {fileID: 635893853}
  - component: {fileID: 635893852}
  m_Layer: 0
  m_Name: Cube (5)
  m_TagString: Untagged
  m_Icon: {fileID: 0}
  m_NavMeshLayer: 0
  m_StaticEditorFlags: 40
  m_IsActive: 1
--- !u!4 &635893851
Transform:
  m_ObjectHideFlags: 0
  m_PrefabParentObject: {fileID: 4722474452537630, guid: 2a65965de9bf08841b8a8978d2939b08,
    type: 2}
  m_PrefabInternal: {fileID: 0}
  m_GameObject: {fileID: 635893850}
  m_LocalRotation: {x: -0, y: -0, z: 0.21377222, w: 0.97688353}
  m_LocalPosition: {x: -11.78, y: -1.7, z: 30.48}
  m_LocalScale: {x: 26.906607, y: 13.571107, z: 13.210258}
  m_Children: []
  m_Father: {fileID: 1926615373}
  m_RootOrder: 7
  m_LocalEulerAnglesHint: {x: 0, y: 0, z: 24.687}
--- !u!23 &635893852
MeshRenderer:
  m_ObjectHideFlags: 0
  m_PrefabParentObject: {fileID: 23427771412413066, guid: 2a65965de9bf08841b8a8978d2939b08,
    type: 2}
  m_PrefabInternal: {fileID: 0}
  m_GameObject: {fileID: 635893850}
  m_Enabled: 1
  m_CastShadows: 1
  m_ReceiveShadows: 1
  m_MotionVectors: 1
  m_LightProbeUsage: 1
  m_ReflectionProbeUsage: 1
  m_Materials:
  - {fileID: 2100000, guid: a6630e18591dac942ab3dc5b3e93d936, type: 2}
  m_StaticBatchInfo:
    firstSubMesh: 0
    subMeshCount: 0
  m_StaticBatchRoot: {fileID: 0}
  m_ProbeAnchor: {fileID: 0}
  m_LightProbeVolumeOverride: {fileID: 0}
  m_ScaleInLightmap: 0.2
  m_PreserveUVs: 1
  m_IgnoreNormalsForChartDetection: 0
  m_ImportantGI: 0
  m_SelectedEditorRenderState: 3
  m_MinimumChartSize: 4
  m_AutoUVMaxDistance: 0.5
  m_AutoUVMaxAngle: 89
  m_LightmapParameters: {fileID: 0}
  m_SortingLayerID: 0
  m_SortingLayer: 0
  m_SortingOrder: 0
--- !u!65 &635893853
BoxCollider:
  m_ObjectHideFlags: 0
  m_PrefabParentObject: {fileID: 65643012771034720, guid: 2a65965de9bf08841b8a8978d2939b08,
    type: 2}
  m_PrefabInternal: {fileID: 0}
  m_GameObject: {fileID: 635893850}
  m_Material: {fileID: 0}
  m_IsTrigger: 0
  m_Enabled: 1
  serializedVersion: 2
  m_Size: {x: 1, y: 1, z: 1}
  m_Center: {x: 0, y: 0, z: 0}
--- !u!33 &635893854
MeshFilter:
  m_ObjectHideFlags: 0
  m_PrefabParentObject: {fileID: 33173484841482182, guid: 2a65965de9bf08841b8a8978d2939b08,
    type: 2}
  m_PrefabInternal: {fileID: 0}
  m_GameObject: {fileID: 635893850}
  m_Mesh: {fileID: 10202, guid: 0000000000000000e000000000000000, type: 0}
--- !u!1 &708517946
GameObject:
  m_ObjectHideFlags: 0
  m_PrefabParentObject: {fileID: 1170949520355950, guid: 2a65965de9bf08841b8a8978d2939b08,
    type: 2}
  m_PrefabInternal: {fileID: 0}
  serializedVersion: 5
  m_Component:
  - component: {fileID: 708517947}
  - component: {fileID: 708517950}
  - component: {fileID: 708517949}
  - component: {fileID: 708517948}
  m_Layer: 0
  m_Name: Cube (4)
  m_TagString: Untagged
  m_Icon: {fileID: 0}
  m_NavMeshLayer: 0
  m_StaticEditorFlags: 40
  m_IsActive: 1
--- !u!4 &708517947
Transform:
  m_ObjectHideFlags: 0
  m_PrefabParentObject: {fileID: 4776664688835846, guid: 2a65965de9bf08841b8a8978d2939b08,
    type: 2}
  m_PrefabInternal: {fileID: 0}
  m_GameObject: {fileID: 708517946}
  m_LocalRotation: {x: -0, y: -0, z: 0.13856463, w: 0.99035347}
  m_LocalPosition: {x: -12.07, y: -1.89, z: 16.7}
  m_LocalScale: {x: 14.282944, y: 7.2040114, z: 7.0124607}
  m_Children: []
  m_Father: {fileID: 1926615373}
  m_RootOrder: 6
  m_LocalEulerAnglesHint: {x: 0, y: 0, z: 15.619}
--- !u!23 &708517948
MeshRenderer:
  m_ObjectHideFlags: 0
  m_PrefabParentObject: {fileID: 23797458838031856, guid: 2a65965de9bf08841b8a8978d2939b08,
    type: 2}
  m_PrefabInternal: {fileID: 0}
  m_GameObject: {fileID: 708517946}
  m_Enabled: 1
  m_CastShadows: 1
  m_ReceiveShadows: 1
  m_MotionVectors: 1
  m_LightProbeUsage: 1
  m_ReflectionProbeUsage: 1
  m_Materials:
  - {fileID: 2100000, guid: a6630e18591dac942ab3dc5b3e93d936, type: 2}
  m_StaticBatchInfo:
    firstSubMesh: 0
    subMeshCount: 0
  m_StaticBatchRoot: {fileID: 0}
  m_ProbeAnchor: {fileID: 0}
  m_LightProbeVolumeOverride: {fileID: 0}
  m_ScaleInLightmap: 0.2
  m_PreserveUVs: 1
  m_IgnoreNormalsForChartDetection: 0
  m_ImportantGI: 0
  m_SelectedEditorRenderState: 3
  m_MinimumChartSize: 4
  m_AutoUVMaxDistance: 0.5
  m_AutoUVMaxAngle: 89
  m_LightmapParameters: {fileID: 0}
  m_SortingLayerID: 0
  m_SortingLayer: 0
  m_SortingOrder: 0
--- !u!65 &708517949
BoxCollider:
  m_ObjectHideFlags: 0
  m_PrefabParentObject: {fileID: 65565087569803376, guid: 2a65965de9bf08841b8a8978d2939b08,
    type: 2}
  m_PrefabInternal: {fileID: 0}
  m_GameObject: {fileID: 708517946}
  m_Material: {fileID: 0}
  m_IsTrigger: 0
  m_Enabled: 1
  serializedVersion: 2
  m_Size: {x: 1, y: 1, z: 1}
  m_Center: {x: 0, y: 0, z: 0}
--- !u!33 &708517950
MeshFilter:
  m_ObjectHideFlags: 0
  m_PrefabParentObject: {fileID: 33843644566631576, guid: 2a65965de9bf08841b8a8978d2939b08,
    type: 2}
  m_PrefabInternal: {fileID: 0}
  m_GameObject: {fileID: 708517946}
  m_Mesh: {fileID: 10202, guid: 0000000000000000e000000000000000, type: 0}
--- !u!1 &723820242
GameObject:
  m_ObjectHideFlags: 0
  m_PrefabParentObject: {fileID: 1606170580555984, guid: 2a65965de9bf08841b8a8978d2939b08,
    type: 2}
  m_PrefabInternal: {fileID: 0}
  serializedVersion: 5
  m_Component:
  - component: {fileID: 723820243}
  - component: {fileID: 723820246}
  - component: {fileID: 723820245}
  - component: {fileID: 723820244}
  m_Layer: 0
  m_Name: Cube (8)
  m_TagString: Untagged
  m_Icon: {fileID: 0}
  m_NavMeshLayer: 0
  m_StaticEditorFlags: 40
  m_IsActive: 1
--- !u!4 &723820243
Transform:
  m_ObjectHideFlags: 0
  m_PrefabParentObject: {fileID: 4340270878648410, guid: 2a65965de9bf08841b8a8978d2939b08,
    type: 2}
  m_PrefabInternal: {fileID: 0}
  m_GameObject: {fileID: 723820242}
  m_LocalRotation: {x: -0.15239176, y: -0.69639057, z: 0.14991781, w: 0.6850851}
  m_LocalPosition: {x: -30.5, y: -2.64, z: 48}
  m_LocalScale: {x: 26.906609, y: 13.57111, z: 13.210259}
  m_Children: []
  m_Father: {fileID: 1926615373}
  m_RootOrder: 10
  m_LocalEulerAnglesHint: {x: 0, y: -90.938, z: 24.687}
--- !u!23 &723820244
MeshRenderer:
  m_ObjectHideFlags: 0
  m_PrefabParentObject: {fileID: 23292164000344336, guid: 2a65965de9bf08841b8a8978d2939b08,
    type: 2}
  m_PrefabInternal: {fileID: 0}
  m_GameObject: {fileID: 723820242}
  m_Enabled: 1
  m_CastShadows: 1
  m_ReceiveShadows: 1
  m_MotionVectors: 1
  m_LightProbeUsage: 1
  m_ReflectionProbeUsage: 1
  m_Materials:
  - {fileID: 2100000, guid: a6630e18591dac942ab3dc5b3e93d936, type: 2}
  m_StaticBatchInfo:
    firstSubMesh: 0
    subMeshCount: 0
  m_StaticBatchRoot: {fileID: 0}
  m_ProbeAnchor: {fileID: 0}
  m_LightProbeVolumeOverride: {fileID: 0}
  m_ScaleInLightmap: 0.2
  m_PreserveUVs: 1
  m_IgnoreNormalsForChartDetection: 0
  m_ImportantGI: 0
  m_SelectedEditorRenderState: 3
  m_MinimumChartSize: 4
  m_AutoUVMaxDistance: 0.5
  m_AutoUVMaxAngle: 89
  m_LightmapParameters: {fileID: 0}
  m_SortingLayerID: 0
  m_SortingLayer: 0
  m_SortingOrder: 0
--- !u!65 &723820245
BoxCollider:
  m_ObjectHideFlags: 0
  m_PrefabParentObject: {fileID: 65668830920932932, guid: 2a65965de9bf08841b8a8978d2939b08,
    type: 2}
  m_PrefabInternal: {fileID: 0}
  m_GameObject: {fileID: 723820242}
  m_Material: {fileID: 0}
  m_IsTrigger: 0
  m_Enabled: 1
  serializedVersion: 2
  m_Size: {x: 1, y: 1, z: 1}
  m_Center: {x: 0, y: 0, z: 0}
--- !u!33 &723820246
MeshFilter:
  m_ObjectHideFlags: 0
  m_PrefabParentObject: {fileID: 33244721535625332, guid: 2a65965de9bf08841b8a8978d2939b08,
    type: 2}
  m_PrefabInternal: {fileID: 0}
  m_GameObject: {fileID: 723820242}
  m_Mesh: {fileID: 10202, guid: 0000000000000000e000000000000000, type: 0}
--- !u!1 &727579951
GameObject:
  m_ObjectHideFlags: 0
  m_PrefabParentObject: {fileID: 1514773624977690, guid: 2a65965de9bf08841b8a8978d2939b08,
    type: 2}
  m_PrefabInternal: {fileID: 0}
  serializedVersion: 5
  m_Component:
  - component: {fileID: 727579952}
  - component: {fileID: 727579953}
  m_Layer: 0
  m_Name: OffMeshLink Jump One Direction (1)
  m_TagString: Untagged
  m_Icon: {fileID: 0}
  m_NavMeshLayer: 0
  m_StaticEditorFlags: 0
  m_IsActive: 1
--- !u!4 &727579952
Transform:
  m_ObjectHideFlags: 0
  m_PrefabParentObject: {fileID: 4042080201958810, guid: 2a65965de9bf08841b8a8978d2939b08,
    type: 2}
  m_PrefabInternal: {fileID: 0}
  m_GameObject: {fileID: 727579951}
  m_LocalRotation: {x: -0, y: -0.99503934, z: -0, w: -0.099482365}
  m_LocalPosition: {x: -42.59, y: 1.61, z: 31.66}
  m_LocalScale: {x: 1, y: 1, z: 1}
  m_Children:
  - {fileID: 536098147}
  - {fileID: 1120884867}
  m_Father: {fileID: 1926615373}
  m_RootOrder: 20
  m_LocalEulerAnglesHint: {x: 0, y: -191.41899, z: 0}
--- !u!191 &727579953
OffMeshLink:
  m_ObjectHideFlags: 0
  m_PrefabParentObject: {fileID: 191105472696427036, guid: 2a65965de9bf08841b8a8978d2939b08,
    type: 2}
  m_PrefabInternal: {fileID: 0}
  m_GameObject: {fileID: 727579951}
  m_Enabled: 1
  serializedVersion: 3
  m_AreaIndex: 2
  m_AgentTypeID: 0
  m_Start: {fileID: 536098147}
  m_End: {fileID: 1120884867}
  m_CostOverride: -1
  m_BiDirectional: 0
  m_Activated: 1
  m_AutoUpdatePositions: 0
--- !u!1 &731129952 stripped
GameObject:
  m_PrefabParentObject: {fileID: 1882612575608140, guid: fd75e4adbe599bc44a03eaa26aba9b16,
    type: 2}
  m_PrefabInternal: {fileID: 2102181084}
--- !u!1 &735788656
GameObject:
  m_ObjectHideFlags: 0
  m_PrefabParentObject: {fileID: 1817697435721782, guid: 2a65965de9bf08841b8a8978d2939b08,
    type: 2}
  m_PrefabInternal: {fileID: 0}
  serializedVersion: 5
  m_Component:
  - component: {fileID: 735788657}
  - component: {fileID: 735788660}
  - component: {fileID: 735788659}
  - component: {fileID: 735788658}
  m_Layer: 0
  m_Name: Cube
  m_TagString: Untagged
  m_Icon: {fileID: 0}
  m_NavMeshLayer: 0
  m_StaticEditorFlags: 40
  m_IsActive: 1
--- !u!4 &735788657
Transform:
  m_ObjectHideFlags: 0
  m_PrefabParentObject: {fileID: 4142806874952924, guid: 2a65965de9bf08841b8a8978d2939b08,
    type: 2}
  m_PrefabInternal: {fileID: 0}
  m_GameObject: {fileID: 735788656}
  m_LocalRotation: {x: -0, y: -0, z: -0, w: 1}
  m_LocalPosition: {x: 0, y: 0, z: 0}
  m_LocalScale: {x: 12.506076, y: 7.0124607, z: 7.0124607}
  m_Children: []
  m_Father: {fileID: 1926615373}
  m_RootOrder: 2
  m_LocalEulerAnglesHint: {x: 0, y: 0, z: 0}
--- !u!23 &735788658
MeshRenderer:
  m_ObjectHideFlags: 0
  m_PrefabParentObject: {fileID: 23106629625619014, guid: 2a65965de9bf08841b8a8978d2939b08,
    type: 2}
  m_PrefabInternal: {fileID: 0}
  m_GameObject: {fileID: 735788656}
  m_Enabled: 1
  m_CastShadows: 1
  m_ReceiveShadows: 1
  m_MotionVectors: 1
  m_LightProbeUsage: 1
  m_ReflectionProbeUsage: 1
  m_Materials:
  - {fileID: 2100000, guid: a6630e18591dac942ab3dc5b3e93d936, type: 2}
  m_StaticBatchInfo:
    firstSubMesh: 0
    subMeshCount: 0
  m_StaticBatchRoot: {fileID: 0}
  m_ProbeAnchor: {fileID: 0}
  m_LightProbeVolumeOverride: {fileID: 0}
  m_ScaleInLightmap: 0.2
  m_PreserveUVs: 1
  m_IgnoreNormalsForChartDetection: 0
  m_ImportantGI: 0
  m_SelectedEditorRenderState: 3
  m_MinimumChartSize: 4
  m_AutoUVMaxDistance: 0.5
  m_AutoUVMaxAngle: 89
  m_LightmapParameters: {fileID: 0}
  m_SortingLayerID: 0
  m_SortingLayer: 0
  m_SortingOrder: 0
--- !u!65 &735788659
BoxCollider:
  m_ObjectHideFlags: 0
  m_PrefabParentObject: {fileID: 65392968458681214, guid: 2a65965de9bf08841b8a8978d2939b08,
    type: 2}
  m_PrefabInternal: {fileID: 0}
  m_GameObject: {fileID: 735788656}
  m_Material: {fileID: 0}
  m_IsTrigger: 0
  m_Enabled: 1
  serializedVersion: 2
  m_Size: {x: 1, y: 1, z: 1}
  m_Center: {x: 0, y: 0, z: 0}
--- !u!33 &735788660
MeshFilter:
  m_ObjectHideFlags: 0
  m_PrefabParentObject: {fileID: 33131875418973878, guid: 2a65965de9bf08841b8a8978d2939b08,
    type: 2}
  m_PrefabInternal: {fileID: 0}
  m_GameObject: {fileID: 735788656}
  m_Mesh: {fileID: 10202, guid: 0000000000000000e000000000000000, type: 0}
--- !u!1 &751910522 stripped
GameObject:
  m_PrefabParentObject: {fileID: 1233506588084782, guid: fd75e4adbe599bc44a03eaa26aba9b16,
    type: 2}
  m_PrefabInternal: {fileID: 2102181084}
--- !u!1 &804067318
GameObject:
  m_ObjectHideFlags: 0
  m_PrefabParentObject: {fileID: 1436654257599092, guid: 2a65965de9bf08841b8a8978d2939b08,
    type: 2}
  m_PrefabInternal: {fileID: 0}
  serializedVersion: 5
  m_Component:
  - component: {fileID: 804067319}
  - component: {fileID: 804067320}
  m_Layer: 0
  m_Name: OffMeshLink Start
  m_TagString: Untagged
  m_Icon: {fileID: 0}
  m_NavMeshLayer: 0
  m_StaticEditorFlags: 0
  m_IsActive: 1
--- !u!4 &804067319
Transform:
  m_ObjectHideFlags: 0
  m_PrefabParentObject: {fileID: 4679444279329738, guid: 2a65965de9bf08841b8a8978d2939b08,
    type: 2}
  m_PrefabInternal: {fileID: 0}
  m_GameObject: {fileID: 804067318}
  m_LocalRotation: {x: 0, y: 0, z: 0, w: 1}
  m_LocalPosition: {x: -0, y: 0, z: 0}
  m_LocalScale: {x: 1, y: 1, z: 1}
  m_Children: []
  m_Father: {fileID: 294414413}
  m_RootOrder: 0
  m_LocalEulerAnglesHint: {x: 0, y: 0, z: 0}
--- !u!114 &804067320
MonoBehaviour:
  m_ObjectHideFlags: 0
  m_PrefabParentObject: {fileID: 114249262596217580, guid: 2a65965de9bf08841b8a8978d2939b08,
    type: 2}
  m_PrefabInternal: {fileID: 0}
  m_GameObject: {fileID: 804067318}
  m_Enabled: 1
  m_EditorHideFlags: 0
  m_Script: {fileID: 11500000, guid: 9b4de088e089c164bb239be84964ea4c, type: 3}
  m_Name: 
  m_EditorClassIdentifier: 
  UseColliders: 0
  gizmoType: 1
  alpha: 0.374
  debugSize: 0.18
  DebugColor: {r: 0.74264705, g: 0.5543491, b: 0.060067054, a: 1}
  DrawAxis: 1
  AxisSize: 0.83
--- !u!1 &821155649
GameObject:
  m_ObjectHideFlags: 0
  m_PrefabParentObject: {fileID: 1865481760041060, guid: 2a65965de9bf08841b8a8978d2939b08,
    type: 2}
  m_PrefabInternal: {fileID: 0}
  serializedVersion: 5
  m_Component:
  - component: {fileID: 821155650}
  - component: {fileID: 821155651}
  m_Layer: 0
  m_Name: OffMeshLink Start
  m_TagString: Untagged
  m_Icon: {fileID: 0}
  m_NavMeshLayer: 0
  m_StaticEditorFlags: 0
  m_IsActive: 1
--- !u!4 &821155650
Transform:
  m_ObjectHideFlags: 0
  m_PrefabParentObject: {fileID: 4860416029445996, guid: 2a65965de9bf08841b8a8978d2939b08,
    type: 2}
  m_PrefabInternal: {fileID: 0}
  m_GameObject: {fileID: 821155649}
  m_LocalRotation: {x: 0, y: 0, z: 0, w: 1}
  m_LocalPosition: {x: 0, y: 0, z: 0}
  m_LocalScale: {x: 1, y: 1, z: 1}
  m_Children: []
  m_Father: {fileID: 2011444239}
  m_RootOrder: 0
  m_LocalEulerAnglesHint: {x: 0, y: 0, z: 0}
--- !u!114 &821155651
MonoBehaviour:
  m_ObjectHideFlags: 0
  m_PrefabParentObject: {fileID: 114785905731766008, guid: 2a65965de9bf08841b8a8978d2939b08,
    type: 2}
  m_PrefabInternal: {fileID: 0}
  m_GameObject: {fileID: 821155649}
  m_Enabled: 1
  m_EditorHideFlags: 0
  m_Script: {fileID: 11500000, guid: 9b4de088e089c164bb239be84964ea4c, type: 3}
  m_Name: 
  m_EditorClassIdentifier: 
  UseColliders: 0
  gizmoType: 1
  alpha: 0.374
  debugSize: 0.18
  DebugColor: {r: 0.9867141, g: 0.03676468, b: 1, a: 1}
  DrawAxis: 1
  AxisSize: 0.81
--- !u!1 &843922729
GameObject:
  m_ObjectHideFlags: 0
  m_PrefabParentObject: {fileID: 1913997507193508, guid: 2a65965de9bf08841b8a8978d2939b08,
    type: 2}
  m_PrefabInternal: {fileID: 0}
  serializedVersion: 5
  m_Component:
  - component: {fileID: 843922730}
  - component: {fileID: 843922732}
  - component: {fileID: 843922731}
  m_Layer: 0
  m_Name: OffMeshLink Jump Bi
  m_TagString: Untagged
  m_Icon: {fileID: 0}
  m_NavMeshLayer: 0
  m_StaticEditorFlags: 0
  m_IsActive: 1
--- !u!4 &843922730
Transform:
  m_ObjectHideFlags: 0
  m_PrefabParentObject: {fileID: 4211629248241154, guid: 2a65965de9bf08841b8a8978d2939b08,
    type: 2}
  m_PrefabInternal: {fileID: 0}
  m_GameObject: {fileID: 843922729}
  m_LocalRotation: {x: -0, y: -0, z: -0, w: 1}
  m_LocalPosition: {x: 3.24, y: 3.55, z: 2.8}
  m_LocalScale: {x: 1, y: 1, z: 1}
  m_Children:
  - {fileID: 89713847}
  m_Father: {fileID: 1926615373}
  m_RootOrder: 17
  m_LocalEulerAnglesHint: {x: 0, y: 0, z: 0}
--- !u!114 &843922731
MonoBehaviour:
  m_ObjectHideFlags: 0
  m_PrefabParentObject: {fileID: 114642467349377848, guid: 2a65965de9bf08841b8a8978d2939b08,
    type: 2}
  m_PrefabInternal: {fileID: 0}
  m_GameObject: {fileID: 843922729}
  m_Enabled: 1
  m_EditorHideFlags: 0
  m_Script: {fileID: 11500000, guid: 9b4de088e089c164bb239be84964ea4c, type: 3}
  m_Name: 
  m_EditorClassIdentifier: 
  UseColliders: 0
  gizmoType: 1
  alpha: 0.374
  debugSize: 0.18
  DebugColor: {r: 0.74264705, g: 0.5543491, b: 0.060067054, a: 1}
  DrawAxis: 1
  AxisSize: 0.64
--- !u!191 &843922732
OffMeshLink:
  m_ObjectHideFlags: 0
  m_PrefabParentObject: {fileID: 191533196989982032, guid: 2a65965de9bf08841b8a8978d2939b08,
    type: 2}
  m_PrefabInternal: {fileID: 0}
  m_GameObject: {fileID: 843922729}
  m_Enabled: 1
  serializedVersion: 3
  m_AreaIndex: 2
  m_AgentTypeID: 0
  m_Start: {fileID: 843922730}
  m_End: {fileID: 89713847}
  m_CostOverride: -1
  m_BiDirectional: 1
  m_Activated: 1
  m_AutoUpdatePositions: 0
--- !u!1 &867085154
GameObject:
  m_ObjectHideFlags: 0
  m_PrefabParentObject: {fileID: 1472916022494308, guid: 2a65965de9bf08841b8a8978d2939b08,
    type: 2}
  m_PrefabInternal: {fileID: 0}
  serializedVersion: 5
  m_Component:
  - component: {fileID: 867085155}
  - component: {fileID: 867085158}
  - component: {fileID: 867085157}
  - component: {fileID: 867085156}
  m_Layer: 2
  m_Name: Rocks01 (10)
  m_TagString: Untagged
  m_Icon: {fileID: 0}
  m_NavMeshLayer: 0
  m_StaticEditorFlags: 8
  m_IsActive: 0
--- !u!4 &867085155
Transform:
  m_ObjectHideFlags: 0
  m_PrefabParentObject: {fileID: 4561505135080348, guid: 2a65965de9bf08841b8a8978d2939b08,
    type: 2}
  m_PrefabInternal: {fileID: 0}
  m_GameObject: {fileID: 867085154}
  m_LocalRotation: {x: 0.45323855, y: -0.726258, z: -0.5142495, w: -0.05168858}
  m_LocalPosition: {x: -35.02, y: -2.4526525, z: 22.27}
  m_LocalScale: {x: 2.4742517, y: 1.2156305, z: 6.8068333}
  m_Children: []
  m_Father: {fileID: 1926615373}
  m_RootOrder: 15
  m_LocalEulerAnglesHint: {x: -52.543003, y: -139.981, z: -84.315}
--- !u!65 &867085156
BoxCollider:
  m_ObjectHideFlags: 0
  m_PrefabParentObject: {fileID: 65073102955335404, guid: 2a65965de9bf08841b8a8978d2939b08,
    type: 2}
  m_PrefabInternal: {fileID: 0}
  m_GameObject: {fileID: 867085154}
  m_Material: {fileID: 0}
  m_IsTrigger: 0
  m_Enabled: 1
  serializedVersion: 2
  m_Size: {x: 1.0000005, y: 1.0000005, z: 1.0000005}
  m_Center: {x: -2.0087768e-14, y: -0.0000039339066, z: 0.5000001}
--- !u!23 &867085157
MeshRenderer:
  m_ObjectHideFlags: 0
  m_PrefabParentObject: {fileID: 23524258693983592, guid: 2a65965de9bf08841b8a8978d2939b08,
    type: 2}
  m_PrefabInternal: {fileID: 0}
  m_GameObject: {fileID: 867085154}
  m_Enabled: 1
  m_CastShadows: 1
  m_ReceiveShadows: 1
  m_MotionVectors: 1
  m_LightProbeUsage: 1
  m_ReflectionProbeUsage: 1
  m_Materials:
  - {fileID: 2100000, guid: a6630e18591dac942ab3dc5b3e93d936, type: 2}
  m_StaticBatchInfo:
    firstSubMesh: 0
    subMeshCount: 0
  m_StaticBatchRoot: {fileID: 0}
  m_ProbeAnchor: {fileID: 0}
  m_LightProbeVolumeOverride: {fileID: 0}
  m_ScaleInLightmap: 1
  m_PreserveUVs: 1
  m_IgnoreNormalsForChartDetection: 0
  m_ImportantGI: 0
  m_SelectedEditorRenderState: 3
  m_MinimumChartSize: 4
  m_AutoUVMaxDistance: 0.5
  m_AutoUVMaxAngle: 89
  m_LightmapParameters: {fileID: 0}
  m_SortingLayerID: 0
  m_SortingLayer: 0
  m_SortingOrder: 0
--- !u!33 &867085158
MeshFilter:
  m_ObjectHideFlags: 0
  m_PrefabParentObject: {fileID: 33605718614088690, guid: 2a65965de9bf08841b8a8978d2939b08,
    type: 2}
  m_PrefabInternal: {fileID: 0}
  m_GameObject: {fileID: 867085154}
  m_Mesh: {fileID: 4300002, guid: cc71374e41f10ca4a8cd6710edc8509d, type: 3}
--- !u!1 &898040540
GameObject:
  m_ObjectHideFlags: 0
  m_PrefabParentObject: {fileID: 1995866001264382, guid: 2a65965de9bf08841b8a8978d2939b08,
    type: 2}
  m_PrefabInternal: {fileID: 0}
  serializedVersion: 5
  m_Component:
  - component: {fileID: 898040541}
  - component: {fileID: 898040542}
  m_Layer: 0
  m_Name: Directional Light
  m_TagString: Untagged
  m_Icon: {fileID: 0}
  m_NavMeshLayer: 0
  m_StaticEditorFlags: 0
  m_IsActive: 1
--- !u!4 &898040541
Transform:
  m_ObjectHideFlags: 0
  m_PrefabParentObject: {fileID: 4953201332252164, guid: 2a65965de9bf08841b8a8978d2939b08,
    type: 2}
  m_PrefabInternal: {fileID: 0}
  m_GameObject: {fileID: 898040540}
  m_LocalRotation: {x: 0.40821788, y: -0.23456968, z: 0.10938163, w: 0.8754261}
  m_LocalPosition: {x: 0, y: 3, z: 0}
  m_LocalScale: {x: 1, y: 1, z: 1}
  m_Children: []
  m_Father: {fileID: 1926615373}
  m_RootOrder: 0
  m_LocalEulerAnglesHint: {x: 50, y: -30, z: 0}
--- !u!108 &898040542
Light:
  m_ObjectHideFlags: 0
  m_PrefabParentObject: {fileID: 108111178410503354, guid: 2a65965de9bf08841b8a8978d2939b08,
    type: 2}
  m_PrefabInternal: {fileID: 0}
  m_GameObject: {fileID: 898040540}
  m_Enabled: 1
  serializedVersion: 8
  m_Type: 1
  m_Color: {r: 1, g: 0.95686275, b: 0.8392157, a: 1}
  m_Intensity: 1
  m_Range: 10
  m_SpotAngle: 30
  m_CookieSize: 10
  m_Shadows:
    m_Type: 2
    m_Resolution: 3
    m_CustomResolution: -1
    m_Strength: 1
    m_Bias: 0.16
    m_NormalBias: 0
    m_NearPlane: 1.4
  m_Cookie: {fileID: 0}
  m_DrawHalo: 0
  m_Flare: {fileID: 0}
  m_RenderMode: 0
  m_CullingMask:
    serializedVersion: 2
    m_Bits: 4294967295
  m_Lightmapping: 4
  m_AreaSize: {x: 1, y: 1}
  m_BounceIntensity: 1
  m_ColorTemperature: 6570
  m_UseColorTemperature: 0
  m_ShadowRadius: 0
  m_ShadowAngle: 0
--- !u!1 &908963930 stripped
GameObject:
  m_PrefabParentObject: {fileID: 1422795521395286, guid: fd75e4adbe599bc44a03eaa26aba9b16,
    type: 2}
  m_PrefabInternal: {fileID: 2102181084}
--- !u!1 &978572334
GameObject:
  m_ObjectHideFlags: 0
  m_PrefabParentObject: {fileID: 1281126004343438, guid: 2a65965de9bf08841b8a8978d2939b08,
    type: 2}
  m_PrefabInternal: {fileID: 0}
  serializedVersion: 5
  m_Component:
  - component: {fileID: 978572335}
  - component: {fileID: 978572338}
  - component: {fileID: 978572337}
  - component: {fileID: 978572336}
  m_Layer: 2
  m_Name: Rocks01 (11)
  m_TagString: Untagged
  m_Icon: {fileID: 0}
  m_NavMeshLayer: 0
  m_StaticEditorFlags: 8
  m_IsActive: 0
--- !u!4 &978572335
Transform:
  m_ObjectHideFlags: 0
  m_PrefabParentObject: {fileID: 4772103968956656, guid: 2a65965de9bf08841b8a8978d2939b08,
    type: 2}
  m_PrefabInternal: {fileID: 0}
  m_GameObject: {fileID: 978572334}
  m_LocalRotation: {x: 0.82244617, y: 0.13453288, z: -0.34452137, w: 0.43219018}
  m_LocalPosition: {x: -36.85, y: 4.1573477, z: 19.63}
  m_LocalScale: {x: 1.21563, y: 2.4742615, z: 6.8068347}
  m_Children: []
  m_Father: {fileID: 1926615373}
  m_RootOrder: 11
  m_LocalEulerAnglesHint: {x: 126.524, y: 49.18199, z: 7.3859863}
--- !u!65 &978572336
BoxCollider:
  m_ObjectHideFlags: 0
  m_PrefabParentObject: {fileID: 65828509599666892, guid: 2a65965de9bf08841b8a8978d2939b08,
    type: 2}
  m_PrefabInternal: {fileID: 0}
  m_GameObject: {fileID: 978572334}
  m_Material: {fileID: 0}
  m_IsTrigger: 0
  m_Enabled: 1
  serializedVersion: 2
  m_Size: {x: 1.0000005, y: 1.0000005, z: 1.0000005}
  m_Center: {x: -2.0087768e-14, y: -0.0000039339066, z: 0.5000001}
--- !u!23 &978572337
MeshRenderer:
  m_ObjectHideFlags: 0
  m_PrefabParentObject: {fileID: 23318036072419306, guid: 2a65965de9bf08841b8a8978d2939b08,
    type: 2}
  m_PrefabInternal: {fileID: 0}
  m_GameObject: {fileID: 978572334}
  m_Enabled: 1
  m_CastShadows: 1
  m_ReceiveShadows: 1
  m_MotionVectors: 1
  m_LightProbeUsage: 1
  m_ReflectionProbeUsage: 1
  m_Materials:
  - {fileID: 2100000, guid: a6630e18591dac942ab3dc5b3e93d936, type: 2}
  m_StaticBatchInfo:
    firstSubMesh: 0
    subMeshCount: 0
  m_StaticBatchRoot: {fileID: 0}
  m_ProbeAnchor: {fileID: 0}
  m_LightProbeVolumeOverride: {fileID: 0}
  m_ScaleInLightmap: 1
  m_PreserveUVs: 1
  m_IgnoreNormalsForChartDetection: 0
  m_ImportantGI: 0
  m_SelectedEditorRenderState: 3
  m_MinimumChartSize: 4
  m_AutoUVMaxDistance: 0.5
  m_AutoUVMaxAngle: 89
  m_LightmapParameters: {fileID: 0}
  m_SortingLayerID: 0
  m_SortingLayer: 0
  m_SortingOrder: 0
--- !u!33 &978572338
MeshFilter:
  m_ObjectHideFlags: 0
  m_PrefabParentObject: {fileID: 33547693361414858, guid: 2a65965de9bf08841b8a8978d2939b08,
    type: 2}
  m_PrefabInternal: {fileID: 0}
  m_GameObject: {fileID: 978572334}
  m_Mesh: {fileID: 4300002, guid: cc71374e41f10ca4a8cd6710edc8509d, type: 3}
--- !u!1 &998060319
GameObject:
  m_ObjectHideFlags: 0
  m_PrefabParentObject: {fileID: 1756037272323636, guid: 2a65965de9bf08841b8a8978d2939b08,
    type: 2}
  m_PrefabInternal: {fileID: 0}
  serializedVersion: 5
  m_Component:
  - component: {fileID: 998060320}
  - component: {fileID: 998060323}
  - component: {fileID: 998060322}
  - component: {fileID: 998060321}
  m_Layer: 0
  m_Name: Cube (9)
  m_TagString: Untagged
  m_Icon: {fileID: 0}
  m_NavMeshLayer: 0
  m_StaticEditorFlags: 40
  m_IsActive: 1
--- !u!4 &998060320
Transform:
  m_ObjectHideFlags: 0
  m_PrefabParentObject: {fileID: 4122649286584336, guid: 2a65965de9bf08841b8a8978d2939b08,
    type: 2}
  m_PrefabInternal: {fileID: 0}
  m_GameObject: {fileID: 998060319}
  m_LocalRotation: {x: -0, y: 0.2994957, z: -0, w: 0.9540977}
  m_LocalPosition: {x: -41.98, y: 0.26, z: 32.05}
  m_LocalScale: {x: 7.361515, y: 2.3846743, z: 7.2487826}
  m_Children: []
  m_Father: {fileID: 1926615373}
  m_RootOrder: 16
  m_LocalEulerAnglesHint: {x: 0, y: 34.855003, z: 0}
--- !u!23 &998060321
MeshRenderer:
  m_ObjectHideFlags: 0
  m_PrefabParentObject: {fileID: 23141243837108346, guid: 2a65965de9bf08841b8a8978d2939b08,
    type: 2}
  m_PrefabInternal: {fileID: 0}
  m_GameObject: {fileID: 998060319}
  m_Enabled: 1
  m_CastShadows: 1
  m_ReceiveShadows: 1
  m_MotionVectors: 1
  m_LightProbeUsage: 1
  m_ReflectionProbeUsage: 1
  m_Materials:
  - {fileID: 2100000, guid: a6630e18591dac942ab3dc5b3e93d936, type: 2}
  m_StaticBatchInfo:
    firstSubMesh: 0
    subMeshCount: 0
  m_StaticBatchRoot: {fileID: 0}
  m_ProbeAnchor: {fileID: 0}
  m_LightProbeVolumeOverride: {fileID: 0}
  m_ScaleInLightmap: 1
  m_PreserveUVs: 1
  m_IgnoreNormalsForChartDetection: 0
  m_ImportantGI: 0
  m_SelectedEditorRenderState: 3
  m_MinimumChartSize: 4
  m_AutoUVMaxDistance: 0.5
  m_AutoUVMaxAngle: 89
  m_LightmapParameters: {fileID: 0}
  m_SortingLayerID: 0
  m_SortingLayer: 0
  m_SortingOrder: 0
--- !u!65 &998060322
BoxCollider:
  m_ObjectHideFlags: 0
  m_PrefabParentObject: {fileID: 65708553793434418, guid: 2a65965de9bf08841b8a8978d2939b08,
    type: 2}
  m_PrefabInternal: {fileID: 0}
  m_GameObject: {fileID: 998060319}
  m_Material: {fileID: 0}
  m_IsTrigger: 0
  m_Enabled: 1
  serializedVersion: 2
  m_Size: {x: 1, y: 1, z: 1}
  m_Center: {x: 0, y: 0, z: 0}
--- !u!33 &998060323
MeshFilter:
  m_ObjectHideFlags: 0
  m_PrefabParentObject: {fileID: 33579316174210638, guid: 2a65965de9bf08841b8a8978d2939b08,
    type: 2}
  m_PrefabInternal: {fileID: 0}
  m_GameObject: {fileID: 998060319}
  m_Mesh: {fileID: 10202, guid: 0000000000000000e000000000000000, type: 0}
--- !u!1001 &1004927522
Prefab:
  m_ObjectHideFlags: 0
  serializedVersion: 2
  m_Modification:
    m_TransformParent: {fileID: 0}
    m_Modifications:
    - target: {fileID: 224169268906217344, guid: bd2d2360048ec1d4fac2da084a67392b,
        type: 2}
      propertyPath: m_LocalPosition.x
      value: 0
      objectReference: {fileID: 0}
    - target: {fileID: 224169268906217344, guid: bd2d2360048ec1d4fac2da084a67392b,
        type: 2}
      propertyPath: m_LocalPosition.y
      value: 0
      objectReference: {fileID: 0}
    - target: {fileID: 224169268906217344, guid: bd2d2360048ec1d4fac2da084a67392b,
        type: 2}
      propertyPath: m_LocalPosition.z
      value: 0
      objectReference: {fileID: 0}
    - target: {fileID: 224169268906217344, guid: bd2d2360048ec1d4fac2da084a67392b,
        type: 2}
      propertyPath: m_LocalRotation.x
      value: 0
      objectReference: {fileID: 0}
    - target: {fileID: 224169268906217344, guid: bd2d2360048ec1d4fac2da084a67392b,
        type: 2}
      propertyPath: m_LocalRotation.y
      value: 0
      objectReference: {fileID: 0}
    - target: {fileID: 224169268906217344, guid: bd2d2360048ec1d4fac2da084a67392b,
        type: 2}
      propertyPath: m_LocalRotation.z
      value: 0
      objectReference: {fileID: 0}
    - target: {fileID: 224169268906217344, guid: bd2d2360048ec1d4fac2da084a67392b,
        type: 2}
      propertyPath: m_LocalRotation.w
      value: 1
      objectReference: {fileID: 0}
    - target: {fileID: 224169268906217344, guid: bd2d2360048ec1d4fac2da084a67392b,
        type: 2}
      propertyPath: m_RootOrder
      value: 7
      objectReference: {fileID: 0}
    - target: {fileID: 224169268906217344, guid: bd2d2360048ec1d4fac2da084a67392b,
        type: 2}
      propertyPath: m_AnchoredPosition.x
      value: 0
      objectReference: {fileID: 0}
    - target: {fileID: 224169268906217344, guid: bd2d2360048ec1d4fac2da084a67392b,
        type: 2}
      propertyPath: m_AnchoredPosition.y
      value: 0
      objectReference: {fileID: 0}
    - target: {fileID: 224169268906217344, guid: bd2d2360048ec1d4fac2da084a67392b,
        type: 2}
      propertyPath: m_SizeDelta.x
      value: 0
      objectReference: {fileID: 0}
    - target: {fileID: 224169268906217344, guid: bd2d2360048ec1d4fac2da084a67392b,
        type: 2}
      propertyPath: m_SizeDelta.y
      value: 0
      objectReference: {fileID: 0}
    - target: {fileID: 224169268906217344, guid: bd2d2360048ec1d4fac2da084a67392b,
        type: 2}
      propertyPath: m_AnchorMin.x
      value: 0
      objectReference: {fileID: 0}
    - target: {fileID: 224169268906217344, guid: bd2d2360048ec1d4fac2da084a67392b,
        type: 2}
      propertyPath: m_AnchorMin.y
      value: 0
      objectReference: {fileID: 0}
    - target: {fileID: 224169268906217344, guid: bd2d2360048ec1d4fac2da084a67392b,
        type: 2}
      propertyPath: m_AnchorMax.x
      value: 0
      objectReference: {fileID: 0}
    - target: {fileID: 224169268906217344, guid: bd2d2360048ec1d4fac2da084a67392b,
        type: 2}
      propertyPath: m_AnchorMax.y
      value: 0
      objectReference: {fileID: 0}
    - target: {fileID: 224169268906217344, guid: bd2d2360048ec1d4fac2da084a67392b,
        type: 2}
      propertyPath: m_Pivot.x
      value: 0
      objectReference: {fileID: 0}
    - target: {fileID: 224169268906217344, guid: bd2d2360048ec1d4fac2da084a67392b,
        type: 2}
      propertyPath: m_Pivot.y
      value: 0
      objectReference: {fileID: 0}
    m_RemovedComponents: []
  m_ParentPrefab: {fileID: 100100000, guid: bd2d2360048ec1d4fac2da084a67392b, type: 2}
  m_IsPrefabParent: 0
--- !u!1 &1120884866
GameObject:
  m_ObjectHideFlags: 0
  m_PrefabParentObject: {fileID: 1249549010433286, guid: 2a65965de9bf08841b8a8978d2939b08,
    type: 2}
  m_PrefabInternal: {fileID: 0}
  serializedVersion: 5
  m_Component:
  - component: {fileID: 1120884867}
  - component: {fileID: 1120884868}
  m_Layer: 0
  m_Name: OffMeshLink End
  m_TagString: Untagged
  m_Icon: {fileID: 0}
  m_NavMeshLayer: 0
  m_StaticEditorFlags: 0
  m_IsActive: 1
--- !u!4 &1120884867
Transform:
  m_ObjectHideFlags: 0
  m_PrefabParentObject: {fileID: 4845334155416256, guid: 2a65965de9bf08841b8a8978d2939b08,
    type: 2}
  m_PrefabInternal: {fileID: 0}
  m_GameObject: {fileID: 1120884866}
  m_LocalRotation: {x: -0, y: 1, z: -0, w: 0}
  m_LocalPosition: {x: -0.020001769, y: 1.68, z: 2.78}
  m_LocalScale: {x: 1, y: 1, z: 1}
  m_Children: []
  m_Father: {fileID: 727579952}
  m_RootOrder: 1
  m_LocalEulerAnglesHint: {x: 0, y: 180, z: 0}
--- !u!114 &1120884868
MonoBehaviour:
  m_ObjectHideFlags: 0
  m_PrefabParentObject: {fileID: 114179147995314594, guid: 2a65965de9bf08841b8a8978d2939b08,
    type: 2}
  m_PrefabInternal: {fileID: 0}
  m_GameObject: {fileID: 1120884866}
  m_Enabled: 1
  m_EditorHideFlags: 0
  m_Script: {fileID: 11500000, guid: 9b4de088e089c164bb239be84964ea4c, type: 3}
  m_Name: 
  m_EditorClassIdentifier: 
  UseColliders: 0
  gizmoType: 1
  alpha: 0.374
  debugSize: 0.18
  DebugColor: {r: 0.74264705, g: 0.5543491, b: 0.060067054, a: 1}
  DrawAxis: 0
  AxisSize: 0.65
--- !u!1001 &1188710749
Prefab:
  m_ObjectHideFlags: 0
  serializedVersion: 2
  m_Modification:
    m_TransformParent: {fileID: 0}
    m_Modifications:
    - target: {fileID: 4000010365219490, guid: 5d02e38bbb9c0e047a8e5076bf964489, type: 2}
      propertyPath: m_LocalPosition.x
      value: -35.86
      objectReference: {fileID: 0}
    - target: {fileID: 4000010365219490, guid: 5d02e38bbb9c0e047a8e5076bf964489, type: 2}
      propertyPath: m_LocalPosition.y
      value: 0
      objectReference: {fileID: 0}
    - target: {fileID: 4000010365219490, guid: 5d02e38bbb9c0e047a8e5076bf964489, type: 2}
      propertyPath: m_LocalPosition.z
      value: 18.42
      objectReference: {fileID: 0}
    - target: {fileID: 4000010365219490, guid: 5d02e38bbb9c0e047a8e5076bf964489, type: 2}
      propertyPath: m_LocalRotation.x
      value: 0
      objectReference: {fileID: 0}
    - target: {fileID: 4000010365219490, guid: 5d02e38bbb9c0e047a8e5076bf964489, type: 2}
      propertyPath: m_LocalRotation.y
      value: 0.7071068
      objectReference: {fileID: 0}
    - target: {fileID: 4000010365219490, guid: 5d02e38bbb9c0e047a8e5076bf964489, type: 2}
      propertyPath: m_LocalRotation.z
      value: 0
      objectReference: {fileID: 0}
    - target: {fileID: 4000010365219490, guid: 5d02e38bbb9c0e047a8e5076bf964489, type: 2}
      propertyPath: m_LocalRotation.w
      value: 0.7071068
      objectReference: {fileID: 0}
    - target: {fileID: 4000010365219490, guid: 5d02e38bbb9c0e047a8e5076bf964489, type: 2}
      propertyPath: m_RootOrder
      value: 6
      objectReference: {fileID: 0}
    m_RemovedComponents: []
  m_ParentPrefab: {fileID: 100100000, guid: 5d02e38bbb9c0e047a8e5076bf964489, type: 2}
  m_IsPrefabParent: 0
--- !u!1 &1198419573
GameObject:
  m_ObjectHideFlags: 0
  m_PrefabParentObject: {fileID: 1010917695792330, guid: 2a65965de9bf08841b8a8978d2939b08,
    type: 2}
  m_PrefabInternal: {fileID: 0}
  serializedVersion: 5
  m_Component:
  - component: {fileID: 1198419574}
  - component: {fileID: 1198419576}
  - component: {fileID: 1198419575}
  m_Layer: 2
  m_Name: Canvas Zones
  m_TagString: Untagged
  m_Icon: {fileID: 0}
  m_NavMeshLayer: 0
  m_StaticEditorFlags: 0
  m_IsActive: 1
--- !u!224 &1198419574
RectTransform:
  m_ObjectHideFlags: 0
  m_PrefabParentObject: {fileID: 224933768135138826, guid: 2a65965de9bf08841b8a8978d2939b08,
    type: 2}
  m_PrefabInternal: {fileID: 0}
  m_GameObject: {fileID: 1198419573}
  m_LocalRotation: {x: 0, y: 1, z: 0, w: 0}
  m_LocalPosition: {x: 0, y: 0, z: 0}
  m_LocalScale: {x: 0.121235736, y: 0.121235736, z: 0.121235736}
  m_Children:
  - {fileID: 125518763}
  - {fileID: 1707146182}
  m_Father: {fileID: 540250515}
  m_RootOrder: 0
  m_LocalEulerAnglesHint: {x: 0, y: 180, z: 0}
  m_AnchorMin: {x: 0, y: 0}
  m_AnchorMax: {x: 0, y: 0}
  m_AnchoredPosition: {x: -0, y: 0.262}
  m_SizeDelta: {x: 19.5, y: 8}
  m_Pivot: {x: 0.5, y: 0.5}
--- !u!114 &1198419575
MonoBehaviour:
  m_ObjectHideFlags: 0
  m_PrefabParentObject: {fileID: 114142751200505936, guid: 2a65965de9bf08841b8a8978d2939b08,
    type: 2}
  m_PrefabInternal: {fileID: 0}
  m_GameObject: {fileID: 1198419573}
  m_Enabled: 1
  m_EditorHideFlags: 0
  m_Script: {fileID: 1980459831, guid: f5f67c52d1564df4a8936ccd202a3bd8, type: 3}
  m_Name: 
  m_EditorClassIdentifier: 
  m_UiScaleMode: 1
  m_ReferencePixelsPerUnit: 100
  m_ScaleFactor: 1
  m_ReferenceResolution: {x: 800, y: 600}
  m_ScreenMatchMode: 0
  m_MatchWidthOrHeight: 0
  m_PhysicalUnit: 3
  m_FallbackScreenDPI: 96
  m_DefaultSpriteDPI: 96
  m_DynamicPixelsPerUnit: 1
--- !u!223 &1198419576
Canvas:
  m_ObjectHideFlags: 0
  m_PrefabParentObject: {fileID: 223369611830847632, guid: 2a65965de9bf08841b8a8978d2939b08,
    type: 2}
  m_PrefabInternal: {fileID: 0}
  m_GameObject: {fileID: 1198419573}
  m_Enabled: 1
  serializedVersion: 3
  m_RenderMode: 2
  m_Camera: {fileID: 0}
  m_PlaneDistance: 100
  m_PixelPerfect: 1
  m_ReceivesEvents: 1
  m_OverrideSorting: 0
  m_OverridePixelPerfect: 0
  m_SortingBucketNormalizedSize: 0
  m_AdditionalShaderChannelsFlag: 25
  m_SortingLayerID: 0
  m_SortingOrder: 0
  m_TargetDisplay: 0
--- !u!1 &1243937422
GameObject:
  m_ObjectHideFlags: 0
  m_PrefabParentObject: {fileID: 1658228013256324, guid: 2a65965de9bf08841b8a8978d2939b08,
    type: 2}
  m_PrefabInternal: {fileID: 0}
  serializedVersion: 5
  m_Component:
  - component: {fileID: 1243937423}
  - component: {fileID: 1243937426}
  - component: {fileID: 1243937425}
  - component: {fileID: 1243937424}
  m_Layer: 0
  m_Name: Cube (2)
  m_TagString: Untagged
  m_Icon: {fileID: 0}
  m_NavMeshLayer: 0
  m_StaticEditorFlags: 40
  m_IsActive: 1
--- !u!4 &1243937423
Transform:
  m_ObjectHideFlags: 0
  m_PrefabParentObject: {fileID: 4439142333899892, guid: 2a65965de9bf08841b8a8978d2939b08,
    type: 2}
  m_PrefabInternal: {fileID: 0}
  m_GameObject: {fileID: 1243937422}
  m_LocalRotation: {x: -0, y: -0, z: -0, w: 1}
  m_LocalPosition: {x: 3.41, y: 0, z: 9.77}
  m_LocalScale: {x: 4.4604945, y: 7.0124607, z: 7.2029696}
  m_Children: []
  m_Father: {fileID: 1926615373}
  m_RootOrder: 4
  m_LocalEulerAnglesHint: {x: 0, y: 0, z: 0}
--- !u!23 &1243937424
MeshRenderer:
  m_ObjectHideFlags: 0
  m_PrefabParentObject: {fileID: 23818854045642920, guid: 2a65965de9bf08841b8a8978d2939b08,
    type: 2}
  m_PrefabInternal: {fileID: 0}
  m_GameObject: {fileID: 1243937422}
  m_Enabled: 1
  m_CastShadows: 1
  m_ReceiveShadows: 1
  m_MotionVectors: 1
  m_LightProbeUsage: 1
  m_ReflectionProbeUsage: 1
  m_Materials:
  - {fileID: 2100000, guid: a6630e18591dac942ab3dc5b3e93d936, type: 2}
  m_StaticBatchInfo:
    firstSubMesh: 0
    subMeshCount: 0
  m_StaticBatchRoot: {fileID: 0}
  m_ProbeAnchor: {fileID: 0}
  m_LightProbeVolumeOverride: {fileID: 0}
  m_ScaleInLightmap: 0.2
  m_PreserveUVs: 1
  m_IgnoreNormalsForChartDetection: 0
  m_ImportantGI: 0
  m_SelectedEditorRenderState: 3
  m_MinimumChartSize: 4
  m_AutoUVMaxDistance: 0.5
  m_AutoUVMaxAngle: 89
  m_LightmapParameters: {fileID: 0}
  m_SortingLayerID: 0
  m_SortingLayer: 0
  m_SortingOrder: 0
--- !u!65 &1243937425
BoxCollider:
  m_ObjectHideFlags: 0
  m_PrefabParentObject: {fileID: 65908301913919932, guid: 2a65965de9bf08841b8a8978d2939b08,
    type: 2}
  m_PrefabInternal: {fileID: 0}
  m_GameObject: {fileID: 1243937422}
  m_Material: {fileID: 0}
  m_IsTrigger: 0
  m_Enabled: 1
  serializedVersion: 2
  m_Size: {x: 1, y: 1, z: 1}
  m_Center: {x: 0, y: 0, z: 0}
--- !u!33 &1243937426
MeshFilter:
  m_ObjectHideFlags: 0
  m_PrefabParentObject: {fileID: 33038796673207814, guid: 2a65965de9bf08841b8a8978d2939b08,
    type: 2}
  m_PrefabInternal: {fileID: 0}
  m_GameObject: {fileID: 1243937422}
  m_Mesh: {fileID: 10202, guid: 0000000000000000e000000000000000, type: 0}
--- !u!1 &1276239717 stripped
GameObject:
  m_PrefabParentObject: {fileID: 1520815984310950, guid: fd75e4adbe599bc44a03eaa26aba9b16,
    type: 2}
  m_PrefabInternal: {fileID: 2102181084}
--- !u!1001 &1290519243
Prefab:
  m_ObjectHideFlags: 0
  serializedVersion: 2
  m_Modification:
    m_TransformParent: {fileID: 0}
    m_Modifications:
    - target: {fileID: 4926084978675608, guid: 5d8967513698c0d4aac3a48699f60f80, type: 2}
      propertyPath: m_LocalPosition.x
      value: -29.2
      objectReference: {fileID: 0}
    - target: {fileID: 4926084978675608, guid: 5d8967513698c0d4aac3a48699f60f80, type: 2}
      propertyPath: m_LocalPosition.y
      value: 0
      objectReference: {fileID: 0}
    - target: {fileID: 4926084978675608, guid: 5d8967513698c0d4aac3a48699f60f80, type: 2}
      propertyPath: m_LocalPosition.z
      value: 18
      objectReference: {fileID: 0}
    - target: {fileID: 4926084978675608, guid: 5d8967513698c0d4aac3a48699f60f80, type: 2}
      propertyPath: m_LocalRotation.x
      value: 0
      objectReference: {fileID: 0}
    - target: {fileID: 4926084978675608, guid: 5d8967513698c0d4aac3a48699f60f80, type: 2}
      propertyPath: m_LocalRotation.y
      value: 0
      objectReference: {fileID: 0}
    - target: {fileID: 4926084978675608, guid: 5d8967513698c0d4aac3a48699f60f80, type: 2}
      propertyPath: m_LocalRotation.z
      value: 0
      objectReference: {fileID: 0}
    - target: {fileID: 4926084978675608, guid: 5d8967513698c0d4aac3a48699f60f80, type: 2}
      propertyPath: m_LocalRotation.w
      value: 1
      objectReference: {fileID: 0}
    - target: {fileID: 4926084978675608, guid: 5d8967513698c0d4aac3a48699f60f80, type: 2}
      propertyPath: m_RootOrder
      value: 3
      objectReference: {fileID: 0}
    - target: {fileID: 114850911703415236, guid: 5d8967513698c0d4aac3a48699f60f80,
        type: 2}
      propertyPath: m_Target
      value: 
      objectReference: {fileID: 0}
    - target: {fileID: 114850911703415236, guid: 5d8967513698c0d4aac3a48699f60f80,
        type: 2}
      propertyPath: updateType
      value: 0
      objectReference: {fileID: 0}
    m_RemovedComponents: []
  m_ParentPrefab: {fileID: 100100000, guid: 5d8967513698c0d4aac3a48699f60f80, type: 2}
  m_IsPrefabParent: 0
--- !u!1 &1323809466
GameObject:
  m_ObjectHideFlags: 0
  m_PrefabParentObject: {fileID: 1349860235340182, guid: 2a65965de9bf08841b8a8978d2939b08,
    type: 2}
  m_PrefabInternal: {fileID: 0}
  serializedVersion: 5
  m_Component:
  - component: {fileID: 1323809467}
  - component: {fileID: 1323809470}
  - component: {fileID: 1323809469}
  - component: {fileID: 1323809468}
  m_Layer: 0
  m_Name: Cube (3)
  m_TagString: Untagged
  m_Icon: {fileID: 0}
  m_NavMeshLayer: 0
  m_StaticEditorFlags: 40
  m_IsActive: 1
--- !u!4 &1323809467
Transform:
  m_ObjectHideFlags: 0
  m_PrefabParentObject: {fileID: 4817317349414500, guid: 2a65965de9bf08841b8a8978d2939b08,
    type: 2}
  m_PrefabInternal: {fileID: 0}
  m_GameObject: {fileID: 1323809466}
  m_LocalRotation: {x: -0, y: -0, z: -0, w: 1}
  m_LocalPosition: {x: 0, y: 0, z: 16.7}
  m_LocalScale: {x: 12.506076, y: 7.0124607, z: 7.0124607}
  m_Children: []
  m_Father: {fileID: 1926615373}
  m_RootOrder: 5
  m_LocalEulerAnglesHint: {x: 0, y: 0, z: 0}
--- !u!23 &1323809468
MeshRenderer:
  m_ObjectHideFlags: 0
  m_PrefabParentObject: {fileID: 23689610579825920, guid: 2a65965de9bf08841b8a8978d2939b08,
    type: 2}
  m_PrefabInternal: {fileID: 0}
  m_GameObject: {fileID: 1323809466}
  m_Enabled: 1
  m_CastShadows: 1
  m_ReceiveShadows: 1
  m_MotionVectors: 1
  m_LightProbeUsage: 1
  m_ReflectionProbeUsage: 1
  m_Materials:
  - {fileID: 2100000, guid: a6630e18591dac942ab3dc5b3e93d936, type: 2}
  m_StaticBatchInfo:
    firstSubMesh: 0
    subMeshCount: 0
  m_StaticBatchRoot: {fileID: 0}
  m_ProbeAnchor: {fileID: 0}
  m_LightProbeVolumeOverride: {fileID: 0}
  m_ScaleInLightmap: 0.2
  m_PreserveUVs: 1
  m_IgnoreNormalsForChartDetection: 0
  m_ImportantGI: 0
  m_SelectedEditorRenderState: 3
  m_MinimumChartSize: 4
  m_AutoUVMaxDistance: 0.5
  m_AutoUVMaxAngle: 89
  m_LightmapParameters: {fileID: 0}
  m_SortingLayerID: 0
  m_SortingLayer: 0
  m_SortingOrder: 0
--- !u!65 &1323809469
BoxCollider:
  m_ObjectHideFlags: 0
  m_PrefabParentObject: {fileID: 65614505081934218, guid: 2a65965de9bf08841b8a8978d2939b08,
    type: 2}
  m_PrefabInternal: {fileID: 0}
  m_GameObject: {fileID: 1323809466}
  m_Material: {fileID: 0}
  m_IsTrigger: 0
  m_Enabled: 1
  serializedVersion: 2
  m_Size: {x: 1, y: 1, z: 1}
  m_Center: {x: 0, y: 0, z: 0}
--- !u!33 &1323809470
MeshFilter:
  m_ObjectHideFlags: 0
  m_PrefabParentObject: {fileID: 33977726287470544, guid: 2a65965de9bf08841b8a8978d2939b08,
    type: 2}
  m_PrefabInternal: {fileID: 0}
  m_GameObject: {fileID: 1323809466}
  m_Mesh: {fileID: 10202, guid: 0000000000000000e000000000000000, type: 0}
--- !u!1001 &1350618969
Prefab:
  m_ObjectHideFlags: 0
  serializedVersion: 2
  m_Modification:
    m_TransformParent: {fileID: 0}
    m_Modifications:
    - target: {fileID: 4000013131833750, guid: 4c5ae9872c183684ea7685933eddc01c, type: 2}
      propertyPath: m_LocalPosition.x
      value: -30.663435
      objectReference: {fileID: 0}
    - target: {fileID: 4000013131833750, guid: 4c5ae9872c183684ea7685933eddc01c, type: 2}
      propertyPath: m_LocalPosition.y
      value: -3.9941937e-16
      objectReference: {fileID: 0}
    - target: {fileID: 4000013131833750, guid: 4c5ae9872c183684ea7685933eddc01c, type: 2}
      propertyPath: m_LocalPosition.z
      value: 17.988249
      objectReference: {fileID: 0}
    - target: {fileID: 4000013131833750, guid: 4c5ae9872c183684ea7685933eddc01c, type: 2}
      propertyPath: m_LocalRotation.x
      value: 0
      objectReference: {fileID: 0}
    - target: {fileID: 4000013131833750, guid: 4c5ae9872c183684ea7685933eddc01c, type: 2}
      propertyPath: m_LocalRotation.y
      value: 0
      objectReference: {fileID: 0}
    - target: {fileID: 4000013131833750, guid: 4c5ae9872c183684ea7685933eddc01c, type: 2}
      propertyPath: m_LocalRotation.z
      value: 0
      objectReference: {fileID: 0}
    - target: {fileID: 4000013131833750, guid: 4c5ae9872c183684ea7685933eddc01c, type: 2}
      propertyPath: m_LocalRotation.w
      value: 1
      objectReference: {fileID: 0}
    - target: {fileID: 4000013131833750, guid: 4c5ae9872c183684ea7685933eddc01c, type: 2}
      propertyPath: m_RootOrder
      value: 2
      objectReference: {fileID: 0}
    - target: {fileID: 114000013489415968, guid: 4c5ae9872c183684ea7685933eddc01c,
        type: 2}
      propertyPath: EditorEvents
      value: 1
      objectReference: {fileID: 0}
    - target: {fileID: 1000012582969644, guid: 4c5ae9872c183684ea7685933eddc01c, type: 2}
      propertyPath: m_IsActive
      value: 1
      objectReference: {fileID: 0}
    m_RemovedComponents: []
  m_ParentPrefab: {fileID: 100100000, guid: 4c5ae9872c183684ea7685933eddc01c, type: 2}
  m_IsPrefabParent: 0
--- !u!1 &1409457870 stripped
GameObject:
  m_PrefabParentObject: {fileID: 1424223265780910, guid: fd75e4adbe599bc44a03eaa26aba9b16,
    type: 2}
  m_PrefabInternal: {fileID: 2102181084}
--- !u!1 &1442601943
GameObject:
  m_ObjectHideFlags: 0
  m_PrefabParentObject: {fileID: 1062033739319740, guid: 2a65965de9bf08841b8a8978d2939b08,
    type: 2}
  m_PrefabInternal: {fileID: 0}
  serializedVersion: 5
  m_Component:
  - component: {fileID: 1442601944}
  - component: {fileID: 1442601945}
  m_Layer: 0
  m_Name: OffMeshLink End
  m_TagString: Untagged
  m_Icon: {fileID: 0}
  m_NavMeshLayer: 0
  m_StaticEditorFlags: 0
  m_IsActive: 1
--- !u!4 &1442601944
Transform:
  m_ObjectHideFlags: 0
  m_PrefabParentObject: {fileID: 4407292166705526, guid: 2a65965de9bf08841b8a8978d2939b08,
    type: 2}
  m_PrefabInternal: {fileID: 0}
  m_GameObject: {fileID: 1442601943}
  m_LocalRotation: {x: -0, y: -0, z: -0, w: 1}
  m_LocalPosition: {x: 0, y: -6.67, z: 5.67}
  m_LocalScale: {x: 1, y: 1, z: 1}
  m_Children: []
  m_Father: {fileID: 2011444239}
  m_RootOrder: 1
  m_LocalEulerAnglesHint: {x: 0, y: 0, z: 0}
--- !u!114 &1442601945
MonoBehaviour:
  m_ObjectHideFlags: 0
  m_PrefabParentObject: {fileID: 114622405064722314, guid: 2a65965de9bf08841b8a8978d2939b08,
    type: 2}
  m_PrefabInternal: {fileID: 0}
  m_GameObject: {fileID: 1442601943}
  m_Enabled: 1
  m_EditorHideFlags: 0
  m_Script: {fileID: 11500000, guid: 9b4de088e089c164bb239be84964ea4c, type: 3}
  m_Name: 
  m_EditorClassIdentifier: 
  UseColliders: 0
  gizmoType: 1
  alpha: 0.374
  debugSize: 0.18
  DebugColor: {r: 0.9867141, g: 0.03676468, b: 1, a: 1}
  DrawAxis: 0
  AxisSize: 0.3
--- !u!1 &1477640120
GameObject:
  m_ObjectHideFlags: 0
  m_PrefabParentObject: {fileID: 1750427936712090, guid: 2a65965de9bf08841b8a8978d2939b08,
    type: 2}
  m_PrefabInternal: {fileID: 0}
  serializedVersion: 5
  m_Component:
  - component: {fileID: 1477640121}
  - component: {fileID: 1477640124}
  - component: {fileID: 1477640123}
  - component: {fileID: 1477640122}
  m_Layer: 0
  m_Name: Cube (1)
  m_TagString: Untagged
  m_Icon: {fileID: 0}
  m_NavMeshLayer: 0
  m_StaticEditorFlags: 40
  m_IsActive: 1
--- !u!4 &1477640121
Transform:
  m_ObjectHideFlags: 0
  m_PrefabParentObject: {fileID: 4340729594569518, guid: 2a65965de9bf08841b8a8978d2939b08,
    type: 2}
  m_PrefabInternal: {fileID: 0}
  m_GameObject: {fileID: 1477640120}
  m_LocalRotation: {x: -0, y: -0, z: 0.13856463, w: 0.99035347}
  m_LocalPosition: {x: -12.07, y: -1.89, z: 0}
  m_LocalScale: {x: 14.282944, y: 7.2040114, z: 7.0124607}
  m_Children: []
  m_Father: {fileID: 1926615373}
  m_RootOrder: 3
  m_LocalEulerAnglesHint: {x: 0, y: 0, z: 15.619}
--- !u!23 &1477640122
MeshRenderer:
  m_ObjectHideFlags: 0
  m_PrefabParentObject: {fileID: 23463689822351098, guid: 2a65965de9bf08841b8a8978d2939b08,
    type: 2}
  m_PrefabInternal: {fileID: 0}
  m_GameObject: {fileID: 1477640120}
  m_Enabled: 1
  m_CastShadows: 1
  m_ReceiveShadows: 1
  m_MotionVectors: 1
  m_LightProbeUsage: 1
  m_ReflectionProbeUsage: 1
  m_Materials:
  - {fileID: 2100000, guid: a6630e18591dac942ab3dc5b3e93d936, type: 2}
  m_StaticBatchInfo:
    firstSubMesh: 0
    subMeshCount: 0
  m_StaticBatchRoot: {fileID: 0}
  m_ProbeAnchor: {fileID: 0}
  m_LightProbeVolumeOverride: {fileID: 0}
  m_ScaleInLightmap: 0.2
  m_PreserveUVs: 1
  m_IgnoreNormalsForChartDetection: 0
  m_ImportantGI: 0
  m_SelectedEditorRenderState: 3
  m_MinimumChartSize: 4
  m_AutoUVMaxDistance: 0.5
  m_AutoUVMaxAngle: 89
  m_LightmapParameters: {fileID: 0}
  m_SortingLayerID: 0
  m_SortingLayer: 0
  m_SortingOrder: 0
--- !u!65 &1477640123
BoxCollider:
  m_ObjectHideFlags: 0
  m_PrefabParentObject: {fileID: 65002480496252432, guid: 2a65965de9bf08841b8a8978d2939b08,
    type: 2}
  m_PrefabInternal: {fileID: 0}
  m_GameObject: {fileID: 1477640120}
  m_Material: {fileID: 0}
  m_IsTrigger: 0
  m_Enabled: 1
  serializedVersion: 2
  m_Size: {x: 1, y: 1, z: 1}
  m_Center: {x: 0, y: 0, z: 0}
--- !u!33 &1477640124
MeshFilter:
  m_ObjectHideFlags: 0
  m_PrefabParentObject: {fileID: 33478946419909564, guid: 2a65965de9bf08841b8a8978d2939b08,
    type: 2}
  m_PrefabInternal: {fileID: 0}
  m_GameObject: {fileID: 1477640120}
  m_Mesh: {fileID: 10202, guid: 0000000000000000e000000000000000, type: 0}
--- !u!1 &1478128603
GameObject:
  m_ObjectHideFlags: 0
  m_PrefabParentObject: {fileID: 1314047634617520, guid: 2a65965de9bf08841b8a8978d2939b08,
    type: 2}
  m_PrefabInternal: {fileID: 0}
  serializedVersion: 5
  m_Component:
  - component: {fileID: 1478128604}
  - component: {fileID: 1478128607}
  - component: {fileID: 1478128606}
  - component: {fileID: 1478128605}
  m_Layer: 0
  m_Name: Plane
  m_TagString: Untagged
  m_Icon: {fileID: 0}
  m_NavMeshLayer: 0
  m_StaticEditorFlags: 40
  m_IsActive: 1
--- !u!4 &1478128604
Transform:
  m_ObjectHideFlags: 0
  m_PrefabParentObject: {fileID: 4516689311356572, guid: 2a65965de9bf08841b8a8978d2939b08,
    type: 2}
  m_PrefabInternal: {fileID: 0}
  m_GameObject: {fileID: 1478128603}
  m_LocalRotation: {x: -0, y: -0, z: -0, w: 1}
  m_LocalPosition: {x: 0, y: 0, z: 0}
  m_LocalScale: {x: 25.539848, y: 25.539852, z: 25.539852}
  m_Children: []
  m_Father: {fileID: 1926615373}
  m_RootOrder: 1
  m_LocalEulerAnglesHint: {x: 0, y: 0, z: 0}
--- !u!23 &1478128605
MeshRenderer:
  m_ObjectHideFlags: 0
  m_PrefabParentObject: {fileID: 23244293430102986, guid: 2a65965de9bf08841b8a8978d2939b08,
    type: 2}
  m_PrefabInternal: {fileID: 0}
  m_GameObject: {fileID: 1478128603}
  m_Enabled: 1
  m_CastShadows: 1
  m_ReceiveShadows: 1
  m_MotionVectors: 1
  m_LightProbeUsage: 1
  m_ReflectionProbeUsage: 1
  m_Materials:
  - {fileID: 2100000, guid: a2a8b06b79e80b7429fe71020958a190, type: 2}
  m_StaticBatchInfo:
    firstSubMesh: 0
    subMeshCount: 0
  m_StaticBatchRoot: {fileID: 0}
  m_ProbeAnchor: {fileID: 0}
  m_LightProbeVolumeOverride: {fileID: 0}
  m_ScaleInLightmap: 0.2
  m_PreserveUVs: 1
  m_IgnoreNormalsForChartDetection: 0
  m_ImportantGI: 0
  m_SelectedEditorRenderState: 3
  m_MinimumChartSize: 4
  m_AutoUVMaxDistance: 0.5
  m_AutoUVMaxAngle: 89
  m_LightmapParameters: {fileID: 0}
  m_SortingLayerID: 0
  m_SortingLayer: 0
  m_SortingOrder: 0
--- !u!64 &1478128606
MeshCollider:
  m_ObjectHideFlags: 0
  m_PrefabParentObject: {fileID: 64771758282808126, guid: 2a65965de9bf08841b8a8978d2939b08,
    type: 2}
  m_PrefabInternal: {fileID: 0}
  m_GameObject: {fileID: 1478128603}
  m_Material: {fileID: 0}
  m_IsTrigger: 0
  m_Enabled: 1
  serializedVersion: 2
  m_Convex: 0
  m_InflateMesh: 0
  m_SkinWidth: 0.01
  m_Mesh: {fileID: 10209, guid: 0000000000000000e000000000000000, type: 0}
--- !u!33 &1478128607
MeshFilter:
  m_ObjectHideFlags: 0
  m_PrefabParentObject: {fileID: 33709235608607650, guid: 2a65965de9bf08841b8a8978d2939b08,
    type: 2}
  m_PrefabInternal: {fileID: 0}
  m_GameObject: {fileID: 1478128603}
  m_Mesh: {fileID: 10209, guid: 0000000000000000e000000000000000, type: 0}
--- !u!1 &1620108631
GameObject:
  m_ObjectHideFlags: 0
  m_PrefabParentObject: {fileID: 1680959112241252, guid: 2a65965de9bf08841b8a8978d2939b08,
    type: 2}
  m_PrefabInternal: {fileID: 0}
  serializedVersion: 5
  m_Component:
  - component: {fileID: 1620108632}
  - component: {fileID: 1620108634}
  - component: {fileID: 1620108633}
  m_Layer: 0
  m_Name: Meat
  m_TagString: Untagged
  m_Icon: {fileID: 0}
  m_NavMeshLayer: 0
  m_StaticEditorFlags: 0
  m_IsActive: 1
--- !u!4 &1620108632
Transform:
  m_ObjectHideFlags: 0
  m_PrefabParentObject: {fileID: 4199273299700922, guid: 2a65965de9bf08841b8a8978d2939b08,
    type: 2}
  m_PrefabInternal: {fileID: 0}
  m_GameObject: {fileID: 1620108631}
  m_LocalRotation: {x: -0.7071068, y: 0, z: -0, w: 0.7071068}
  m_LocalPosition: {x: 0, y: 0, z: 0}
  m_LocalScale: {x: 3.6494284, y: 3.649425, z: 3.649425}
  m_Children: []
  m_Father: {fileID: 540250515}
  m_RootOrder: 1
  m_LocalEulerAnglesHint: {x: 0, y: 0, z: 0}
--- !u!23 &1620108633
MeshRenderer:
  m_ObjectHideFlags: 0
  m_PrefabParentObject: {fileID: 23543977802718900, guid: 2a65965de9bf08841b8a8978d2939b08,
    type: 2}
  m_PrefabInternal: {fileID: 0}
  m_GameObject: {fileID: 1620108631}
  m_Enabled: 1
  m_CastShadows: 1
  m_ReceiveShadows: 1
  m_MotionVectors: 1
  m_LightProbeUsage: 1
  m_ReflectionProbeUsage: 1
  m_Materials:
  - {fileID: 2100000, guid: 20488338a935fcd4783a6ceee735ea05, type: 2}
  - {fileID: 2100000, guid: 892acda5c6b2b3b40bea063acf83ffbc, type: 2}
  m_StaticBatchInfo:
    firstSubMesh: 0
    subMeshCount: 0
  m_StaticBatchRoot: {fileID: 0}
  m_ProbeAnchor: {fileID: 0}
  m_LightProbeVolumeOverride: {fileID: 0}
  m_ScaleInLightmap: 1
  m_PreserveUVs: 0
  m_IgnoreNormalsForChartDetection: 0
  m_ImportantGI: 0
  m_SelectedEditorRenderState: 3
  m_MinimumChartSize: 4
  m_AutoUVMaxDistance: 0.5
  m_AutoUVMaxAngle: 89
  m_LightmapParameters: {fileID: 0}
  m_SortingLayerID: 0
  m_SortingLayer: 0
  m_SortingOrder: 0
--- !u!33 &1620108634
MeshFilter:
  m_ObjectHideFlags: 0
  m_PrefabParentObject: {fileID: 33060340164319582, guid: 2a65965de9bf08841b8a8978d2939b08,
    type: 2}
  m_PrefabInternal: {fileID: 0}
  m_GameObject: {fileID: 1620108631}
  m_Mesh: {fileID: 4300000, guid: 76e8abc7eb9c04f429ba0bd89cd23bd2, type: 3}
--- !u!1 &1707146181
GameObject:
  m_ObjectHideFlags: 0
  m_PrefabParentObject: {fileID: 1734848629594674, guid: 2a65965de9bf08841b8a8978d2939b08,
    type: 2}
  m_PrefabInternal: {fileID: 0}
  serializedVersion: 5
  m_Component:
  - component: {fileID: 1707146182}
  - component: {fileID: 1707146184}
  - component: {fileID: 1707146183}
  m_Layer: 2
  m_Name: Text (1)
  m_TagString: Untagged
  m_Icon: {fileID: 0}
  m_NavMeshLayer: 0
  m_StaticEditorFlags: 0
  m_IsActive: 1
--- !u!224 &1707146182
RectTransform:
  m_ObjectHideFlags: 0
  m_PrefabParentObject: {fileID: 224226815920019636, guid: 2a65965de9bf08841b8a8978d2939b08,
    type: 2}
  m_PrefabInternal: {fileID: 0}
  m_GameObject: {fileID: 1707146181}
  m_LocalRotation: {x: -0.000000115202326, y: 0.7071067, z: -0.7071068, w: -0.00000011520231}
  m_LocalPosition: {x: 0, y: 0, z: 3.62}
  m_LocalScale: {x: 0.026930964, y: 0.026930962, z: 0.026930962}
  m_Children: []
  m_Father: {fileID: 1198419574}
  m_RootOrder: 1
  m_LocalEulerAnglesHint: {x: 0, y: 0, z: 0}
  m_AnchorMin: {x: 0.5, y: 0.5}
  m_AnchorMax: {x: 0.5, y: 0.5}
  m_AnchoredPosition: {x: -0.00002259016, y: 0.56999177}
  m_SizeDelta: {x: 312.2, y: 120.5}
  m_Pivot: {x: 0.5, y: 0.5}
--- !u!114 &1707146183
MonoBehaviour:
  m_ObjectHideFlags: 0
  m_PrefabParentObject: {fileID: 114249142940977880, guid: 2a65965de9bf08841b8a8978d2939b08,
    type: 2}
  m_PrefabInternal: {fileID: 0}
  m_GameObject: {fileID: 1707146181}
  m_Enabled: 1
  m_EditorHideFlags: 0
  m_Script: {fileID: 708705254, guid: f5f67c52d1564df4a8936ccd202a3bd8, type: 3}
  m_Name: 
  m_EditorClassIdentifier: 
  m_Material: {fileID: 0}
  m_Color: {r: 1, g: 1, b: 1, a: 0.497}
  m_RaycastTarget: 1
  m_OnCullStateChanged:
    m_PersistentCalls:
      m_Calls: []
    m_TypeName: UnityEngine.UI.MaskableGraphic+CullStateChangedEvent, UnityEngine.UI,
      Version=1.0.0.0, Culture=neutral, PublicKeyToken=null
  m_FontData:
    m_Font: {fileID: 10102, guid: 0000000000000000e000000000000000, type: 0}
    m_FontSize: 58
    m_FontStyle: 0
    m_BestFit: 0
    m_MinSize: 10
    m_MaxSize: 82
    m_Alignment: 1
    m_AlignByGeometry: 0
    m_RichText: 1
    m_HorizontalOverflow: 0
    m_VerticalOverflow: 0
    m_LineSpacing: 1
  m_Text: press 'E'
--- !u!222 &1707146184
CanvasRenderer:
  m_ObjectHideFlags: 0
  m_PrefabParentObject: {fileID: 222940177508690280, guid: 2a65965de9bf08841b8a8978d2939b08,
    type: 2}
  m_PrefabInternal: {fileID: 0}
  m_GameObject: {fileID: 1707146181}
--- !u!1 &1736364813
GameObject:
  m_ObjectHideFlags: 0
  m_PrefabParentObject: {fileID: 1894271086417616, guid: 2a65965de9bf08841b8a8978d2939b08,
    type: 2}
  m_PrefabInternal: {fileID: 0}
  serializedVersion: 5
  m_Component:
  - component: {fileID: 1736364814}
  - component: {fileID: 1736364817}
  - component: {fileID: 1736364816}
  - component: {fileID: 1736364815}
  m_Layer: 0
  m_Name: Cube (2)
  m_TagString: Untagged
  m_Icon: {fileID: 0}
  m_NavMeshLayer: 0
  m_StaticEditorFlags: 8
  m_IsActive: 1
--- !u!4 &1736364814
Transform:
  m_ObjectHideFlags: 0
  m_PrefabParentObject: {fileID: 4291555355715742, guid: 2a65965de9bf08841b8a8978d2939b08,
    type: 2}
  m_PrefabInternal: {fileID: 0}
  m_GameObject: {fileID: 1736364813}
  m_LocalRotation: {x: 0.000000029249534, y: -0.93865174, z: -0.000000015958937, w: 0.34486654}
  m_LocalPosition: {x: -45.63, y: 1.23, z: 26.52}
  m_LocalScale: {x: 1.3584745, y: 3.6291673, z: 6.5410423}
  m_Children: []
  m_Father: {fileID: 1926615373}
  m_RootOrder: 14
  m_LocalEulerAnglesHint: {x: 0, y: -139.653, z: 0}
--- !u!23 &1736364815
MeshRenderer:
  m_ObjectHideFlags: 0
  m_PrefabParentObject: {fileID: 23482192204708936, guid: 2a65965de9bf08841b8a8978d2939b08,
    type: 2}
  m_PrefabInternal: {fileID: 0}
  m_GameObject: {fileID: 1736364813}
  m_Enabled: 1
  m_CastShadows: 1
  m_ReceiveShadows: 1
  m_MotionVectors: 1
  m_LightProbeUsage: 1
  m_ReflectionProbeUsage: 1
  m_Materials:
  - {fileID: 2100000, guid: a6630e18591dac942ab3dc5b3e93d936, type: 2}
  m_StaticBatchInfo:
    firstSubMesh: 0
    subMeshCount: 0
  m_StaticBatchRoot: {fileID: 0}
  m_ProbeAnchor: {fileID: 0}
  m_LightProbeVolumeOverride: {fileID: 0}
  m_ScaleInLightmap: 1
  m_PreserveUVs: 1
  m_IgnoreNormalsForChartDetection: 0
  m_ImportantGI: 0
  m_SelectedEditorRenderState: 3
  m_MinimumChartSize: 4
  m_AutoUVMaxDistance: 0.5
  m_AutoUVMaxAngle: 89
  m_LightmapParameters: {fileID: 0}
  m_SortingLayerID: 0
  m_SortingLayer: 0
  m_SortingOrder: 0
--- !u!65 &1736364816
BoxCollider:
  m_ObjectHideFlags: 0
  m_PrefabParentObject: {fileID: 65842389386895982, guid: 2a65965de9bf08841b8a8978d2939b08,
    type: 2}
  m_PrefabInternal: {fileID: 0}
  m_GameObject: {fileID: 1736364813}
  m_Material: {fileID: 0}
  m_IsTrigger: 0
  m_Enabled: 1
  serializedVersion: 2
  m_Size: {x: 1, y: 1, z: 1}
  m_Center: {x: 0, y: 0, z: 0}
--- !u!33 &1736364817
MeshFilter:
  m_ObjectHideFlags: 0
  m_PrefabParentObject: {fileID: 33345078029267616, guid: 2a65965de9bf08841b8a8978d2939b08,
    type: 2}
  m_PrefabInternal: {fileID: 0}
  m_GameObject: {fileID: 1736364813}
  m_Mesh: {fileID: 10202, guid: 0000000000000000e000000000000000, type: 0}
--- !u!1 &1845318562
GameObject:
  m_ObjectHideFlags: 0
  m_PrefabParentObject: {fileID: 0}
  m_PrefabInternal: {fileID: 0}
  serializedVersion: 5
  m_Component:
  - component: {fileID: 1845318565}
  - component: {fileID: 1845318564}
  - component: {fileID: 1845318563}
  m_Layer: 0
  m_Name: EventSystem
  m_TagString: Untagged
  m_Icon: {fileID: 0}
  m_NavMeshLayer: 0
  m_StaticEditorFlags: 0
  m_IsActive: 1
--- !u!114 &1845318563
MonoBehaviour:
  m_ObjectHideFlags: 0
  m_PrefabParentObject: {fileID: 0}
  m_PrefabInternal: {fileID: 0}
  m_GameObject: {fileID: 1845318562}
  m_Enabled: 1
  m_EditorHideFlags: 0
  m_Script: {fileID: 1077351063, guid: f5f67c52d1564df4a8936ccd202a3bd8, type: 3}
  m_Name: 
  m_EditorClassIdentifier: 
  m_HorizontalAxis: Horizontal
  m_VerticalAxis: Vertical
  m_SubmitButton: Submit
  m_CancelButton: Cancel
  m_InputActionsPerSecond: 10
  m_RepeatDelay: 0.5
  m_ForceModuleActive: 0
--- !u!114 &1845318564
MonoBehaviour:
  m_ObjectHideFlags: 0
  m_PrefabParentObject: {fileID: 0}
  m_PrefabInternal: {fileID: 0}
  m_GameObject: {fileID: 1845318562}
  m_Enabled: 1
  m_EditorHideFlags: 0
  m_Script: {fileID: -619905303, guid: f5f67c52d1564df4a8936ccd202a3bd8, type: 3}
  m_Name: 
  m_EditorClassIdentifier: 
  m_FirstSelected: {fileID: 0}
  m_sendNavigationEvents: 1
  m_DragThreshold: 5
--- !u!4 &1845318565
Transform:
  m_ObjectHideFlags: 0
  m_PrefabParentObject: {fileID: 0}
  m_PrefabInternal: {fileID: 0}
  m_GameObject: {fileID: 1845318562}
  m_LocalRotation: {x: 0, y: 0, z: 0, w: 1}
  m_LocalPosition: {x: 0, y: 0, z: 0}
  m_LocalScale: {x: 1, y: 1, z: 1}
  m_Children: []
  m_Father: {fileID: 0}
  m_RootOrder: 4
  m_LocalEulerAnglesHint: {x: 0, y: 0, z: 0}
--- !u!1 &1926615372
GameObject:
  m_ObjectHideFlags: 0
  m_PrefabParentObject: {fileID: 1927520562483752, guid: 2a65965de9bf08841b8a8978d2939b08,
    type: 2}
  m_PrefabInternal: {fileID: 0}
  serializedVersion: 5
  m_Component:
  - component: {fileID: 1926615373}
  m_Layer: 0
  m_Name: Environment  Big
  m_TagString: Untagged
  m_Icon: {fileID: 0}
  m_NavMeshLayer: 0
  m_StaticEditorFlags: 0
  m_IsActive: 1
--- !u!4 &1926615373
Transform:
  m_ObjectHideFlags: 0
  m_PrefabParentObject: {fileID: 4708725604862122, guid: 2a65965de9bf08841b8a8978d2939b08,
    type: 2}
  m_PrefabInternal: {fileID: 0}
  m_GameObject: {fileID: 1926615372}
  m_LocalRotation: {x: 0, y: 0, z: 0, w: 1}
  m_LocalPosition: {x: 0, y: 0, z: 0}
  m_LocalScale: {x: 1, y: 1, z: 1}
  m_Children:
  - {fileID: 898040541}
  - {fileID: 1478128604}
  - {fileID: 735788657}
  - {fileID: 1477640121}
  - {fileID: 1243937423}
  - {fileID: 1323809467}
  - {fileID: 708517947}
  - {fileID: 635893851}
  - {fileID: 19967735}
  - {fileID: 2030282593}
  - {fileID: 723820243}
  - {fileID: 978572335}
  - {fileID: 2095089004}
  - {fileID: 205045759}
  - {fileID: 1736364814}
  - {fileID: 867085155}
  - {fileID: 998060320}
  - {fileID: 843922730}
  - {fileID: 2011444239}
  - {fileID: 294414413}
  - {fileID: 727579952}
  - {fileID: 540250515}
  m_Father: {fileID: 0}
  m_RootOrder: 0
  m_LocalEulerAnglesHint: {x: 0, y: 0, z: 0}
--- !u!1 &2011444238
GameObject:
  m_ObjectHideFlags: 0
  m_PrefabParentObject: {fileID: 1143771213601312, guid: 2a65965de9bf08841b8a8978d2939b08,
    type: 2}
  m_PrefabInternal: {fileID: 0}
  serializedVersion: 5
  m_Component:
  - component: {fileID: 2011444239}
  - component: {fileID: 2011444240}
  m_Layer: 0
  m_Name: OffMeshLink Fall
  m_TagString: Untagged
  m_Icon: {fileID: 0}
  m_NavMeshLayer: 0
  m_StaticEditorFlags: 0
  m_IsActive: 1
--- !u!4 &2011444239
Transform:
  m_ObjectHideFlags: 0
  m_PrefabParentObject: {fileID: 4588301424389126, guid: 2a65965de9bf08841b8a8978d2939b08,
    type: 2}
  m_PrefabInternal: {fileID: 0}
  m_GameObject: {fileID: 2011444238}
  m_LocalRotation: {x: -0, y: 1, z: -0, w: 0}
  m_LocalPosition: {x: 3.24, y: 10.13, z: 24.63}
  m_LocalScale: {x: 1, y: 1, z: 1}
  m_Children:
  - {fileID: 821155650}
  - {fileID: 1442601944}
  m_Father: {fileID: 1926615373}
  m_RootOrder: 18
  m_LocalEulerAnglesHint: {x: 0, y: 180, z: 0}
--- !u!191 &2011444240
OffMeshLink:
  m_ObjectHideFlags: 0
  m_PrefabParentObject: {fileID: 191194636371014072, guid: 2a65965de9bf08841b8a8978d2939b08,
    type: 2}
  m_PrefabInternal: {fileID: 0}
  m_GameObject: {fileID: 2011444238}
  m_Enabled: 1
  serializedVersion: 3
  m_AreaIndex: 0
  m_AgentTypeID: 0
  m_Start: {fileID: 821155650}
  m_End: {fileID: 1442601944}
  m_CostOverride: -1
  m_BiDirectional: 0
  m_Activated: 1
  m_AutoUpdatePositions: 0
--- !u!1 &2030282592
GameObject:
  m_ObjectHideFlags: 0
  m_PrefabParentObject: {fileID: 1112350933918482, guid: 2a65965de9bf08841b8a8978d2939b08,
    type: 2}
  m_PrefabInternal: {fileID: 0}
  serializedVersion: 5
  m_Component:
  - component: {fileID: 2030282593}
  - component: {fileID: 2030282596}
  - component: {fileID: 2030282595}
  - component: {fileID: 2030282594}
  m_Layer: 0
  m_Name: Cube (7)
  m_TagString: Untagged
  m_Icon: {fileID: 0}
  m_NavMeshLayer: 0
  m_StaticEditorFlags: 40
  m_IsActive: 1
--- !u!4 &2030282593
Transform:
  m_ObjectHideFlags: 0
  m_PrefabParentObject: {fileID: 4653507563088154, guid: 2a65965de9bf08841b8a8978d2939b08,
    type: 2}
  m_PrefabInternal: {fileID: 0}
  m_GameObject: {fileID: 2030282592}
  m_LocalRotation: {x: -0, y: -0.7128694, z: -0, w: 0.7012968}
  m_LocalPosition: {x: -30.7, y: 4.1, z: 63.7}
  m_LocalScale: {x: 12.58379, y: 10.00694, z: 13.23858}
  m_Children: []
  m_Father: {fileID: 1926615373}
  m_RootOrder: 9
  m_LocalEulerAnglesHint: {x: 0, y: -90.938, z: 0}
--- !u!23 &2030282594
MeshRenderer:
  m_ObjectHideFlags: 0
  m_PrefabParentObject: {fileID: 23443939393731686, guid: 2a65965de9bf08841b8a8978d2939b08,
    type: 2}
  m_PrefabInternal: {fileID: 0}
  m_GameObject: {fileID: 2030282592}
  m_Enabled: 1
  m_CastShadows: 1
  m_ReceiveShadows: 1
  m_MotionVectors: 1
  m_LightProbeUsage: 1
  m_ReflectionProbeUsage: 1
  m_Materials:
  - {fileID: 2100000, guid: a6630e18591dac942ab3dc5b3e93d936, type: 2}
  m_StaticBatchInfo:
    firstSubMesh: 0
    subMeshCount: 0
  m_StaticBatchRoot: {fileID: 0}
  m_ProbeAnchor: {fileID: 0}
  m_LightProbeVolumeOverride: {fileID: 0}
  m_ScaleInLightmap: 0.2
  m_PreserveUVs: 1
  m_IgnoreNormalsForChartDetection: 0
  m_ImportantGI: 0
  m_SelectedEditorRenderState: 3
  m_MinimumChartSize: 4
  m_AutoUVMaxDistance: 0.5
  m_AutoUVMaxAngle: 89
  m_LightmapParameters: {fileID: 0}
  m_SortingLayerID: 0
  m_SortingLayer: 0
  m_SortingOrder: 0
--- !u!65 &2030282595
BoxCollider:
  m_ObjectHideFlags: 0
  m_PrefabParentObject: {fileID: 65656251562893330, guid: 2a65965de9bf08841b8a8978d2939b08,
    type: 2}
  m_PrefabInternal: {fileID: 0}
  m_GameObject: {fileID: 2030282592}
  m_Material: {fileID: 0}
  m_IsTrigger: 0
  m_Enabled: 1
  serializedVersion: 2
  m_Size: {x: 1, y: 1, z: 1}
  m_Center: {x: 0, y: 0, z: 0}
--- !u!33 &2030282596
MeshFilter:
  m_ObjectHideFlags: 0
  m_PrefabParentObject: {fileID: 33167433045250038, guid: 2a65965de9bf08841b8a8978d2939b08,
    type: 2}
  m_PrefabInternal: {fileID: 0}
  m_GameObject: {fileID: 2030282592}
  m_Mesh: {fileID: 10202, guid: 0000000000000000e000000000000000, type: 0}
--- !u!1 &2095089003
GameObject:
  m_ObjectHideFlags: 0
  m_PrefabParentObject: {fileID: 1403845796583878, guid: 2a65965de9bf08841b8a8978d2939b08,
    type: 2}
  m_PrefabInternal: {fileID: 0}
  serializedVersion: 5
  m_Component:
  - component: {fileID: 2095089004}
  - component: {fileID: 2095089007}
  - component: {fileID: 2095089006}
  - component: {fileID: 2095089005}
  m_Layer: 0
  m_Name: Cube
  m_TagString: Untagged
  m_Icon: {fileID: 0}
  m_NavMeshLayer: 0
  m_StaticEditorFlags: 8
  m_IsActive: 1
--- !u!4 &2095089004
Transform:
  m_ObjectHideFlags: 0
  m_PrefabParentObject: {fileID: 4319104046443116, guid: 2a65965de9bf08841b8a8978d2939b08,
    type: 2}
  m_PrefabInternal: {fileID: 0}
  m_GameObject: {fileID: 2095089003}
  m_LocalRotation: {x: -0, y: -0.42529792, z: 0.000000059604645, w: 0.9050535}
  m_LocalPosition: {x: -43.330006, y: 1.2299993, z: 20.919998}
  m_LocalScale: {x: 1.1551588, y: 3.6291664, z: 10.279734}
  m_Children: []
  m_Father: {fileID: 1926615373}
  m_RootOrder: 12
  m_LocalEulerAnglesHint: {x: 0, y: -50.339, z: 0}
--- !u!23 &2095089005
MeshRenderer:
  m_ObjectHideFlags: 0
  m_PrefabParentObject: {fileID: 23058544599354298, guid: 2a65965de9bf08841b8a8978d2939b08,
    type: 2}
  m_PrefabInternal: {fileID: 0}
  m_GameObject: {fileID: 2095089003}
  m_Enabled: 1
  m_CastShadows: 1
  m_ReceiveShadows: 1
  m_MotionVectors: 1
  m_LightProbeUsage: 1
  m_ReflectionProbeUsage: 1
  m_Materials:
  - {fileID: 2100000, guid: a6630e18591dac942ab3dc5b3e93d936, type: 2}
  m_StaticBatchInfo:
    firstSubMesh: 0
    subMeshCount: 0
  m_StaticBatchRoot: {fileID: 0}
  m_ProbeAnchor: {fileID: 0}
  m_LightProbeVolumeOverride: {fileID: 0}
  m_ScaleInLightmap: 1
  m_PreserveUVs: 1
  m_IgnoreNormalsForChartDetection: 0
  m_ImportantGI: 0
  m_SelectedEditorRenderState: 3
  m_MinimumChartSize: 4
  m_AutoUVMaxDistance: 0.5
  m_AutoUVMaxAngle: 89
  m_LightmapParameters: {fileID: 0}
  m_SortingLayerID: 0
  m_SortingLayer: 0
  m_SortingOrder: 0
--- !u!65 &2095089006
BoxCollider:
  m_ObjectHideFlags: 0
  m_PrefabParentObject: {fileID: 65077800388758490, guid: 2a65965de9bf08841b8a8978d2939b08,
    type: 2}
  m_PrefabInternal: {fileID: 0}
  m_GameObject: {fileID: 2095089003}
  m_Material: {fileID: 0}
  m_IsTrigger: 0
  m_Enabled: 1
  serializedVersion: 2
  m_Size: {x: 1, y: 1, z: 1}
  m_Center: {x: 0, y: 0, z: 0}
--- !u!33 &2095089007
MeshFilter:
  m_ObjectHideFlags: 0
  m_PrefabParentObject: {fileID: 33209234237644306, guid: 2a65965de9bf08841b8a8978d2939b08,
    type: 2}
  m_PrefabInternal: {fileID: 0}
  m_GameObject: {fileID: 2095089003}
  m_Mesh: {fileID: 10202, guid: 0000000000000000e000000000000000, type: 0}
--- !u!1001 &2102181084
Prefab:
  m_ObjectHideFlags: 0
  serializedVersion: 2
  m_Modification:
    m_TransformParent: {fileID: 0}
    m_Modifications:
    - target: {fileID: 4013620303694970, guid: fd75e4adbe599bc44a03eaa26aba9b16, type: 2}
      propertyPath: m_LocalPosition.x
      value: -33.211
      objectReference: {fileID: 0}
    - target: {fileID: 4013620303694970, guid: fd75e4adbe599bc44a03eaa26aba9b16, type: 2}
      propertyPath: m_LocalPosition.y
      value: 0
      objectReference: {fileID: 0}
    - target: {fileID: 4013620303694970, guid: fd75e4adbe599bc44a03eaa26aba9b16, type: 2}
      propertyPath: m_LocalPosition.z
      value: 17.988249
      objectReference: {fileID: 0}
    - target: {fileID: 4013620303694970, guid: fd75e4adbe599bc44a03eaa26aba9b16, type: 2}
      propertyPath: m_LocalRotation.x
      value: -0
      objectReference: {fileID: 0}
    - target: {fileID: 4013620303694970, guid: fd75e4adbe599bc44a03eaa26aba9b16, type: 2}
      propertyPath: m_LocalRotation.y
      value: -0
      objectReference: {fileID: 0}
    - target: {fileID: 4013620303694970, guid: fd75e4adbe599bc44a03eaa26aba9b16, type: 2}
      propertyPath: m_LocalRotation.z
      value: -0
      objectReference: {fileID: 0}
    - target: {fileID: 4013620303694970, guid: fd75e4adbe599bc44a03eaa26aba9b16, type: 2}
      propertyPath: m_LocalRotation.w
      value: 1
      objectReference: {fileID: 0}
    - target: {fileID: 4013620303694970, guid: fd75e4adbe599bc44a03eaa26aba9b16, type: 2}
      propertyPath: m_RootOrder
      value: 1
      objectReference: {fileID: 0}
    m_RemovedComponents: []
  m_ParentPrefab: {fileID: 100100000, guid: fd75e4adbe599bc44a03eaa26aba9b16, type: 2}
  m_IsPrefabParent: 0
--- !u!1 &2120081649 stripped
GameObject:
  m_PrefabParentObject: {fileID: 1455315743613722, guid: fd75e4adbe599bc44a03eaa26aba9b16,
    type: 2}
  m_PrefabInternal: {fileID: 2102181084}
